src/experiments/archive1/post_seminar/cycle_with_tricky_offset/dump.vcd
$date
	Fri Jan 24 17:34:19 2025
$end
$version
	Icarus Verilog
$end
$timescale
	100fs
$end
$scope module testbench $end
$var wire 1 ! output_c_aktv $end
$var wire 64 " output_c [63:0] $end
$var wire 1 # output_b_aktv $end
$var wire 64 $ output_b [63:0] $end
$var wire 1 % output_a_aktv $end
$var wire 64 & output_a [63:0] $end
$var wire 64 ' llc_stage [63:0] $end
$var wire 64 ( hlc_x [63:0] $end
$var wire 1 ) hlc_enC $end
$var wire 1 * hlc_enB $end
$var wire 1 + hlc_enA $end
$var wire 1 , hlc_clock $end
$var reg 1 - clk $end
$var reg 1 . en $end
$var reg 64 / input_x [63:0] $end
$var reg 1 0 new_input $end
$var reg 1 1 rst $end
$scope module monitor $end
$var wire 1 - clk $end
$var wire 1 . en $end
$var wire 1 2 eta $end
$var wire 1 3 eta_0 $end
$var wire 1 4 eta_1 $end
$var wire 64 5 input0_0 [63:0] $end
$var wire 1 0 input0_1 $end
$var wire 1 1 rst $end
$var wire 64 6 x [63:0] $end
$var wire 64 7 x_0 [63:0] $end
$var wire 64 8 x_2 [63:0] $end
$var wire 64 9 y [63:0] $end
$var wire 64 : x_1 [63:0] $end
$var wire 64 ; t [63:0] $end
$var wire 259 < result_9 [258:0] $end
$var wire 64 = result_7 [63:0] $end
$var wire 128 > result_6 [127:0] $end
$var wire 64 ? result_4 [63:0] $end
$var wire 3 @ result_3 [2:0] $end
$var wire 1 ! result_2_3_1 $end
$var wire 64 A result_2_3_0 [63:0] $end
$var wire 65 B result_2_3 [64:0] $end
$var wire 1 # result_2_2_1 $end
$var wire 64 C result_2_2_0 [63:0] $end
$var wire 65 D result_2_2 [64:0] $end
$var wire 1 % result_2_1_1 $end
$var wire 64 E result_2_1_0 [63:0] $end
$var wire 65 F result_2_1 [64:0] $end
$var wire 64 G result_2_0 [63:0] $end
$var wire 259 H result_2 [258:0] $end
$var wire 67 I result_1_4 [66:0] $end
$var wire 1 ) result_1_3 $end
$var wire 1 * result_1_2 $end
$var wire 1 + result_1_1 $end
$var wire 64 J result_1_0 [63:0] $end
$var wire 64 K result_14 [63:0] $end
$var wire 1 L result_13 $end
$var wire 67 M result_11 [66:0] $end
$var wire 64 N result_10 [63:0] $end
$var wire 1 , result_0 $end
$var wire 327 O result [326:0] $end
$var wire 64 P outC [63:0] $end
$var wire 65 Q input0 [64:0] $end
$var wire 64 R eta1 [63:0] $end
$var wire 1 S enC $end
$var wire 1 T enB $end
$var wire 1 U enA $end
$var wire 64 V \c$past1_app_arg [63:0] $end
$var wire 64 W \c$cur_app_arg [63:0] $end
$var wire 1 X b_2 $end
$var wire 1 Y b_1 $end
$var wire 1 Z b_0 $end
$var wire 1 [ b $end
$var wire 1 \ aktv_x $end
$var reg 64 ] \c$app_arg [63:0] $end
$var reg 64 ^ cur [63:0] $end
$var reg 64 _ past1 [63:0] $end
$var reg 67 ` result_12 [66:0] $end
$var reg 64 a result_15 [63:0] $end
$var reg 1 b result_16 $end
$var reg 64 c result_5 [63:0] $end
$var reg 64 d result_8 [63:0] $end
$var reg 64 e s [63:0] $end
$scope begin c$app_arg_delay $end
$upscope $end
$scope begin cur_register $end
$upscope $end
$scope begin past1_register $end
$upscope $end
$scope begin result_12_register $end
$upscope $end
$scope begin result_15_register $end
$upscope $end
$scope begin result_16_register $end
$upscope $end
$scope begin result_5_register $end
$upscope $end
$scope begin result_8_register $end
$upscope $end
$scope begin s_register $end
$upscope $end
$upscope $end
$upscope $end
$enddefinitions $end
$comment Show the parameter values. $end
$dumpall
$end
#0
$dumpvars
b0 e
b1100100 d
b1100100 c
0b
b0 a
b0 `
b0 _
b0 ^
b0 ]
0\
0[
0Z
1Y
1X
b0 W
b0 V
0U
0T
0S
b1100101 R
bx0 Q
b0 P
b110010000000000000000000000000000000000000000000000000000000000001100100000000000000000000000000000000000000000000000000000000000000000000 O
b1 N
b0 M
1L
b1 K
b0 J
b0 I
b110010000000000000000000000000000000000000000000000000000000000001100100000000000000000000000000000000000000000000000000000000000000000000 H
b0 G
b11001000 F
b1100100 E
b11001000 D
b1100100 C
b0 B
b0 A
b0 @
b1100100 ?
b0 >
b1100100 =
b110010000000000000000000000000000000000000000000000000000000000001100100000000000000000000000000000000000000000000000000000000000000000000 <
b1 ;
b0 :
b0 9
b0 8
b1100100 7
b1100100 6
bx 5
04
03
02
01
00
bx /
0.
0-
0,
0+
0*
0)
b0 (
b0 '
b1100100 &
0%
b1100100 $
0#
b0 "
0!
$end
#10000000
1-
#20000000
0-
#30000000
1-
#40000000
0-
#50000000
1-
#60000000
0-
#70000000
1-
#80000000
0-
#90000000
1-
#100000000
1\
0-
1.
10
b11 Q
b1 /
b1 5
#110000000
1,
b1111 M
b10 K
b10 N
b100000000000000000000000000000000000000000000000000000000000000000000000000000000000000000000000000000000000000000000000000000000000000000000000000000000000000000000000000000000000000000000110010000000000000000000000000000000000000000000000000000000000001100100000000000000000000000000000000000000000000000000000000000000000000 O
1b
b10 ;
b1 a
b1 8
b1 e
1-
#120000000
0-
#130000000
b1 =
b1 (
b1 J
1+
1*
1)
14
b1 '
b1 G
0L
b11 K
b1111 I
b1 :
1S
1T
1U
b11 N
b1000000000000000000000000000000000000000000000000000000000110010000000000000000000000000000000000000000000000000000000000001100100000000000000000000000000000000000000000000000000000000000000000000 H
0Y
b11 ;
b10 a
b1111 `
b10 8
b10 e
b100000000000000000000000000000000000000000000000000000000000000011110000000000000000000000000000000000000000000000000000000000000001000000000000000000000000000000000000000000000000000000000110010000000000000000000000000000000000000000000000000000000000001100100000000000000000000000000000000000000000000000000000000000000000000 O
b1000000000000000000000000000000000000000000000000000000000110010000000000000000000000000000000000000000000000000000000000001100100000000000000000000000000000000000000000000000000000000000000000000 <
b1 ]
1-
#140000000
0-
#150000000
b1 &
b1 E
b10 ?
b10 '
b10 G
b10 F
0,
b100 K
b100 N
12
04
b10000000000000000000000000000000000000000000000000000000000000000100000000000000000000000000000000000000000000000000000000001100100000000000000000000000000000000000000000000000000000000000000000000 H
0b
b100 ;
b11 a
b11 8
b11 e
b1 6
b1 d
b11110000000000000000000000000000000000000000000000000000000000000010000000000000000000000000000000000000000000000000000000000000000100000000000000000000000000000000000000000000000000000000001100100000000000000000000000000000000000000000000000000000000000000000000 O
b10000000000000000000000000000000000000000000000000000000000000000100000000000000000000000000000000000000000000000000000000001100100000000000000000000000000000000000000000000000000000000000000000000 <
b10 ]
1-
#160000000
0-
#170000000
b10 $
b10 C
b11 W
b11 '
b11 G
b100 D
b0 K
b0 N
02
13
b11000000000000000000000000000000000000000000000000000000000000000100000000000000000000000000000000000000000000000000000000000000010000000000000000000000000000000000000000000000000000000000000000000 H
0X
b101 ;
b100 a
1Z
b100 8
b100 e
b11 R
b10 7
b10 c
b11110000000000000000000000000000000000000000000000000000000000000011000000000000000000000000000000000000000000000000000000000000000100000000000000000000000000000000000000000000000000000000000000010000000000000000000000000000000000000000000000000000000000000000000 O
b11000000000000000000000000000000000000000000000000000000000000000100000000000000000000000000000000000000000000000000000000000000010000000000000000000000000000000000000000000000000000000000000000000 <
b11 ]
1-
#180000000
0-
#190000000
1%
1#
b11 "
b11 A
1!
b11 F
b101 D
b111 B
b100 '
b100 G
1L
b1 K
b1 N
b11 9
b11 P
03
b100000000000000000000000000000000000000000000000000000000000000000110000000000000000000000000000000000000000000000000000000000000010100000000000000000000000000000000000000000000000000000000000000111 H
b111 @
1Y
1X
b1 ;
b0 a
0Z
b0 8
b0 e
b11 >
b11 ^
b11110000000000000000000000000000000000000000000000000000000000000100000000000000000000000000000000000000000000000000000000000000000110000000000000000000000000000000000000000000000000000000000000010100000000000000000000000000000000000000000000000000000000000000111 O
b100000000000000000000000000000000000000000000000000000000000000000110000000000000000000000000000000000000000000000000000000000000010100000000000000000000000000000000000000000000000000000000000000111 <
1[
b100 ]
1-
#200000000
0-
b101 Q
b10 /
b10 5
#210000000
0%
0#
0!
b10 F
b100 D
b110 B
b0 '
b0 G
1,
b10111 M
b10 K
b10 N
b100000000000000000000000000000000000000000000000000000000000000010000000000000000000000000000000000000000000000000000000000000000110 H
b0 @
1b
b10 ;
b1 a
b1 8
b1 e
b100000000000000000000000000000000000000000000000000000000000000011110000000000000000000000000000000000000000000000000000000000000000000000000000000000000000000000000000000000000000000000000000000100000000000000000000000000000000000000000000000000000000000000010000000000000000000000000000000000000000000000000000000000000000110 O
b100000000000000000000000000000000000000000000000000000000000000010000000000000000000000000000000000000000000000000000000000000000110 <
0[
b0 ]
1-
#220000000
0-
#230000000
b10 (
b10 J
b101 =
b1 '
b1 G
0L
b11 K
b10111 I
b10 :
b11 N
14
b1000000000000000000000000000000000000000000000000000000000000000100000000000000000000000000000000000000000000000000000000000000010000000000000000000000000000000000000000000000000000000000000000110 H
0Y
b11 ;
b10 a
b10111 `
b10 8
b10 e
b100000000000000000000000000000000000000000000000000000000000000101110000000000000000000000000000000000000000000000000000000000000001000000000000000000000000000000000000000000000000000000000000000100000000000000000000000000000000000000000000000000000000000000010000000000000000000000000000000000000000000000000000000000000000110 O
b1000000000000000000000000000000000000000000000000000000000000000100000000000000000000000000000000000000000000000000000000000000010000000000000000000000000000000000000000000000000000000000000000110 <
b1 ]
1-
#240000000
0-
#250000000
b101 &
b101 E
b110 ?
b10 '
b10 G
b1010 F
0,
b100 K
b100 N
12
04
b10000000000000000000000000000000000000000000000000000000000000010100000000000000000000000000000000000000000000000000000000000000010000000000000000000000000000000000000000000000000000000000000000110 H
0b
b100 ;
b11 a
b11 8
b11 e
b101 6
b101 d
b101110000000000000000000000000000000000000000000000000000000000000010000000000000000000000000000000000000000000000000000000000000010100000000000000000000000000000000000000000000000000000000000000010000000000000000000000000000000000000000000000000000000000000000110 O
b10000000000000000000000000000000000000000000000000000000000000010100000000000000000000000000000000000000000000000000000000000000010000000000000000000000000000000000000000000000000000000000000000110 <
b10 ]
1-
#260000000
0-
#270000000
b110 $
b110 C
b11 V
b111 W
b11 '
b11 G
b1100 D
b0 K
b0 N
02
13
b11000000000000000000000000000000000000000000000000000000000000010100000000000000000000000000000000000000000000000000000000000000110000000000000000000000000000000000000000000000000000000000000000110 H
0X
b101 ;
b100 a
1Z
b100 8
b100 e
b111 R
b110 7
b110 c
b101110000000000000000000000000000000000000000000000000000000000000011000000000000000000000000000000000000000000000000000000000000010100000000000000000000000000000000000000000000000000000000000000110000000000000000000000000000000000000000000000000000000000000000110 O
b11000000000000000000000000000000000000000000000000000000000000010100000000000000000000000000000000000000000000000000000000000000110000000000000000000000000000000000000000000000000000000000000000110 <
b11 ]
1-
#280000000
0-
#290000000
1%
1#
b111 "
b111 A
1!
b1011 F
b1101 D
b1111 B
b100 '
b100 G
1L
b1 K
b1 N
b111 9
b111 P
03
b100000000000000000000000000000000000000000000000000000000000000010110000000000000000000000000000000000000000000000000000000000000110100000000000000000000000000000000000000000000000000000000000001111 H
b111 @
1Y
1X
b1 ;
b0 a
0Z
b0 8
b0 e
b11 _
b110000000000000000000000000000000000000000000000000000000000000111 >
b111 ^
b101110000000000000000000000000000000000000000000000000000000000000100000000000000000000000000000000000000000000000000000000000000010110000000000000000000000000000000000000000000000000000000000000110100000000000000000000000000000000000000000000000000000000000001111 O
b100000000000000000000000000000000000000000000000000000000000000010110000000000000000000000000000000000000000000000000000000000000110100000000000000000000000000000000000000000000000000000000000001111 <
1[
b100 ]
1-
#300000000
0-
b111 Q
b11 /
b11 5
#310000000
0%
0#
0!
b1010 F
b1100 D
b1110 B
b0 '
b0 G
1,
b11111 M
b10 K
b10 N
b10100000000000000000000000000000000000000000000000000000000000000110000000000000000000000000000000000000000000000000000000000000001110 H
b0 @
1b
b10 ;
b1 a
b1 8
b1 e
b100000000000000000000000000000000000000000000000000000000000000101110000000000000000000000000000000000000000000000000000000000000000000000000000000000000000000000000000000000000000000000000000010100000000000000000000000000000000000000000000000000000000000000110000000000000000000000000000000000000000000000000000000000000001110 O
b10100000000000000000000000000000000000000000000000000000000000000110000000000000000000000000000000000000000000000000000000000000001110 <
0[
b0 ]
1-
#320000000
0-
#330000000
b11 (
b11 J
b1010 =
b1 '
b1 G
0L
b11 K
b11111 I
b11 :
b11 N
14
b1000000000000000000000000000000000000000000000000000000000000010100000000000000000000000000000000000000000000000000000000000000110000000000000000000000000000000000000000000000000000000000000001110 H
0Y
b11 ;
b10 a
b11111 `
b10 8
b10 e
b100000000000000000000000000000000000000000000000000000000000000111110000000000000000000000000000000000000000000000000000000000000001000000000000000000000000000000000000000000000000000000000000010100000000000000000000000000000000000000000000000000000000000000110000000000000000000000000000000000000000000000000000000000000001110 O
b1000000000000000000000000000000000000000000000000000000000000010100000000000000000000000000000000000000000000000000000000000000110000000000000000000000000000000000000000000000000000000000000001110 <
b1 ]
1-
#340000000
0-
#350000000
b1010 &
b1010 E
b1011 ?
b10 '
b10 G
b10100 F
0,
b100 K
b100 N
12
04
b10000000000000000000000000000000000000000000000000000000000000101000000000000000000000000000000000000000000000000000000000000000110000000000000000000000000000000000000000000000000000000000000001110 H
0b
b100 ;
b11 a
b11 8
b11 e
b1010 6
b1010 d
b111110000000000000000000000000000000000000000000000000000000000000010000000000000000000000000000000000000000000000000000000000000101000000000000000000000000000000000000000000000000000000000000000110000000000000000000000000000000000000000000000000000000000000001110 O
b10000000000000000000000000000000000000000000000000000000000000101000000000000000000000000000000000000000000000000000000000000000110000000000000000000000000000000000000000000000000000000000000001110 <
b10 ]
1-
#360000000
0-
#370000000
b1011 $
b1011 C
b111 V
b1100 W
b11 '
b11 G
b10110 D
b0 K
b0 N
02
13
b11000000000000000000000000000000000000000000000000000000000000101000000000000000000000000000000000000000000000000000000000000001011000000000000000000000000000000000000000000000000000000000000001110 H
0X
b101 ;
b100 a
1Z
b100 8
b100 e
b1100 R
b1011 7
b1011 c
b111110000000000000000000000000000000000000000000000000000000000000011000000000000000000000000000000000000000000000000000000000000101000000000000000000000000000000000000000000000000000000000000001011000000000000000000000000000000000000000000000000000000000000001110 O
b11000000000000000000000000000000000000000000000000000000000000101000000000000000000000000000000000000000000000000000000000000001011000000000000000000000000000000000000000000000000000000000000001110 <
b11 ]
1-
#380000000
0-
#390000000
1%
1#
b1100 "
b1100 A
1!
b10101 F
b10111 D
b11001 B
b100 '
b100 G
1L
b1 K
b1 N
b1100 9
b1100 P
03
b100000000000000000000000000000000000000000000000000000000000000101010000000000000000000000000000000000000000000000000000000000001011100000000000000000000000000000000000000000000000000000000000011001 H
b111 @
1Y
1X
b1 ;
b0 a
0Z
b0 8
b0 e
b111 _
b1110000000000000000000000000000000000000000000000000000000000001100 >
b1100 ^
b111110000000000000000000000000000000000000000000000000000000000000100000000000000000000000000000000000000000000000000000000000000101010000000000000000000000000000000000000000000000000000000000001011100000000000000000000000000000000000000000000000000000000000011001 O
b100000000000000000000000000000000000000000000000000000000000000101010000000000000000000000000000000000000000000000000000000000001011100000000000000000000000000000000000000000000000000000000000011001 <
1[
b100 ]
1-
#400000000
0-
b1001 Q
b100 /
b100 5
#410000000
0%
0#
0!
b10100 F
b10110 D
b11000 B
b0 '
b0 G
1,
b100111 M
b10 K
b10 N
b101000000000000000000000000000000000000000000000000000000000000001011000000000000000000000000000000000000000000000000000000000000011000 H
b0 @
1b
b10 ;
b1 a
b1 8
b1 e
b100000000000000000000000000000000000000000000000000000000000000111110000000000000000000000000000000000000000000000000000000000000000000000000000000000000000000000000000000000000000000000000000101000000000000000000000000000000000000000000000000000000000000001011000000000000000000000000000000000000000000000000000000000000011000 O
b101000000000000000000000000000000000000000000000000000000000000001011000000000000000000000000000000000000000000000000000000000000011000 <
0[
b0 ]
1-
#420000000
0-
#430000000
b100 (
b100 J
b10000 =
b1 '
b1 G
0L
b11 K
b100111 I
b100 :
b11 N
14
b1000000000000000000000000000000000000000000000000000000000000101000000000000000000000000000000000000000000000000000000000000001011000000000000000000000000000000000000000000000000000000000000011000 H
0Y
b11 ;
b10 a
b100111 `
b10 8
b10 e
b100000000000000000000000000000000000000000000000000000000000001001110000000000000000000000000000000000000000000000000000000000000001000000000000000000000000000000000000000000000000000000000000101000000000000000000000000000000000000000000000000000000000000001011000000000000000000000000000000000000000000000000000000000000011000 O
b1000000000000000000000000000000000000000000000000000000000000101000000000000000000000000000000000000000000000000000000000000001011000000000000000000000000000000000000000000000000000000000000011000 <
b1 ]
1-
#440000000
0-
#450000000
b10000 &
b10000 E
b10001 ?
b10 '
b10 G
b100000 F
0,
b100 K
b100 N
12
04
b10000000000000000000000000000000000000000000000000000000000001000000000000000000000000000000000000000000000000000000000000000001011000000000000000000000000000000000000000000000000000000000000011000 H
0b
b100 ;
b11 a
b11 8
b11 e
b10000 6
b10000 d
b1001110000000000000000000000000000000000000000000000000000000000000010000000000000000000000000000000000000000000000000000000000001000000000000000000000000000000000000000000000000000000000000000001011000000000000000000000000000000000000000000000000000000000000011000 O
b10000000000000000000000000000000000000000000000000000000000001000000000000000000000000000000000000000000000000000000000000000001011000000000000000000000000000000000000000000000000000000000000011000 <
b10 ]
1-
#460000000
0-
#470000000
b10001 $
b10001 C
b1100 V
b10010 W
b11 '
b11 G
b100010 D
b0 K
b0 N
02
13
b11000000000000000000000000000000000000000000000000000000000001000000000000000000000000000000000000000000000000000000000000000010001000000000000000000000000000000000000000000000000000000000000011000 H
0X
b101 ;
b100 a
1Z
b100 8
b100 e
b10010 R
b10001 7
b10001 c
b1001110000000000000000000000000000000000000000000000000000000000000011000000000000000000000000000000000000000000000000000000000001000000000000000000000000000000000000000000000000000000000000000010001000000000000000000000000000000000000000000000000000000000000011000 O
b11000000000000000000000000000000000000000000000000000000000001000000000000000000000000000000000000000000000000000000000000000010001000000000000000000000000000000000000000000000000000000000000011000 <
b11 ]
1-
#480000000
0-
#490000000
1%
1#
b10010 "
b10010 A
1!
b100001 F
b100011 D
b100101 B
b100 '
b100 G
1L
b1 K
b1 N
b10010 9
b10010 P
03
b100000000000000000000000000000000000000000000000000000000000001000010000000000000000000000000000000000000000000000000000000000010001100000000000000000000000000000000000000000000000000000000000100101 H
b111 @
1Y
1X
b1 ;
b0 a
0Z
b0 8
b0 e
b1100 _
b11000000000000000000000000000000000000000000000000000000000000010010 >
b10010 ^
b1001110000000000000000000000000000000000000000000000000000000000000100000000000000000000000000000000000000000000000000000000000001000010000000000000000000000000000000000000000000000000000000000010001100000000000000000000000000000000000000000000000000000000000100101 O
b100000000000000000000000000000000000000000000000000000000000001000010000000000000000000000000000000000000000000000000000000000010001100000000000000000000000000000000000000000000000000000000000100101 <
1[
b100 ]
1-
#500000000
0-
b1011 Q
b101 /
b101 5
#510000000
0%
0#
0!
b100000 F
b100010 D
b100100 B
b0 '
b0 G
1,
b101111 M
b10 K
b10 N
b1000000000000000000000000000000000000000000000000000000000000000010001000000000000000000000000000000000000000000000000000000000000100100 H
b0 @
1b
b10 ;
b1 a
b1 8
b1 e
b100000000000000000000000000000000000000000000000000000000000001001110000000000000000000000000000000000000000000000000000000000000000000000000000000000000000000000000000000000000000000000000001000000000000000000000000000000000000000000000000000000000000000010001000000000000000000000000000000000000000000000000000000000000100100 O
b1000000000000000000000000000000000000000000000000000000000000000010001000000000000000000000000000000000000000000000000000000000000100100 <
0[
b0 ]
1-
#520000000
0-
#530000000
b101 (
b101 J
b10111 =
b1 '
b1 G
0L
b11 K
b101111 I
b101 :
b11 N
14
b1000000000000000000000000000000000000000000000000000000000001000000000000000000000000000000000000000000000000000000000000000010001000000000000000000000000000000000000000000000000000000000000100100 H
0Y
b11 ;
b10 a
b101111 `
b10 8
b10 e
b100000000000000000000000000000000000000000000000000000000000001011110000000000000000000000000000000000000000000000000000000000000001000000000000000000000000000000000000000000000000000000000001000000000000000000000000000000000000000000000000000000000000000010001000000000000000000000000000000000000000000000000000000000000100100 O
b1000000000000000000000000000000000000000000000000000000000001000000000000000000000000000000000000000000000000000000000000000010001000000000000000000000000000000000000000000000000000000000000100100 <
b1 ]
1-
#540000000
0-
#550000000
b10111 &
b10111 E
b11000 ?
b10 '
b10 G
b101110 F
0,
b100 K
b100 N
12
04
b10000000000000000000000000000000000000000000000000000000000001011100000000000000000000000000000000000000000000000000000000000010001000000000000000000000000000000000000000000000000000000000000100100 H
0b
b100 ;
b11 a
b11 8
b11 e
b10111 6
b10111 d
b1011110000000000000000000000000000000000000000000000000000000000000010000000000000000000000000000000000000000000000000000000000001011100000000000000000000000000000000000000000000000000000000000010001000000000000000000000000000000000000000000000000000000000000100100 O
b10000000000000000000000000000000000000000000000000000000000001011100000000000000000000000000000000000000000000000000000000000010001000000000000000000000000000000000000000000000000000000000000100100 <
b10 ]
1-
#560000000
0-
#570000000
b11000 $
b11000 C
b10010 V
b11001 W
b11 '
b11 G
b110000 D
b0 K
b0 N
02
13
b11000000000000000000000000000000000000000000000000000000000001011100000000000000000000000000000000000000000000000000000000000011000000000000000000000000000000000000000000000000000000000000000100100 H
0X
b101 ;
b100 a
1Z
b100 8
b100 e
b11001 R
b11000 7
b11000 c
b1011110000000000000000000000000000000000000000000000000000000000000011000000000000000000000000000000000000000000000000000000000001011100000000000000000000000000000000000000000000000000000000000011000000000000000000000000000000000000000000000000000000000000000100100 O
b11000000000000000000000000000000000000000000000000000000000001011100000000000000000000000000000000000000000000000000000000000011000000000000000000000000000000000000000000000000000000000000000100100 <
b11 ]
1-
#580000000
0-
#590000000
1%
1#
b11001 "
b11001 A
1!
b101111 F
b110001 D
b110011 B
b100 '
b100 G
1L
b1 K
b1 N
b11001 9
b11001 P
03
b100000000000000000000000000000000000000000000000000000000000001011110000000000000000000000000000000000000000000000000000000000011000100000000000000000000000000000000000000000000000000000000000110011 H
b111 @
1Y
1X
b1 ;
b0 a
0Z
b0 8
b0 e
b10010 _
b100100000000000000000000000000000000000000000000000000000000000011001 >
b11001 ^
b1011110000000000000000000000000000000000000000000000000000000000000100000000000000000000000000000000000000000000000000000000000001011110000000000000000000000000000000000000000000000000000000000011000100000000000000000000000000000000000000000000000000000000000110011 O
b100000000000000000000000000000000000000000000000000000000000001011110000000000000000000000000000000000000000000000000000000000011000100000000000000000000000000000000000000000000000000000000000110011 <
1[
b100 ]
1-
#600000000
0-
b1101 Q
b110 /
b110 5
#610000000
0%
0#
0!
b101110 F
b110000 D
b110010 B
b0 '
b0 G
1,
b110111 M
b10 K
b10 N
b1011100000000000000000000000000000000000000000000000000000000000011000000000000000000000000000000000000000000000000000000000000000110010 H
b0 @
1b
b10 ;
b1 a
b1 8
b1 e
b100000000000000000000000000000000000000000000000000000000000001011110000000000000000000000000000000000000000000000000000000000000000000000000000000000000000000000000000000000000000000000000001011100000000000000000000000000000000000000000000000000000000000011000000000000000000000000000000000000000000000000000000000000000110010 O
b1011100000000000000000000000000000000000000000000000000000000000011000000000000000000000000000000000000000000000000000000000000000110010 <
0[
b0 ]
1-
#620000000
0-
#630000000
b110 (
b110 J
b11111 =
b1 '
b1 G
0L
b11 K
b110111 I
b110 :
b11 N
14
b1000000000000000000000000000000000000000000000000000000000001011100000000000000000000000000000000000000000000000000000000000011000000000000000000000000000000000000000000000000000000000000000110010 H
0Y
b11 ;
b10 a
b110111 `
b10 8
b10 e
b100000000000000000000000000000000000000000000000000000000000001101110000000000000000000000000000000000000000000000000000000000000001000000000000000000000000000000000000000000000000000000000001011100000000000000000000000000000000000000000000000000000000000011000000000000000000000000000000000000000000000000000000000000000110010 O
b1000000000000000000000000000000000000000000000000000000000001011100000000000000000000000000000000000000000000000000000000000011000000000000000000000000000000000000000000000000000000000000000110010 <
b1 ]
1-
#640000000
0-
#650000000
b11111 &
b11111 E
b100000 ?
b10 '
b10 G
b111110 F
0,
b100 K
b100 N
12
04
b10000000000000000000000000000000000000000000000000000000000001111100000000000000000000000000000000000000000000000000000000000011000000000000000000000000000000000000000000000000000000000000000110010 H
0b
b100 ;
b11 a
b11 8
b11 e
b11111 6
b11111 d
b1101110000000000000000000000000000000000000000000000000000000000000010000000000000000000000000000000000000000000000000000000000001111100000000000000000000000000000000000000000000000000000000000011000000000000000000000000000000000000000000000000000000000000000110010 O
b10000000000000000000000000000000000000000000000000000000000001111100000000000000000000000000000000000000000000000000000000000011000000000000000000000000000000000000000000000000000000000000000110010 <
b10 ]
1-
#660000000
0-
#670000000
b100000 $
b100000 C
b11001 V
b100001 W
b11 '
b11 G
b1000000 D
b0 K
b0 N
02
13
b11000000000000000000000000000000000000000000000000000000000001111100000000000000000000000000000000000000000000000000000000000100000000000000000000000000000000000000000000000000000000000000000110010 H
0X
b101 ;
b100 a
1Z
b100 8
b100 e
b100001 R
b100000 7
b100000 c
b1101110000000000000000000000000000000000000000000000000000000000000011000000000000000000000000000000000000000000000000000000000001111100000000000000000000000000000000000000000000000000000000000100000000000000000000000000000000000000000000000000000000000000000110010 O
b11000000000000000000000000000000000000000000000000000000000001111100000000000000000000000000000000000000000000000000000000000100000000000000000000000000000000000000000000000000000000000000000110010 <
b11 ]
1-
#680000000
0-
#690000000
1%
1#
b100001 "
b100001 A
1!
b111111 F
b1000001 D
b1000011 B
b100 '
b100 G
1L
b1 K
b1 N
b100001 9
b100001 P
03
b100000000000000000000000000000000000000000000000000000000000001111110000000000000000000000000000000000000000000000000000000000100000100000000000000000000000000000000000000000000000000000000001000011 H
b111 @
1Y
1X
b1 ;
b0 a
0Z
b0 8
b0 e
b11001 _
b110010000000000000000000000000000000000000000000000000000000000100001 >
b100001 ^
b1101110000000000000000000000000000000000000000000000000000000000000100000000000000000000000000000000000000000000000000000000000001111110000000000000000000000000000000000000000000000000000000000100000100000000000000000000000000000000000000000000000000000000001000011 O
b100000000000000000000000000000000000000000000000000000000000001111110000000000000000000000000000000000000000000000000000000000100000100000000000000000000000000000000000000000000000000000000001000011 <
1[
b100 ]
1-
#700000000
0-
#710000000
0%
0#
0!
b111110 F
b1000000 D
b1000010 B
b0 '
b0 G
1,
b10 K
b10 N
b1111100000000000000000000000000000000000000000000000000000000000100000000000000000000000000000000000000000000000000000000000000001000010 H
b0 @
1b
b10 ;
b1 a
b1 8
b1 e
b100000000000000000000000000000000000000000000000000000000000001101110000000000000000000000000000000000000000000000000000000000000000000000000000000000000000000000000000000000000000000000000001111100000000000000000000000000000000000000000000000000000000000100000000000000000000000000000000000000000000000000000000000000001000010 O
b1111100000000000000000000000000000000000000000000000000000000000100000000000000000000000000000000000000000000000000000000000000001000010 <
0[
b0 ]
1-
