src/end_to_end_tests/tests/hold_access_without_non_offset_cycle1/generated/dump.vcd
$date
	Wed Jul 23 13:46:50 2025
$end
$version
	Icarus Verilog
$end
$timescale
	100fs
$end
$scope module testbench $end
$var wire 1 ! q_push_valid $end
$var wire 1 " q_push $end
$var wire 1 # q_pop_valid $end
$var wire 1 $ q_pop $end
$var wire 1 % output_1_aktv $end
$var wire 64 & output_1 [63:0] $end
$var wire 1 ' output_0_aktv $end
$var wire 64 ( output_0 [63:0] $end
$var wire 1 ) enable_out1 $end
$var wire 1 * enable_out0 $end
$var wire 1 + enable_in0 $end
$var reg 1 , clk $end
$var reg 1 - en $end
$var reg 64 . input_0 [63:0] $end
$var reg 1 / new_input_0 $end
$var reg 1 0 rst $end
$scope module monitor $end
$var wire 1 1 b $end
$var wire 1 2 b_0 $end
$var wire 1 3 b_5 $end
$var wire 68 4 \c$case_alt_4 [67:0] $end
$var wire 1 , clk $end
$var wire 1 - en $end
$var wire 64 5 inputs_0 [63:0] $end
$var wire 1 / inputs_1 $end
$var wire 1 6 iterateI_ho1_0_arg0 $end
$var wire 1 7 iterateI_ho1_0_arg0_0 $end
$var wire 1 8 iterateI_ho1_0_res $end
$var wire 1 9 iterateI_ho1_0_res_0 $end
$var wire 1 : iterateI_ho1_0_res_1 $end
$var wire 24 ; iterateI_ho1_0_res_2 [23:0] $end
$var wire 24 < iterateI_ho1_0_res_3 [23:0] $end
$var wire 1 = iterateI_ho1_0_res_4 $end
$var wire 1 > iterateI_ho1_0_res_5 $end
$var wire 1 ? iterateI_ho1_1_res $end
$var wire 1 @ iterateI_ho1_1_res_0 $end
$var wire 1 A iterateI_ho1_1_res_1 $end
$var wire 24 B iterateI_ho1_1_res_2 [23:0] $end
$var wire 1 C iterateI_ho1_1_res_3 $end
$var wire 1 D iterateI_ho1_2_res $end
$var wire 1 E iterateI_ho1_2_res_0 $end
$var wire 1 F iterateI_ho1_2_res_1 $end
$var wire 1 G iterateI_ho1_3_res $end
$var wire 1 H iterateI_ho1_3_res_0 $end
$var wire 1 I pIn0 $end
$var wire 1 0 rst $end
$var wire 64 J x [63:0] $end
$var wire 1 K x_0 $end
$var wire 1 L x_1 $end
$var wire 64 M x_2 [63:0] $end
$var wire 64 N x_3 [63:0] $end
$var wire 1 O x_4 $end
$var wire 64 P x_5 [63:0] $end
$var wire 64 Q x_6 [63:0] $end
$var wire 64 R y [63:0] $end
$var wire 8 S winTag [7:0] $end
$var wire 64 T winData [63:0] $end
$var wire 1 U timer0Over $end
$var wire 8 V tagToMatch [7:0] $end
$var wire 8 W tag [7:0] $end
$var wire 72 X t_0 [71:0] $end
$var wire 72 Y t [71:0] $end
$var wire 72 Z result_8 [71:0] $end
$var wire 1 [ result_7 $end
$var wire 1 \ result_6 $end
$var wire 134 ] result_5 [133:0] $end
$var wire 69 ^ result_4 [68:0] $end
$var wire 70 _ result_30 [69:0] $end
$var wire 1 ` result_29 $end
$var wire 64 a result_28 [63:0] $end
$var wire 64 b result_27 [63:0] $end
$var wire 1 c result_26 $end
$var wire 8 d result_25 [7:0] $end
$var wire 8 e result_24 [7:0] $end
$var wire 1 f result_23 $end
$var wire 1 g result_22 $end
$var wire 8 h result_21 [7:0] $end
$var wire 8 i result_20 [7:0] $end
$var wire 64 j result_2 [63:0] $end
$var wire 3 k result_1_4_7 [2:0] $end
$var wire 1 ) result_1_4_2 $end
$var wire 1 * result_1_4_1 $end
$var wire 1 + result_1_4_0 $end
$var wire 1 # result_1_3 $end
$var wire 1 ! result_1_2 $end
$var wire 1 $ result_1_1 $end
$var wire 1 " result_1_0 $end
$var wire 8 l result_19 [7:0] $end
$var wire 8 m result_18 [7:0] $end
$var wire 24 n result_17 [23:0] $end
$var wire 24 o result_16 [23:0] $end
$var wire 1 p result_15 $end
$var wire 8 q result_14 [7:0] $end
$var wire 72 r result_12 [71:0] $end
$var wire 72 s result_10 [71:0] $end
$var wire 7 t result_1 [6:0] $end
$var wire 1 % result_0_1_1 $end
$var wire 64 u result_0_1_0 [63:0] $end
$var wire 65 v result_0_1 [64:0] $end
$var wire 1 ' result_0_0_1 $end
$var wire 64 w result_0_0_0 [63:0] $end
$var wire 65 x result_0_0 [64:0] $end
$var wire 130 y result_0 [129:0] $end
$var wire 137 z result [136:0] $end
$var wire 1 { qPush $end
$var wire 1 | qPopValid $end
$var wire 1 } qPop $end
$var wire 68 ~ qData [67:0] $end
$var wire 3 !" pacings [2:0] $end
$var wire 1 "" pOut1 $end
$var wire 1 #" pOut0 $end
$var wire 1 $" pIn0_0 $end
$var wire 24 %" iterateI_ho1_0_arg0_2 [23:0] $end
$var wire 24 &" iterateI_ho1_0_arg0_1 [23:0] $end
$var wire 65 '" inputs [64:0] $end
$var wire 1 (" hasInput0 $end
$var wire 8 )" f1_1 [7:0] $end
$var wire 8 *" f1_0 [7:0] $end
$var wire 8 +" f1 [7:0] $end
$var wire 64 ," dta [63:0] $end
$var wire 64 -" \c$tte_rhs_0 [63:0] $end
$var wire 64 ." \c$tte_rhs [63:0] $end
$var wire 64 /" \c$out1_case_alt [63:0] $end
$var wire 64 0" \c$ds2_case_alt_0 [63:0] $end
$var wire 64 1" \c$ds2_case_alt [63:0] $end
$var wire 1 2" \c$cursor_case_scrut $end
$var wire 64 3" \c$cursor_case_alt_4 [63:0] $end
$var wire 64 4" \c$cursor_case_alt_2 [63:0] $end
$var wire 64 5" \c$cursor_case_alt_1 [63:0] $end
$var wire 64 6" \c$cursor_case_alt_0 [63:0] $end
$var wire 64 7" \c$cursor_case_alt [63:0] $end
$var wire 1 8" \c$case_alt_8 $end
$var wire 1 9" \c$case_alt_7 $end
$var wire 1 :" \c$case_alt_6 $end
$var wire 1 ;" \c$case_alt_5 $end
$var wire 1 <" \c$case_alt_12 $end
$var wire 1 =" \c$case_alt_11 $end
$var wire 1 >" \c$case_alt_10 $end
$var wire 68 ?" \c$case_alt_1 [67:0] $end
$var wire 68 @" \c$case_alt_0 [67:0] $end
$var wire 68 A" \c$case_alt [67:0] $end
$var wire 272 B" \c$buffer_case_alt_sel_alt_t_1 [271:0] $end
$var wire 272 C" \c$buffer_case_alt_sel_alt_f_2 [271:0] $end
$var wire 204 D" \c$buffer_case_alt_1 [203:0] $end
$var wire 204 E" \c$buffer_case_alt_0 [203:0] $end
$var wire 204 F" \c$buffer_case_alt [203:0] $end
$var wire 2 G" \c$app_arg_6 [1:0] $end
$var wire 3 H" \c$app_arg_5 [2:0] $end
$var wire 48 I" \c$app_arg_4 [47:0] $end
$var wire 72 J" \c$app_arg_3 [71:0] $end
$var wire 4 K" \c$app_arg_2 [3:0] $end
$var wire 8 L" \c$app_arg_1 [7:0] $end
$var wire 5 M" \c$app_arg_0 [4:0] $end
$var wire 5 N" \c$app_arg [4:0] $end
$var wire 1 O" b_4 $end
$var wire 1 P" b_3 $end
$var wire 1 Q" b_2 $end
$var wire 1 R" b_1 $end
$var reg 204 S" buffer [203:0] $end
$var reg 68 T" \c$app_arg_7 [67:0] $end
$var reg 1 U" \c$app_arg_8 $end
$var reg 1 V" \c$app_arg_9 $end
$var reg 1 8 \c$bb_res_res $end
$var reg 1 ? \c$bb_res_res_0 $end
$var reg 1 D \c$bb_res_res_1 $end
$var reg 24 W" \c$bb_res_res_10 [23:0] $end
$var reg 24 X" \c$bb_res_res_11 [23:0] $end
$var reg 24 Y" \c$bb_res_res_12 [23:0] $end
$var reg 1 = \c$bb_res_res_13 $end
$var reg 1 C \c$bb_res_res_14 $end
$var reg 1 > \c$bb_res_res_15 $end
$var reg 1 G \c$bb_res_res_2 $end
$var reg 1 9 \c$bb_res_res_3 $end
$var reg 1 @ \c$bb_res_res_4 $end
$var reg 1 E \c$bb_res_res_5 $end
$var reg 1 H \c$bb_res_res_6 $end
$var reg 1 : \c$bb_res_res_7 $end
$var reg 1 A \c$bb_res_res_8 $end
$var reg 1 F \c$bb_res_res_9 $end
$var reg 68 Z" \c$case_alt_2 [67:0] $end
$var reg 68 [" \c$case_alt_3 [67:0] $end
$var reg 1 \" \c$case_alt_9 $end
$var reg 64 ]" \c$cursor_case_alt_3 [63:0] $end
$var reg 64 ^" \c$ds_app_arg [63:0] $end
$var reg 64 _" cursor [63:0] $end
$var reg 72 `" result_11 [71:0] $end
$var reg 72 a" result_13 [71:0] $end
$var reg 64 b" result_3 [63:0] $end
$var reg 72 c" result_9 [71:0] $end
$var reg 8 d" t_1 [7:0] $end
$var reg 8 e" t_2 [7:0] $end
$var reg 8 f" t_3 [7:0] $end
$var reg 64 g" toWait [63:0] $end
$scope begin mk_array[0] $end
$var parameter 2 h" i $end
$upscope $end
$scope begin mk_array[1] $end
$var parameter 2 i" i $end
$upscope $end
$scope begin mk_array[2] $end
$var parameter 3 j" i $end
$upscope $end
$scope begin buffer_register $end
$upscope $end
$scope begin c$app_arg_7_register $end
$upscope $end
$scope begin c$app_arg_8_register $end
$upscope $end
$scope begin c$app_arg_9_register $end
$upscope $end
$scope begin c$bb_res_res_0_delay $end
$upscope $end
$scope begin c$bb_res_res_10_delay $end
$upscope $end
$scope begin c$bb_res_res_11_delay $end
$upscope $end
$scope begin c$bb_res_res_12_delay $end
$upscope $end
$scope begin c$bb_res_res_13_delay $end
$upscope $end
$scope begin c$bb_res_res_14_delay $end
$upscope $end
$scope begin c$bb_res_res_15_delay $end
$upscope $end
$scope begin c$bb_res_res_1_delay $end
$upscope $end
$scope begin c$bb_res_res_2_delay $end
$upscope $end
$scope begin c$bb_res_res_3_delay $end
$upscope $end
$scope begin c$bb_res_res_4_delay $end
$upscope $end
$scope begin c$bb_res_res_5_delay $end
$upscope $end
$scope begin c$bb_res_res_6_delay $end
$upscope $end
$scope begin c$bb_res_res_7_delay $end
$upscope $end
$scope begin c$bb_res_res_8_delay $end
$upscope $end
$scope begin c$bb_res_res_9_delay $end
$upscope $end
$scope begin c$bb_res_res_delay $end
$upscope $end
$scope begin c$ds_app_arg_delay $end
$upscope $end
$scope begin cursor_register $end
$upscope $end
$scope begin result_11_register $end
$upscope $end
$scope begin result_13_register $end
$upscope $end
$scope begin result_3_register $end
$upscope $end
$scope begin result_9_register $end
$upscope $end
$scope begin t_1_register $end
$upscope $end
$scope begin t_2_register $end
$upscope $end
$scope begin t_3_register $end
$upscope $end
$scope begin toWait_register $end
$upscope $end
$upscope $end
$upscope $end
$enddefinitions $end
$comment Show the parameter values. $end
$dumpall
b10 j"
b1 i"
b0 h"
$end
#20000000
$dumpvars
b0 g"
b1 f"
b1 e"
b1 d"
b110000000000000000000000000000000000000000000000000000000000000000 c"
b11111010000 b"
b110000000000000000000000000000000000000000000000000000000000000000 a"
b110000000000000000000000000000000000000000000000000000000000000000 `"
b0 _"
b0 ^"
b0 ]"
0\"
b0 ["
bx0000 Z"
b10000000100000001 Y"
b10000000100000001 X"
b10000000100000001 W"
0V"
0U"
b0 T"
b0 S"
0R"
0Q"
0P"
0O"
b0 N"
b0 M"
b0 L"
b0 K"
b10000000100000001000000010000000100000001000000010000000100000001 J"
b10000000100000001000000010000000100000001 I"
b0 H"
b0 G"
b0 F"
bx00000000000000000000000000000000000000000000000000000000000000000000000000000000000000000000000000000000000000000000000000000000000000000000 E"
bx00000000000000000000000000000000000000000000000000000000000000000000000000000000000000000000000000000000000000000000000000000000000000000000 D"
bx0000000000000000000000000000000000000000000000000000000000000000000000000000000000000000000000000000000000000000000000000000000000000000000000000000000000000000000000000000000000000000000000000000000000000000 C"
bx0000000000000000000000000000000000000000000000000000000000000000000000000000000000000000000000000000000000000000000000000000000000000000000000000000000000000000000000000000000000000000000000000000000000000000 B"
b0 A"
bx0000 @"
b0 ?"
0>"
1="
1<"
0;"
1:"
09"
x8"
b0 7"
b0 6"
b1 5"
b0 4"
b1111111111111111111111111111111111111111111111111111111111111111 3"
02"
b0 1"
b0 0"
b0 /"
b1 ."
b0 -"
b0 ,"
b10 +"
b10 *"
b10 )"
0("
bx0 '"
b10000000100000001 &"
b10000000100000001 %"
0$"
0#"
0""
b0 !"
bx0000 ~
1}
0|
0{
b100000 z
b0 y
b0 x
b0 w
b0 v
b0 u
b100000 t
b110000000000000000000000000000000000000000000000000000000000000000 s
b110000000000000000000000000000000000000000000000000000000000000000 r
b10 q
0p
b10000000100000001 o
b10000000100000001 n
b1 m
b10 l
b0 k
b111110100000 j
b1 i
b10 h
0g
0f
b1 e
b10 d
1c
b0 b
b0 a
0`
b0 _
b0xxxxxxxxxxxxxxxxxxxxxxxxxxxxxxxxxxxxxxxxxxxxxxxxxxxxxxxxxxxxxxxx0000 ^
b10000000000000000000000000000000000000000000000000000000000000000000000000000000000000000000000000000000000000000000000000000000000000 ]
0\
0[
b110000000000000000000000000000000000000000000000000000000000000000 Z
b10000000000000000000000000000000000000000000000000000000000000000 Y
b10000000000000000000000000000000000000000000000000000000000000001 X
b11 W
b1 V
0U
b0 T
b11 S
b0 R
b0 Q
b0 P
0O
b0 N
b0 M
0L
0K
b11111010000 J
0I
0H
0G
0F
0E
0D
0C
b10000000100000001 B
0A
0@
0?
0>
0=
b10000000100000001 <
b10000000100000001 ;
0:
09
08
07
06
bx 5
bx 4
03
02
01
00
0/
bx .
1-
1,
0+
0*
0)
b0 (
0'
b0 &
0%
1$
0#
0"
0!
$end
#30000000
0,
#40000000
b1011101110000 j
b111110100000 J
b111110100000 b"
1,
#50000000
0,
#60000000
b1111101000000 j
b1011101110000 J
b1011101110000 b"
1,
#70000000
0,
#80000000
b10011100010000 j
b1111101000000 J
b1111101000000 b"
1,
#90000000
0,
#100000000
b10111011100000 j
b10011100010000 J
b10011100010000 b"
1,
#110000000
0,
#120000000
b11011010110000 j
b10111011100000 J
b10111011100000 b"
1,
#130000000
0,
#140000000
b11111010000000 j
b11011010110000 J
b11011010110000 b"
1,
#150000000
0,
#160000000
b100011001010000 j
b11111010000000 J
b11111010000000 b"
1,
#170000000
0,
#180000000
b100111000100000 j
b100011001010000 J
b100011001010000 b"
1,
#190000000
0,
#200000000
b101010111110000 j
b100111000100000 J
b100111000100000 b"
1,
#210000000
0,
#220000000
b101110111000000 j
b101010111110000 J
b101010111110000 b"
1,
#230000000
0,
#240000000
b110010110010000 j
b101110111000000 J
b101110111000000 b"
1,
#250000000
0,
#260000000
b110110101100000 j
b110010110010000 J
b110010110010000 b"
1,
#270000000
0,
#280000000
b111010100110000 j
b110110101100000 J
b110110101100000 b"
1,
#290000000
0,
#300000000
b111110100000000 j
b111010100110000 J
b111010100110000 b"
1,
#310000000
0,
#320000000
b1000010011010000 j
b111110100000000 J
b111110100000000 b"
1,
#330000000
0,
#340000000
b1000110010100000 j
b1000010011010000 J
b1000010011010000 b"
1,
#350000000
0,
#360000000
b1001010001110000 j
b1000110010100000 J
b1000110010100000 b"
1,
#370000000
0,
#380000000
b1001110001000000 j
b1001010001110000 J
b1001010001110000 b"
1,
#390000000
0,
#400000000
b1010010000010000 j
b1001110001000000 J
b1001110001000000 b"
1,
#410000000
0,
#420000000
b1010101111100000 j
b1010010000010000 J
b1010010000010000 b"
1,
#430000000
0,
#440000000
b1011001110110000 j
b1010101111100000 J
b1010101111100000 b"
1,
#450000000
0,
#460000000
b1011101110000000 j
b1011001110110000 J
b1011001110110000 b"
1,
#470000000
0,
#480000000
b1100001101010000 j
b1011101110000000 J
b1011101110000000 b"
1,
#490000000
0,
#500000000
b1100101100100000 j
b1100001101010000 J
b1100001101010000 b"
1,
#510000000
0,
#520000000
b1101001011110000 j
b1100101100100000 J
b1100101100100000 b"
1,
#530000000
0,
#540000000
b1101101011000000 j
b1101001011110000 J
b1101001011110000 b"
1,
#550000000
0,
#560000000
b1110001010010000 j
b1101101011000000 J
b1101101011000000 b"
1,
#570000000
0,
#580000000
b1110101001100000 j
b1110001010010000 J
b1110001010010000 b"
1,
#590000000
0,
#600000000
b1111001000110000 j
b1110101001100000 J
b1110101001100000 b"
1,
#610000000
0,
#620000000
b1111101000000000 j
b1111001000110000 J
b1111001000110000 b"
1,
#630000000
0,
#640000000
b10000000111010000 j
b1111101000000000 J
b1111101000000000 b"
1,
#650000000
0,
#660000000
b10000100110100000 j
b10000000111010000 J
b10000000111010000 b"
1,
#670000000
0,
#680000000
b10001000101110000 j
b10000100110100000 J
b10000100110100000 b"
1,
#690000000
0,
#700000000
b10001100101000000 j
b10001000101110000 J
b10001000101110000 b"
1,
#710000000
0,
#720000000
b10010000100010000 j
b10001100101000000 J
b10001100101000000 b"
1,
#730000000
0,
#740000000
b10010100011100000 j
b10010000100010000 J
b10010000100010000 b"
1,
#750000000
0,
#760000000
b10011000010110000 j
b10010100011100000 J
b10010100011100000 b"
1,
#770000000
0,
#780000000
b10011100010000000 j
b10011000010110000 J
b10011000010110000 b"
1,
#790000000
0,
#800000000
b10100000001010000 j
b10011100010000000 J
b10011100010000000 b"
1,
#810000000
0,
#820000000
b10100100000100000 j
b10100000001010000 J
b10100000001010000 b"
1,
#830000000
0,
#840000000
b10100111111110000 j
b10100100000100000 J
b10100100000100000 b"
1,
#850000000
0,
#860000000
b10101011111000000 j
b10100111111110000 J
b10100111111110000 b"
1,
#870000000
0,
#880000000
b10101111110010000 j
b10101011111000000 J
b10101011111000000 b"
1,
#890000000
0,
#900000000
b10110011101100000 j
b10101111110010000 J
b10101111110010000 b"
1,
#910000000
0,
#920000000
b10110111100110000 j
b10110011101100000 J
b10110011101100000 b"
1,
#930000000
0,
#940000000
b10111011100000000 j
b10110111100110000 J
b10110111100110000 b"
1,
#950000000
0,
#960000000
b10111111011010000 j
b10111011100000000 J
b10111011100000000 b"
1,
#970000000
0,
#980000000
b11000011010100000 j
b10111111011010000 J
b10111111011010000 b"
1,
#990000000
0,
#1000000000
b11000111001110000 j
b11000011010100000 J
b11000011010100000 b"
1,
#1010000000
0,
#1020000000
b11001011001000000 j
b11000111001110000 J
b11000111001110000 b"
1,
#1030000000
0,
#1040000000
b11001111000010000 j
b11001011001000000 J
b11001011001000000 b"
1,
#1050000000
0,
#1060000000
b11010010111100000 j
b11001111000010000 J
b11001111000010000 b"
1,
#1070000000
0,
#1080000000
b11010110110110000 j
b11010010111100000 J
b11010010111100000 b"
1,
#1090000000
0,
#1100000000
b11011010110000000 j
b11010110110110000 J
b11010110110110000 b"
1,
#1110000000
0,
#1120000000
b11011110101010000 j
b11011010110000000 J
b11011010110000000 b"
1,
#1130000000
0,
#1140000000
b11100010100100000 j
b11011110101010000 J
b11011110101010000 b"
1,
#1150000000
0,
#1160000000
b11100110011110000 j
b11100010100100000 J
b11100010100100000 b"
1,
#1170000000
0,
#1180000000
b11101010011000000 j
b11100110011110000 J
b11100110011110000 b"
1,
#1190000000
0,
#1200000000
b11101110010010000 j
b11101010011000000 J
b11101010011000000 b"
1,
#1210000000
0,
#1220000000
b11110010001100000 j
b11101110010010000 J
b11101110010010000 b"
1,
#1230000000
0,
#1240000000
b11110110000110000 j
b11110010001100000 J
b11110010001100000 b"
1,
#1250000000
0,
#1260000000
b11111010000000000 j
b11110110000110000 J
b11110110000110000 b"
1,
#1270000000
0,
#1280000000
b11111101111010000 j
b11111010000000000 J
b11111010000000000 b"
1,
#1290000000
0,
#1300000000
b100000001110100000 j
b11111101111010000 J
b11111101111010000 b"
1,
#1310000000
0,
#1320000000
b100000101101110000 j
b100000001110100000 J
b100000001110100000 b"
1,
#1330000000
0,
#1340000000
b100001001101000000 j
b100000101101110000 J
b100000101101110000 b"
1,
#1350000000
0,
#1360000000
b100001101100010000 j
b100001001101000000 J
b100001001101000000 b"
1,
#1370000000
0,
#1380000000
b100010001011100000 j
b100001101100010000 J
b100001101100010000 b"
1,
#1390000000
0,
#1400000000
b100010101010110000 j
b100010001011100000 J
b100010001011100000 b"
1,
#1410000000
0,
#1420000000
b100011001010000000 j
b100010101010110000 J
b100010101010110000 b"
1,
#1430000000
0,
#1440000000
b100011101001010000 j
b100011001010000000 J
b100011001010000000 b"
1,
#1450000000
0,
#1460000000
b100100001000100000 j
b100011101001010000 J
b100011101001010000 b"
1,
#1470000000
0,
#1480000000
b100100100111110000 j
b100100001000100000 J
b100100001000100000 b"
1,
#1490000000
0,
#1500000000
b100101000111000000 j
b100100100111110000 J
b100100100111110000 b"
1,
#1510000000
0,
#1520000000
b100101100110010000 j
b100101000111000000 J
b100101000111000000 b"
1,
#1530000000
0,
#1540000000
b100110000101100000 j
b100101100110010000 J
b100101100110010000 b"
1,
#1550000000
0,
#1560000000
b100110100100110000 j
b100110000101100000 J
b100110000101100000 b"
1,
#1570000000
0,
#1580000000
b100111000100000000 j
b100110100100110000 J
b100110100100110000 b"
1,
#1590000000
0,
#1600000000
b100111100011010000 j
b100111000100000000 J
b100111000100000000 b"
1,
#1610000000
0,
#1620000000
b101000000010100000 j
b100111100011010000 J
b100111100011010000 b"
1,
#1630000000
0,
#1640000000
b101000100001110000 j
b101000000010100000 J
b101000000010100000 b"
1,
#1650000000
0,
#1660000000
b101001000001000000 j
b101000100001110000 J
b101000100001110000 b"
1,
#1670000000
0,
#1680000000
b101001100000010000 j
b101001000001000000 J
b101001000001000000 b"
1,
#1690000000
0,
#1700000000
b101001111111100000 j
b101001100000010000 J
b101001100000010000 b"
1,
#1710000000
0,
#1720000000
b101010011110110000 j
b101001111111100000 J
b101001111111100000 b"
1,
#1730000000
0,
#1740000000
b101010111110000000 j
b101010011110110000 J
b101010011110110000 b"
1,
#1750000000
0,
#1760000000
b101011011101010000 j
b101010111110000000 J
b101010111110000000 b"
1,
#1770000000
0,
#1780000000
b101011111100100000 j
b101011011101010000 J
b101011011101010000 b"
1,
#1790000000
0,
#1800000000
b101100011011110000 j
b101011111100100000 J
b101011111100100000 b"
1,
#1810000000
0,
#1820000000
b101100111011000000 j
b101100011011110000 J
b101100011011110000 b"
1,
#1830000000
0,
#1840000000
b101101011010010000 j
b101100111011000000 J
b101100111011000000 b"
1,
#1850000000
0,
#1860000000
b101101111001100000 j
b101101011010010000 J
b101101011010010000 b"
1,
#1870000000
0,
#1880000000
b101110011000110000 j
b101101111001100000 J
b101101111001100000 b"
1,
#1890000000
0,
#1900000000
b101110111000000000 j
b101110011000110000 J
b101110011000110000 b"
1,
#1910000000
0,
#1920000000
b101111010111010000 j
b101110111000000000 J
b101110111000000000 b"
1,
#1930000000
0,
#1940000000
b101111110110100000 j
b101111010111010000 J
b101111010111010000 b"
1,
#1950000000
0,
#1960000000
b110000010101110000 j
b101111110110100000 J
b101111110110100000 b"
1,
#1970000000
0,
#1980000000
b110000110101000000 j
b110000010101110000 J
b110000010101110000 b"
1,
#1990000000
0,
#2000000000
b110001010100010000 j
b110000110101000000 J
b110000110101000000 b"
1,
#2010000000
0,
#2020000000
b110001110011100000 j
b110001010100010000 J
b110001010100010000 b"
1,
#2030000000
0,
#2040000000
b110010010010110000 j
b110001110011100000 J
b110001110011100000 b"
1,
#2050000000
0,
#2060000000
b110010110010000000 j
b110010010010110000 J
b110010010010110000 b"
1,
#2070000000
0,
#2080000000
b110011010001010000 j
b110010110010000000 J
b110010110010000000 b"
1,
#2090000000
0,
#2100000000
b110011110000100000 j
b110011010001010000 J
b110011010001010000 b"
1,
#2110000000
0,
#2120000000
b110100001111110000 j
b110011110000100000 J
b110011110000100000 b"
1,
#2130000000
0,
#2140000000
b110100101111000000 j
b110100001111110000 J
b110100001111110000 b"
1,
#2150000000
0,
#2160000000
b110101001110010000 j
b110100101111000000 J
b110100101111000000 b"
1,
#2170000000
0,
#2180000000
b110101101101100000 j
b110101001110010000 J
b110101001110010000 b"
1,
#2190000000
0,
#2200000000
b110110001100110000 j
b110101101101100000 J
b110101101101100000 b"
1,
#2210000000
0,
#2220000000
b110110101100000000 j
b110110001100110000 J
b110110001100110000 b"
1,
#2230000000
0,
#2240000000
b110111001011010000 j
b110110101100000000 J
b110110101100000000 b"
1,
#2250000000
0,
#2260000000
b110111101010100000 j
b110111001011010000 J
b110111001011010000 b"
1,
#2270000000
0,
#2280000000
b111000001001110000 j
b110111101010100000 J
b110111101010100000 b"
1,
#2290000000
0,
#2300000000
b111000101001000000 j
b111000001001110000 J
b111000001001110000 b"
1,
#2310000000
0,
#2320000000
b111001001000010000 j
b111000101001000000 J
b111000101001000000 b"
1,
#2330000000
0,
#2340000000
b111001100111100000 j
b111001001000010000 J
b111001001000010000 b"
1,
#2350000000
0,
#2360000000
b111010000110110000 j
b111001100111100000 J
b111001100111100000 b"
1,
#2370000000
0,
#2380000000
b111010100110000000 j
b111010000110110000 J
b111010000110110000 b"
1,
#2390000000
0,
#2400000000
b111011000101010000 j
b111010100110000000 J
b111010100110000000 b"
1,
#2410000000
0,
#2420000000
b111011100100100000 j
b111011000101010000 J
b111011000101010000 b"
1,
#2430000000
0,
#2440000000
b111100000011110000 j
b111011100100100000 J
b111011100100100000 b"
1,
#2450000000
0,
#2460000000
b111100100011000000 j
b111100000011110000 J
b111100000011110000 b"
1,
#2470000000
0,
#2480000000
b111101000010010000 j
b111100100011000000 J
b111100100011000000 b"
1,
#2490000000
0,
#2500000000
b111101100001100000 j
b111101000010010000 J
b111101000010010000 b"
1,
#2510000000
0,
#2520000000
b111110000000110000 j
b111101100001100000 J
b111101100001100000 b"
1,
#2530000000
0,
#2540000000
b111110100000000000 j
b111110000000110000 J
b111110000000110000 b"
1,
#2550000000
0,
#2560000000
b111110111111010000 j
b111110100000000000 J
b111110100000000000 b"
1,
#2570000000
0,
#2580000000
b111111011110100000 j
b111110111111010000 J
b111110111111010000 b"
1,
#2590000000
0,
#2600000000
b111111111101110000 j
b111111011110100000 J
b111111011110100000 b"
1,
#2610000000
0,
#2620000000
b1000000011101000000 j
b111111111101110000 J
b111111111101110000 b"
1,
#2630000000
0,
#2640000000
b1000000111100010000 j
b1000000011101000000 J
b1000000011101000000 b"
1,
#2650000000
0,
#2660000000
b1000001011011100000 j
b1000000111100010000 J
b1000000111100010000 b"
1,
#2670000000
0,
#2680000000
b1000001111010110000 j
b1000001011011100000 J
b1000001011011100000 b"
1,
#2690000000
0,
#2700000000
b1000010011010000000 j
b1000001111010110000 J
b1000001111010110000 b"
1,
#2710000000
0,
#2720000000
b1000010111001010000 j
b1000010011010000000 J
b1000010011010000000 b"
1,
#2730000000
0,
#2740000000
b1000011011000100000 j
b1000010111001010000 J
b1000010111001010000 b"
1,
#2750000000
0,
#2760000000
b1000011110111110000 j
b1000011011000100000 J
b1000011011000100000 b"
1,
#2770000000
0,
#2780000000
b1000100010111000000 j
b1000011110111110000 J
b1000011110111110000 b"
1,
#2790000000
0,
#2800000000
b1000100110110010000 j
b1000100010111000000 J
b1000100010111000000 b"
1,
#2810000000
0,
#2820000000
b1000101010101100000 j
b1000100110110010000 J
b1000100110110010000 b"
1,
#2830000000
0,
#2840000000
b1000101110100110000 j
b1000101010101100000 J
b1000101010101100000 b"
1,
#2850000000
0,
#2860000000
b1000110010100000000 j
b1000101110100110000 J
b1000101110100110000 b"
1,
#2870000000
0,
#2880000000
b1000110110011010000 j
b1000110010100000000 J
b1000110010100000000 b"
1,
#2890000000
0,
#2900000000
b1000111010010100000 j
b1000110110011010000 J
b1000110110011010000 b"
1,
#2910000000
0,
#2920000000
b1000111110001110000 j
b1000111010010100000 J
b1000111010010100000 b"
1,
#2930000000
0,
#2940000000
b1001000010001000000 j
b1000111110001110000 J
b1000111110001110000 b"
1,
#2950000000
0,
#2960000000
b1001000110000010000 j
b1001000010001000000 J
b1001000010001000000 b"
1,
#2970000000
0,
#2980000000
b1001001001111100000 j
b1001000110000010000 J
b1001000110000010000 b"
1,
#2990000000
0,
#3000000000
b1001001101110110000 j
b1001001001111100000 J
b1001001001111100000 b"
1,
#3010000000
0,
#3020000000
b1001010001110000000 j
b1001001101110110000 J
b1001001101110110000 b"
1,
#3030000000
0,
#3040000000
b1001010101101010000 j
b1001010001110000000 J
b1001010001110000000 b"
1,
#3050000000
0,
#3060000000
b1001011001100100000 j
b1001010101101010000 J
b1001010101101010000 b"
1,
#3070000000
0,
#3080000000
b1001011101011110000 j
b1001011001100100000 J
b1001011001100100000 b"
1,
#3090000000
0,
#3100000000
b1001100001011000000 j
b1001011101011110000 J
b1001011101011110000 b"
1,
#3110000000
0,
#3120000000
b1001100101010010000 j
b1001100001011000000 J
b1001100001011000000 b"
1,
#3130000000
0,
#3140000000
b1001101001001100000 j
b1001100101010010000 J
b1001100101010010000 b"
1,
#3150000000
0,
#3160000000
b1001101101000110000 j
b1001101001001100000 J
b1001101001001100000 b"
1,
#3170000000
0,
#3180000000
b1001110001000000000 j
b1001101101000110000 J
b1001101101000110000 b"
1,
#3190000000
0,
#3200000000
b1001110100111010000 j
b1001110001000000000 J
b1001110001000000000 b"
1,
#3210000000
0,
#3220000000
b1001111000110100000 j
b1001110100111010000 J
b1001110100111010000 b"
1,
#3230000000
0,
#3240000000
b1001111100101110000 j
b1001111000110100000 J
b1001111000110100000 b"
1,
#3250000000
0,
#3260000000
b1010000000101000000 j
b1001111100101110000 J
b1001111100101110000 b"
1,
#3270000000
0,
#3280000000
b1010000100100010000 j
b1010000000101000000 J
b1010000000101000000 b"
1,
#3290000000
0,
#3300000000
b1010001000011100000 j
b1010000100100010000 J
b1010000100100010000 b"
1,
#3310000000
0,
#3320000000
b1010001100010110000 j
b1010001000011100000 J
b1010001000011100000 b"
1,
#3330000000
0,
#3340000000
b1010010000010000000 j
b1010001100010110000 J
b1010001100010110000 b"
1,
#3350000000
0,
#3360000000
b1010010100001010000 j
b1010010000010000000 J
b1010010000010000000 b"
1,
#3370000000
0,
#3380000000
b1010011000000100000 j
b1010010100001010000 J
b1010010100001010000 b"
1,
#3390000000
0,
#3400000000
b1010011011111110000 j
b1010011000000100000 J
b1010011000000100000 b"
1,
#3410000000
0,
#3420000000
b1010011111111000000 j
b1010011011111110000 J
b1010011011111110000 b"
1,
#3430000000
0,
