src/end_to_end_tests/tests/non_offset_cycle_across_event_based_and_periodic_2/generated/dump.vcd
$date
	Mon Jun  9 15:38:34 2025
$end
$version
	Icarus Verilog
$end
$timescale
	100fs
$end
$scope module testbench $end
$var wire 1 ! q_push_valid $end
$var wire 1 " q_push $end
$var wire 1 # q_pop_valid $end
$var wire 1 $ q_pop $end
$var wire 1 % output_2_aktv $end
$var wire 64 & output_2 [63:0] $end
$var wire 1 ' output_1_aktv $end
$var wire 64 ( output_1 [63:0] $end
$var wire 1 ) output_0_aktv $end
$var wire 64 * output_0 [63:0] $end
$var wire 1 + enable_out2 $end
$var wire 1 , enable_out1 $end
$var wire 1 - enable_out0 $end
$var wire 1 . enable_in1 $end
$var wire 1 / enable_in0 $end
$var reg 1 0 clk $end
$var reg 1 1 en $end
$var reg 64 2 input_0 [63:0] $end
$var reg 64 3 input_1 [63:0] $end
$var reg 1 4 new_input_0 $end
$var reg 1 5 new_input_1 $end
$var reg 1 6 rst $end
$scope module monitor $end
$var wire 1 7 b $end
$var wire 1 8 b_0 $end
$var wire 1 9 b_1 $end
$var wire 1 : b_8 $end
$var wire 135 ; \c$case_alt_4 [134:0] $end
$var wire 1 0 clk $end
$var wire 1 1 en $end
$var wire 64 < inputs_0_0 [63:0] $end
$var wire 1 4 inputs_0_1 $end
$var wire 64 = inputs_1_0 [63:0] $end
$var wire 1 5 inputs_1_1 $end
$var wire 1 > iterateI_ho1_0_arg0 $end
$var wire 1 ? iterateI_ho1_0_arg0_0 $end
$var wire 1 @ iterateI_ho1_0_arg0_1 $end
$var wire 1 A iterateI_ho1_0_res $end
$var wire 1 B iterateI_ho1_0_res_0 $end
$var wire 1 C iterateI_ho1_0_res_1 $end
$var wire 40 D iterateI_ho1_0_res_2 [39:0] $end
$var wire 1 E iterateI_ho1_0_res_3 $end
$var wire 40 F iterateI_ho1_0_res_4 [39:0] $end
$var wire 40 G iterateI_ho1_0_res_5 [39:0] $end
$var wire 1 H iterateI_ho1_0_res_6 $end
$var wire 1 I iterateI_ho1_0_res_7 $end
$var wire 1 J iterateI_ho1_0_res_8 $end
$var wire 1 K iterateI_ho1_0_res_9 $end
$var wire 1 L iterateI_ho1_1_res $end
$var wire 1 M iterateI_ho1_1_res_0 $end
$var wire 1 N iterateI_ho1_1_res_1 $end
$var wire 40 O iterateI_ho1_1_res_2 [39:0] $end
$var wire 1 P iterateI_ho1_1_res_3 $end
$var wire 40 Q iterateI_ho1_1_res_4 [39:0] $end
$var wire 1 R iterateI_ho1_1_res_5 $end
$var wire 1 S iterateI_ho1_1_res_6 $end
$var wire 1 T iterateI_ho1_2_res $end
$var wire 1 U iterateI_ho1_2_res_0 $end
$var wire 1 V iterateI_ho1_2_res_1 $end
$var wire 40 W iterateI_ho1_2_res_2 [39:0] $end
$var wire 1 X iterateI_ho1_2_res_3 $end
$var wire 1 Y iterateI_ho1_2_res_4 $end
$var wire 1 Z iterateI_ho1_3_res $end
$var wire 1 [ iterateI_ho1_3_res_0 $end
$var wire 1 \ iterateI_ho1_3_res_1 $end
$var wire 1 ] iterateI_ho1_3_res_2 $end
$var wire 1 ^ iterateI_ho1_4_res $end
$var wire 1 _ iterateI_ho1_4_res_0 $end
$var wire 1 ` iterateI_ho1_4_res_1 $end
$var wire 1 6 rst $end
$var wire 64 a x [63:0] $end
$var wire 1 b x_0 $end
$var wire 1 c x_1 $end
$var wire 64 d x_10 [63:0] $end
$var wire 64 e x_2 [63:0] $end
$var wire 1 f x_3 $end
$var wire 64 g x_4 [63:0] $end
$var wire 1 h x_5 $end
$var wire 64 i x_6 [63:0] $end
$var wire 1 j x_7 $end
$var wire 1 k x_8 $end
$var wire 64 l x_9 [63:0] $end
$var wire 64 m y [63:0] $end
$var wire 64 n y_0 [63:0] $end
$var wire 1 o timer0Over $end
$var wire 8 p tag_3 [7:0] $end
$var wire 8 q tag_2 [7:0] $end
$var wire 8 r tag_1 [7:0] $end
$var wire 8 s tag_0 [7:0] $end
$var wire 8 t tagToMatch_0 [7:0] $end
$var wire 8 u tagToMatch [7:0] $end
$var wire 8 v tag [7:0] $end
$var wire 72 w t_1 [71:0] $end
$var wire 72 x t_0 [71:0] $end
$var wire 72 y t [71:0] $end
$var wire 72 z result_9 [71:0] $end
$var wire 1 { result_8 $end
$var wire 1 | result_7 $end
$var wire 1 } result_6 $end
$var wire 201 ~ result_5 [200:0] $end
$var wire 137 !" result_41 [136:0] $end
$var wire 1 "" result_40 $end
$var wire 136 #" result_4 [135:0] $end
$var wire 64 $" result_39 [63:0] $end
$var wire 64 %" result_38 [63:0] $end
$var wire 1 &" result_37 $end
$var wire 8 '" result_36 [7:0] $end
$var wire 8 (" result_35 [7:0] $end
$var wire 1 )" result_34 $end
$var wire 8 *" result_33 [7:0] $end
$var wire 8 +" result_32 [7:0] $end
$var wire 1 ," result_31 $end
$var wire 1 -" result_30 $end
$var wire 1 ." result_29 $end
$var wire 8 /" result_28 [7:0] $end
$var wire 8 0" result_27 [7:0] $end
$var wire 8 1" result_26 [7:0] $end
$var wire 8 2" result_25 [7:0] $end
$var wire 8 3" result_24 [7:0] $end
$var wire 8 4" result_23 [7:0] $end
$var wire 40 5" result_22 [39:0] $end
$var wire 40 6" result_21 [39:0] $end
$var wire 1 7" result_20 $end
$var wire 64 8" result_2 [63:0] $end
$var wire 1 + result_1_4_4 $end
$var wire 1 , result_1_4_3 $end
$var wire 1 - result_1_4_2 $end
$var wire 5 9" result_1_4_11 [4:0] $end
$var wire 1 . result_1_4_1 $end
$var wire 1 / result_1_4_0 $end
$var wire 1 # result_1_3 $end
$var wire 1 ! result_1_2 $end
$var wire 1 $ result_1_1 $end
$var wire 1 " result_1_0 $end
$var wire 72 :" result_18 [71:0] $end
$var wire 40 ;" result_17 [39:0] $end
$var wire 72 <" result_15 [71:0] $end
$var wire 72 =" result_13 [71:0] $end
$var wire 72 >" result_11 [71:0] $end
$var wire 9 ?" result_1 [8:0] $end
$var wire 1 % result_0_2_1 $end
$var wire 64 @" result_0_2_0 [63:0] $end
$var wire 65 A" result_0_2 [64:0] $end
$var wire 1 ' result_0_1_1 $end
$var wire 64 B" result_0_1_0 [63:0] $end
$var wire 65 C" result_0_1 [64:0] $end
$var wire 1 ) result_0_0_1 $end
$var wire 64 D" result_0_0_0 [63:0] $end
$var wire 65 E" result_0_0 [64:0] $end
$var wire 195 F" result_0 [194:0] $end
$var wire 204 G" result [203:0] $end
$var wire 1 H" qPush $end
$var wire 1 I" qPopValid $end
$var wire 1 J" qPop $end
$var wire 135 K" qData [134:0] $end
$var wire 5 L" pacings [4:0] $end
$var wire 1 M" pOut2 $end
$var wire 1 N" pOut1 $end
$var wire 1 O" pOut0 $end
$var wire 1 P" pIn1 $end
$var wire 1 Q" pIn0_0 $end
$var wire 1 R" pIn0 $end
$var wire 40 S" iterateI_ho1_0_arg0_4 [39:0] $end
$var wire 40 T" iterateI_ho1_0_arg0_3 [39:0] $end
$var wire 40 U" iterateI_ho1_0_arg0_2 [39:0] $end
$var wire 130 V" inputs_2 [129:0] $end
$var wire 130 W" inputs [129:0] $end
$var wire 8 X" f1_3 [7:0] $end
$var wire 8 Y" f1_2 [7:0] $end
$var wire 8 Z" f1_1 [7:0] $end
$var wire 8 [" f1_0 [7:0] $end
$var wire 8 \" f1 [7:0] $end
$var wire 64 ]" dta_3 [63:0] $end
$var wire 64 ^" dta_2 [63:0] $end
$var wire 64 _" dta_1 [63:0] $end
$var wire 64 `" dta_0 [63:0] $end
$var wire 64 a" dta [63:0] $end
$var wire 64 b" \c$tte_rhs_0 [63:0] $end
$var wire 64 c" \c$tte_rhs [63:0] $end
$var wire 64 d" \c$out2_case_alt [63:0] $end
$var wire 64 e" \c$out1_case_alt_0 [63:0] $end
$var wire 64 f" \c$out1_case_alt [63:0] $end
$var wire 64 g" \c$out0_case_alt_0 [63:0] $end
$var wire 64 h" \c$out0_case_alt [63:0] $end
$var wire 1 i" \c$cursor_case_scrut $end
$var wire 64 j" \c$cursor_case_alt_4 [63:0] $end
$var wire 64 k" \c$cursor_case_alt_2 [63:0] $end
$var wire 64 l" \c$cursor_case_alt_1 [63:0] $end
$var wire 64 m" \c$cursor_case_alt_0 [63:0] $end
$var wire 64 n" \c$cursor_case_alt [63:0] $end
$var wire 1 o" \c$case_alt_8 $end
$var wire 1 p" \c$case_alt_7 $end
$var wire 1 q" \c$case_alt_6 $end
$var wire 1 r" \c$case_alt_5 $end
$var wire 1 s" \c$case_alt_12 $end
$var wire 1 t" \c$case_alt_11 $end
$var wire 1 u" \c$case_alt_10 $end
$var wire 135 v" \c$case_alt_1 [134:0] $end
$var wire 135 w" \c$case_alt_0 [134:0] $end
$var wire 135 x" \c$case_alt [134:0] $end
$var wire 675 y" \c$buffer_case_alt_sel_alt_t_1 [674:0] $end
$var wire 675 z" \c$buffer_case_alt_sel_alt_f_2 [674:0] $end
$var wire 540 {" \c$buffer_case_alt_1 [539:0] $end
$var wire 540 |" \c$buffer_case_alt_0 [539:0] $end
$var wire 540 }" \c$buffer_case_alt [539:0] $end
$var wire 2 ~" \c$app_arg_9 [1:0] $end
$var wire 2 !# \c$app_arg_8 [1:0] $end
$var wire 3 "# \c$app_arg_7 [2:0] $end
$var wire 5 ## \c$app_arg_6 [4:0] $end
$var wire 80 $# \c$app_arg_5 [79:0] $end
$var wire 120 %# \c$app_arg_4 [119:0] $end
$var wire 4 &# \c$app_arg_3 [3:0] $end
$var wire 160 '# \c$app_arg_2 [159:0] $end
$var wire 6 (# \c$app_arg_1 [5:0] $end
$var wire 6 )# \c$app_arg_0 [5:0] $end
$var wire 6 *# \c$app_arg [5:0] $end
$var wire 1 +# b_7 $end
$var wire 1 ,# b_6 $end
$var wire 1 -# b_5 $end
$var wire 1 .# b_4 $end
$var wire 1 /# b_3 $end
$var wire 1 0# b_2 $end
$var reg 540 1# buffer [539:0] $end
$var reg 135 2# \c$app_arg_10 [134:0] $end
$var reg 1 3# \c$app_arg_11 $end
$var reg 1 4# \c$app_arg_12 $end
$var reg 1 A \c$bb_res_res $end
$var reg 1 L \c$bb_res_res_0 $end
$var reg 1 T \c$bb_res_res_1 $end
$var reg 1 N \c$bb_res_res_10 $end
$var reg 1 V \c$bb_res_res_11 $end
$var reg 1 \ \c$bb_res_res_12 $end
$var reg 1 ` \c$bb_res_res_13 $end
$var reg 40 5# \c$bb_res_res_14 [39:0] $end
$var reg 40 6# \c$bb_res_res_15 [39:0] $end
$var reg 40 7# \c$bb_res_res_16 [39:0] $end
$var reg 1 E \c$bb_res_res_17 $end
$var reg 1 P \c$bb_res_res_18 $end
$var reg 1 X \c$bb_res_res_19 $end
$var reg 1 Z \c$bb_res_res_2 $end
$var reg 40 8# \c$bb_res_res_20 [39:0] $end
$var reg 40 9# \c$bb_res_res_21 [39:0] $end
$var reg 40 :# \c$bb_res_res_22 [39:0] $end
$var reg 1 H \c$bb_res_res_23 $end
$var reg 1 R \c$bb_res_res_24 $end
$var reg 1 Y \c$bb_res_res_25 $end
$var reg 1 ] \c$bb_res_res_26 $end
$var reg 1 I \c$bb_res_res_27 $end
$var reg 1 S \c$bb_res_res_28 $end
$var reg 1 J \c$bb_res_res_29 $end
$var reg 1 ^ \c$bb_res_res_3 $end
$var reg 1 K \c$bb_res_res_30 $end
$var reg 1 B \c$bb_res_res_4 $end
$var reg 1 M \c$bb_res_res_5 $end
$var reg 1 U \c$bb_res_res_6 $end
$var reg 1 [ \c$bb_res_res_7 $end
$var reg 1 _ \c$bb_res_res_8 $end
$var reg 1 C \c$bb_res_res_9 $end
$var reg 135 ;# \c$case_alt_2 [134:0] $end
$var reg 135 <# \c$case_alt_3 [134:0] $end
$var reg 1 =# \c$case_alt_9 $end
$var reg 64 ># \c$cursor_case_alt_3 [63:0] $end
$var reg 64 ?# \c$ds_app_arg [63:0] $end
$var reg 64 @# \c$ds_app_arg_0 [63:0] $end
$var reg 64 A# cursor [63:0] $end
$var reg 72 B# result_10 [71:0] $end
$var reg 72 C# result_12 [71:0] $end
$var reg 72 D# result_14 [71:0] $end
$var reg 72 E# result_16 [71:0] $end
$var reg 72 F# result_19 [71:0] $end
$var reg 64 G# result_3 [63:0] $end
$var reg 8 H# t_2 [7:0] $end
$var reg 8 I# t_3 [7:0] $end
$var reg 8 J# t_4 [7:0] $end
$var reg 8 K# t_5 [7:0] $end
$var reg 8 L# t_6 [7:0] $end
$var reg 64 M# toWait [63:0] $end
$scope begin mk_array[0] $end
$var parameter 2 N# i $end
$upscope $end
$scope begin mk_array[1] $end
$var parameter 2 O# i $end
$upscope $end
$scope begin mk_array[2] $end
$var parameter 3 P# i $end
$upscope $end
$scope begin mk_array[3] $end
$var parameter 3 Q# i $end
$upscope $end
$scope begin buffer_register $end
$upscope $end
$scope begin c$app_arg_10_register $end
$upscope $end
$scope begin c$app_arg_11_register $end
$upscope $end
$scope begin c$app_arg_12_register $end
$upscope $end
$scope begin c$bb_res_res_0_delay $end
$upscope $end
$scope begin c$bb_res_res_10_delay $end
$upscope $end
$scope begin c$bb_res_res_11_delay $end
$upscope $end
$scope begin c$bb_res_res_12_delay $end
$upscope $end
$scope begin c$bb_res_res_13_delay $end
$upscope $end
$scope begin c$bb_res_res_14_delay $end
$upscope $end
$scope begin c$bb_res_res_15_delay $end
$upscope $end
$scope begin c$bb_res_res_16_delay $end
$upscope $end
$scope begin c$bb_res_res_17_delay $end
$upscope $end
$scope begin c$bb_res_res_18_delay $end
$upscope $end
$scope begin c$bb_res_res_19_delay $end
$upscope $end
$scope begin c$bb_res_res_1_delay $end
$upscope $end
$scope begin c$bb_res_res_20_delay $end
$upscope $end
$scope begin c$bb_res_res_21_delay $end
$upscope $end
$scope begin c$bb_res_res_22_delay $end
$upscope $end
$scope begin c$bb_res_res_23_delay $end
$upscope $end
$scope begin c$bb_res_res_24_delay $end
$upscope $end
$scope begin c$bb_res_res_25_delay $end
$upscope $end
$scope begin c$bb_res_res_26_delay $end
$upscope $end
$scope begin c$bb_res_res_27_delay $end
$upscope $end
$scope begin c$bb_res_res_28_delay $end
$upscope $end
$scope begin c$bb_res_res_29_delay $end
$upscope $end
$scope begin c$bb_res_res_2_delay $end
$upscope $end
$scope begin c$bb_res_res_30_delay $end
$upscope $end
$scope begin c$bb_res_res_3_delay $end
$upscope $end
$scope begin c$bb_res_res_4_delay $end
$upscope $end
$scope begin c$bb_res_res_5_delay $end
$upscope $end
$scope begin c$bb_res_res_6_delay $end
$upscope $end
$scope begin c$bb_res_res_7_delay $end
$upscope $end
$scope begin c$bb_res_res_8_delay $end
$upscope $end
$scope begin c$bb_res_res_9_delay $end
$upscope $end
$scope begin c$bb_res_res_delay $end
$upscope $end
$scope begin c$ds_app_arg_0_delay $end
$upscope $end
$scope begin c$ds_app_arg_delay $end
$upscope $end
$scope begin cursor_register $end
$upscope $end
$scope begin result_10_register $end
$upscope $end
$scope begin result_12_register $end
$upscope $end
$scope begin result_14_register $end
$upscope $end
$scope begin result_16_register $end
$upscope $end
$scope begin result_19_register $end
$upscope $end
$scope begin result_3_register $end
$upscope $end
$scope begin t_2_register $end
$upscope $end
$scope begin t_3_register $end
$upscope $end
$scope begin t_4_register $end
$upscope $end
$scope begin t_5_register $end
$upscope $end
$scope begin t_6_register $end
$upscope $end
$scope begin toWait_register $end
$upscope $end
$upscope $end
$upscope $end
$enddefinitions $end
$comment Show the parameter values. $end
$dumpall
b11 Q#
b10 P#
b1 O#
b0 N#
$end
#20000000
$dumpvars
b0 M#
b1 L#
b1 K#
b1 J#
b1 I#
b1 H#
b11111010000 G#
b110000000000000000000000000000000000000000000000000000000000000000 F#
b110000000000000000000000000000000000000000000000000000000000000000 E#
b110000000000000000000000000000000000000000000000000000000000000000 D#
b110000000000000000000000000000000000000000000000000000000000000000 C#
b110000000000000000000000000000000000000000000000000000000000000000 B#
b0 A#
b0 @#
b0 ?#
b0 >#
0=#
b0 <#
bx0xxxxxxxxxxxxxxxxxxxxxxxxxxxxxxxxxxxxxxxxxxxxxxxxxxxxxxxxxxxxxxxx000000 ;#
b100000001000000010000000100000001 :#
b100000001000000010000000100000001 9#
b100000001000000010000000100000001 8#
b1100000011000000110000001100000011 7#
b100000001000000010000000100000001 6#
b100000001000000010000000100000001 5#
04#
03#
b0 2#
b0 1#
00#
0/#
0.#
0-#
0,#
0+#
b0 *#
b0 )#
b0 (#
b100000001000000010000000100000001000000010000000100000001000000010000000100000001000000010000000100000001000000010000001100000011000000110000001100000011 '#
b0 &#
b10000000100000001000000010000000100000001000000010000000100000001000000010000000100000001000000010000000100000001 %#
b1000000010000000100000001000000010000000100000001000000010000000100000001 $#
b0 ##
b0 "#
b0 !#
b0 ~"
b0 }"
bx0xxxxxxxxxxxxxxxxxxxxxxxxxxxxxxxxxxxxxxxxxxxxxxxxxxxxxxxxxxxxxxxx000000000000000000000000000000000000000000000000000000000000000000000000000000000000000000000000000000000000000000000000000000000000000000000000000000000000000000000000000000000000000000000000000000000000000000000000000000000000000000000000000000000000000000000000000000000000000000000000000000000000000000000000000000000000000000000000000000000000000000000000000000000000000000000000000000000000000000000000000 |"
bx0xxxxxxxxxxxxxxxxxxxxxxxxxxxxxxxxxxxxxxxxxxxxxxxxxxxxxxxxxxxxxxxx000000000000000000000000000000000000000000000000000000000000000000000000000000000000000000000000000000000000000000000000000000000000000000000000000000000000000000000000000000000000000000000000000000000000000000000000000000000000000000000000000000000000000000000000000000000000000000000000000000000000000000000000000000000000000000000000000000000000000000000000000000000000000000000000000000000000000000000000000 {"
bx0xxxxxxxxxxxxxxxxxxxxxxxxxxxxxxxxxxxxxxxxxxxxxxxxxxxxxxxxxxxxxxxx000000000000000000000000000000000000000000000000000000000000000000000000000000000000000000000000000000000000000000000000000000000000000000000000000000000000000000000000000000000000000000000000000000000000000000000000000000000000000000000000000000000000000000000000000000000000000000000000000000000000000000000000000000000000000000000000000000000000000000000000000000000000000000000000000000000000000000000000000000000000000000000000000000000000000000000000000000000000000000000000000000000000000000000000000000000000000000000000000000000000000000 z"
bx0xxxxxxxxxxxxxxxxxxxxxxxxxxxxxxxxxxxxxxxxxxxxxxxxxxxxxxxxxxxxxxxx000000000000000000000000000000000000000000000000000000000000000000000000000000000000000000000000000000000000000000000000000000000000000000000000000000000000000000000000000000000000000000000000000000000000000000000000000000000000000000000000000000000000000000000000000000000000000000000000000000000000000000000000000000000000000000000000000000000000000000000000000000000000000000000000000000000000000000000000000000000000000000000000000000000000000000000000000000000000000000000000000000000000000000000000000000000000000000000000000000000000000000 y"
b0 x"
bx0xxxxxxxxxxxxxxxxxxxxxxxxxxxxxxxxxxxxxxxxxxxxxxxxxxxxxxxxxxxxxxxx000000 w"
b0 v"
0u"
1t"
1s"
0r"
1q"
0p"
xo"
b0 n"
b0 m"
b1 l"
b0 k"
b1111111111111111111111111111111111111111111111111111111111111111 j"
0i"
b1010 h"
b0 g"
b10 f"
b1 e"
b0 d"
b1 c"
b0 b"
b0 a"
b0 `"
b0 _"
b0 ^"
b0 ]"
b10 \"
b10 ["
b10 Z"
b10 Y"
b10 X"
bx0xxxxxxxxxxxxxxxxxxxxxxxxxxxxxxxxxxxxxxxxxxxxxxxxxxxxxxxxxxxxxxxx0 W"
b0 V"
b100000001000000010000000100000001 U"
b100000001000000010000000100000001 T"
b100000001000000010000000100000001 S"
0R"
0Q"
0P"
0O"
0N"
0M"
b0 L"
bx0xxxxxxxxxxxxxxxxxxxxxxxxxxxxxxxxxxxxxxxxxxxxxxxxxxxxxxxxxxxxxxxx000000 K"
1J"
0I"
0H"
b10000000 G"
b0 F"
b0 E"
b0 D"
b0 C"
b0 B"
b0 A"
b0 @"
b10000000 ?"
b110000000000000000000000000000000000000000000000000000000000000000 >"
b110000000000000000000000000000000000000000000000000000000000000000 ="
b110000000000000000000000000000000000000000000000000000000000000000 <"
b1100000011000000110000001100000011 ;"
b110000000000000000000000000000000000000000000000000000000000000000 :"
b0 9"
b111110100000 8"
07"
b100000001000000010000000100000001 6"
b100000001000000010000000100000001 5"
b1 4"
b10 3"
b1 2"
b10 1"
b1 0"
b10 /"
0."
0-"
0,"
b1 +"
b10 *"
0)"
b1 ("
b10 '"
1&"
b0 %"
b0 $"
b0xxxxxxxxxxxxxxxxxxxxxxxxxxxxxxxxxxxxxxxxxxxxxxxxxxxxxxxxxxxxxxxx0xxxxxxxxxxxxxxxxxxxxxxxxxxxxxxxxxxxxxxxxxxxxxxxxxxxxxxxxxxxxxxxx000000 #"
0""
b0 !"
b100000000000000000000000000000000000000000000000000000000000000000000000000000000000000000000000000000000000000000000000000000000000000000000000000000000000000000000000000000000000000000000000000000000 ~
0}
0|
0{
b110000000000000000000000000000000000000000000000000000000000000000 z
b110000000000000000000000000000000000000000000000000000000000000011 y
b10000000000000000000000000000000000000000000000000000000000000001 x
b10000000000000000000000000000000000000000000000000000000000001010 w
b11 v
b1 u
b1 t
b11 s
b11 r
b11 q
b11 p
0o
b1010 n
b10 m
b0 l
0k
0j
b0 i
0h
b0 g
0f
b1 e
b0 d
0c
0b
b11111010000 a
0`
0_
0^
0]
0\
0[
0Z
0Y
0X
b1100000011000000110000001100000011 W
0V
0U
0T
0S
0R
b100000001000000010000000100000001 Q
0P
b100000001000000010000000100000001 O
0N
0M
0L
0K
0J
0I
0H
b100000001000000010000000100000001 G
b100000001000000010000000100000001 F
0E
b100000001000000010000000100000001 D
0C
0B
0A
0@
0?
0>
bx =
bx <
bx ;
0:
09
08
07
06
05
04
bx 3
bx 2
11
10
0/
0.
0-
0,
0+
b0 *
0)
b0 (
0'
b0 &
0%
1$
0#
0"
0!
$end
#30000000
00
#40000000
b10000000000000000000000000000000000000000000000000000000000000011 y
b1011101110000 8"
b100000001000000010000000100000001 ;"
b111110100000 a
b111110100000 G#
b100000001000000010000000100000001000000010000000100000001000000010000000100000001000000010000000100000001000000010000000100000001000000010000000100000001 '#
b100000001000000010000000100000001 W
b100000001000000010000000100000001 7#
10
#50000000
00
#60000000
b1111101000000 8"
b1011101110000 a
b1011101110000 G#
10
#70000000
00
#80000000
b10011100010000 8"
b1111101000000 a
b1111101000000 G#
10
#90000000
00
#100000000
b10111011100000 8"
b10011100010000 a
b10011100010000 G#
10
#110000000
00
#120000000
b11011010110000 8"
b10111011100000 a
b10111011100000 G#
10
#130000000
00
#140000000
b11111010000000 8"
b11011010110000 a
b11011010110000 G#
10
#150000000
00
#160000000
b100011001010000 8"
b11111010000000 a
b11111010000000 G#
10
#170000000
00
#180000000
b100111000100000 8"
b100011001010000 a
b100011001010000 G#
10
#190000000
00
#200000000
b101010111110000 8"
b100111000100000 a
b100111000100000 G#
10
#210000000
00
#220000000
b101110111000000 8"
b101010111110000 a
b101010111110000 G#
10
#230000000
00
#240000000
b110010110010000 8"
b101110111000000 a
b101110111000000 G#
10
#250000000
00
#260000000
b110110101100000 8"
b110010110010000 a
b110010110010000 G#
10
#270000000
00
#280000000
b111010100110000 8"
b110110101100000 a
b110110101100000 G#
10
#290000000
00
#300000000
b111110100000000 8"
b111010100110000 a
b111010100110000 G#
10
#310000000
00
#320000000
b1000010011010000 8"
b111110100000000 a
b111110100000000 G#
10
#330000000
00
#340000000
b1000110010100000 8"
b1000010011010000 a
b1000010011010000 G#
10
#350000000
00
#360000000
b1001010001110000 8"
b1000110010100000 a
b1000110010100000 G#
10
#370000000
00
#380000000
b1001110001000000 8"
b1001010001110000 a
b1001010001110000 G#
10
#390000000
00
#400000000
b1010010000010000 8"
b1001110001000000 a
b1001110001000000 G#
10
#410000000
00
#420000000
b1010101111100000 8"
b1010010000010000 a
b1010010000010000 G#
10
#430000000
00
#440000000
b1011001110110000 8"
b1010101111100000 a
b1010101111100000 G#
10
#450000000
00
#460000000
b1011101110000000 8"
b1011001110110000 a
b1011001110110000 G#
10
#470000000
00
#480000000
b1100001101010000 8"
b1011101110000000 a
b1011101110000000 G#
10
#490000000
00
#500000000
b1100101100100000 8"
b1100001101010000 a
b1100001101010000 G#
10
#510000000
00
#520000000
b1101001011110000 8"
b1100101100100000 a
b1100101100100000 G#
10
#530000000
00
#540000000
b1101101011000000 8"
b1101001011110000 a
b1101001011110000 G#
10
#550000000
00
#560000000
b1110001010010000 8"
b1101101011000000 a
b1101101011000000 G#
10
#570000000
00
#580000000
b1110101001100000 8"
b1110001010010000 a
b1110001010010000 G#
10
#590000000
00
#600000000
b1111001000110000 8"
b1110101001100000 a
b1110101001100000 G#
10
#610000000
00
#620000000
b1111101000000000 8"
b1111001000110000 a
b1111001000110000 G#
10
#630000000
00
#640000000
b10000000111010000 8"
b1111101000000000 a
b1111101000000000 G#
10
#650000000
00
#660000000
b10000100110100000 8"
b10000000111010000 a
b10000000111010000 G#
10
#670000000
00
#680000000
b10001000101110000 8"
b10000100110100000 a
b10000100110100000 G#
10
#690000000
00
#700000000
b10001100101000000 8"
b10001000101110000 a
b10001000101110000 G#
10
#710000000
00
#720000000
b10010000100010000 8"
b10001100101000000 a
b10001100101000000 G#
10
#730000000
00
#740000000
b10010100011100000 8"
b10010000100010000 a
b10010000100010000 G#
10
#750000000
00
#760000000
b10011000010110000 8"
b10010100011100000 a
b10010100011100000 G#
10
#770000000
00
#780000000
b10011100010000000 8"
b10011000010110000 a
b10011000010110000 G#
10
#790000000
00
#800000000
b10100000001010000 8"
b10011100010000000 a
b10011100010000000 G#
10
#810000000
00
#820000000
b10100100000100000 8"
b10100000001010000 a
b10100000001010000 G#
10
#830000000
00
#840000000
b10100111111110000 8"
b10100100000100000 a
b10100100000100000 G#
10
#850000000
00
#860000000
b10101011111000000 8"
b10100111111110000 a
b10100111111110000 G#
10
#870000000
00
#880000000
b10101111110010000 8"
b10101011111000000 a
b10101011111000000 G#
10
#890000000
00
#900000000
b10110011101100000 8"
b10101111110010000 a
b10101111110010000 G#
10
#910000000
00
#920000000
b10110111100110000 8"
b10110011101100000 a
b10110011101100000 G#
10
#930000000
00
#940000000
b10111011100000000 8"
b10110111100110000 a
b10110111100110000 G#
10
#950000000
00
#960000000
b10111111011010000 8"
b10111011100000000 a
b10111011100000000 G#
10
#970000000
00
#980000000
b11000011010100000 8"
b10111111011010000 a
b10111111011010000 G#
10
#990000000
00
#1000000000
b11000111001110000 8"
b11000011010100000 a
b11000011010100000 G#
10
#1010000000
00
#1020000000
b11001011001000000 8"
b11000111001110000 a
b11000111001110000 G#
10
#1030000000
00
#1040000000
b11001111000010000 8"
b11001011001000000 a
b11001011001000000 G#
10
#1050000000
00
#1060000000
b11010010111100000 8"
b11001111000010000 a
b11001111000010000 G#
10
#1070000000
00
#1080000000
b11010110110110000 8"
b11010010111100000 a
b11010010111100000 G#
10
#1090000000
00
#1100000000
b11011010110000000 8"
b11010110110110000 a
b11010110110110000 G#
10
#1110000000
00
#1120000000
b11011110101010000 8"
b11011010110000000 a
b11011010110000000 G#
10
#1130000000
00
#1140000000
b11100010100100000 8"
b11011110101010000 a
b11011110101010000 G#
10
#1150000000
00
#1160000000
b11100110011110000 8"
b11100010100100000 a
b11100010100100000 G#
10
#1170000000
00
#1180000000
b11101010011000000 8"
b11100110011110000 a
b11100110011110000 G#
10
#1190000000
00
#1200000000
b11101110010010000 8"
b11101010011000000 a
b11101010011000000 G#
10
#1210000000
00
#1220000000
b11110010001100000 8"
b11101110010010000 a
b11101110010010000 G#
10
#1230000000
00
#1240000000
b11110110000110000 8"
b11110010001100000 a
b11110010001100000 G#
10
#1250000000
00
#1260000000
b11111010000000000 8"
b11110110000110000 a
b11110110000110000 G#
10
#1270000000
00
#1280000000
b11111101111010000 8"
b11111010000000000 a
b11111010000000000 G#
10
#1290000000
00
#1300000000
b100000001110100000 8"
b11111101111010000 a
b11111101111010000 G#
10
#1310000000
00
#1320000000
b100000101101110000 8"
b100000001110100000 a
b100000001110100000 G#
10
#1330000000
00
#1340000000
b100001001101000000 8"
b100000101101110000 a
b100000101101110000 G#
10
#1350000000
00
#1360000000
b100001101100010000 8"
b100001001101000000 a
b100001001101000000 G#
10
#1370000000
00
#1380000000
b100010001011100000 8"
b100001101100010000 a
b100001101100010000 G#
10
#1390000000
00
#1400000000
b100010101010110000 8"
b100010001011100000 a
b100010001011100000 G#
10
#1410000000
00
#1420000000
b100011001010000000 8"
b100010101010110000 a
b100010101010110000 G#
10
#1430000000
00
#1440000000
b100011101001010000 8"
b100011001010000000 a
b100011001010000000 G#
10
#1450000000
00
#1460000000
b100100001000100000 8"
b100011101001010000 a
b100011101001010000 G#
10
#1470000000
00
#1480000000
b100100100111110000 8"
b100100001000100000 a
b100100001000100000 G#
10
#1490000000
00
#1500000000
b100101000111000000 8"
b100100100111110000 a
b100100100111110000 G#
10
#1510000000
00
#1520000000
b100101100110010000 8"
b100101000111000000 a
b100101000111000000 G#
10
#1530000000
00
#1540000000
b100110000101100000 8"
b100101100110010000 a
b100101100110010000 G#
10
#1550000000
00
#1560000000
b100110100100110000 8"
b100110000101100000 a
b100110000101100000 G#
10
#1570000000
00
#1580000000
b100111000100000000 8"
b100110100100110000 a
b100110100100110000 G#
10
#1590000000
00
#1600000000
b100111100011010000 8"
b100111000100000000 a
b100111000100000000 G#
10
#1610000000
00
#1620000000
b101000000010100000 8"
b100111100011010000 a
b100111100011010000 G#
10
#1630000000
00
#1640000000
b101000100001110000 8"
b101000000010100000 a
b101000000010100000 G#
10
#1650000000
00
#1660000000
b101001000001000000 8"
b101000100001110000 a
b101000100001110000 G#
10
#1670000000
00
#1680000000
b101001100000010000 8"
b101001000001000000 a
b101001000001000000 G#
10
#1690000000
00
#1700000000
b101001111111100000 8"
b101001100000010000 a
b101001100000010000 G#
10
#1710000000
00
#1720000000
b101010011110110000 8"
b101001111111100000 a
b101001111111100000 G#
10
#1730000000
00
