src/end_to_end_tests/tests/non_offset_cycle_across_event_based_and_periodic_2/generated/dump.vcd
$date
	Tue May 20 15:29:52 2025
$end
$version
	Icarus Verilog
$end
$timescale
	100fs
$end
$scope module testbench $end
$var wire 1 ! q_push_valid $end
$var wire 1 " q_push $end
$var wire 1 # q_pop_valid $end
$var wire 1 $ q_pop $end
$var wire 1 % pacing_2 $end
$var wire 1 & pacing_1 $end
$var wire 1 ' pacing_0 $end
$var wire 1 ( output_2_aktv $end
$var wire 64 ) output_2 [63:0] $end
$var wire 1 * output_1_aktv $end
$var wire 64 + output_1 [63:0] $end
$var wire 1 , output_0_aktv $end
$var wire 64 - output_0 [63:0] $end
$var reg 1 . clk $end
$var reg 1 / en $end
$var reg 64 0 input_0 [63:0] $end
$var reg 64 1 input_1 [63:0] $end
$var reg 1 2 new_input_0 $end
$var reg 1 3 new_input_1 $end
$var reg 1 4 rst $end
$scope module monitor $end
$var wire 1 5 b_5 $end
$var wire 133 6 \c$case_alt_4 [132:0] $end
$var wire 1 . clk $end
$var wire 1 / en $end
$var wire 64 7 inputs_0_0 [63:0] $end
$var wire 1 2 inputs_0_1 $end
$var wire 64 8 inputs_1_0 [63:0] $end
$var wire 1 3 inputs_1_1 $end
$var wire 1 9 iterateI_ho1_0_res $end
$var wire 1 : iterateI_ho1_0_res_0 $end
$var wire 1 ; iterateI_ho1_0_res_1 $end
$var wire 1 < iterateI_ho1_0_res_2 $end
$var wire 1 = iterateI_ho1_0_res_3 $end
$var wire 40 > iterateI_ho1_0_res_4 [39:0] $end
$var wire 1 ? iterateI_ho1_0_res_5 $end
$var wire 1 @ iterateI_ho1_0_res_6 $end
$var wire 1 A iterateI_ho1_0_res_7 $end
$var wire 40 B iterateI_ho1_0_res_8 [39:0] $end
$var wire 40 C iterateI_ho1_0_res_9 [39:0] $end
$var wire 1 D iterateI_ho1_1_res $end
$var wire 1 E iterateI_ho1_1_res_0 $end
$var wire 1 F iterateI_ho1_1_res_1 $end
$var wire 1 G iterateI_ho1_1_res_2 $end
$var wire 40 H iterateI_ho1_1_res_3 [39:0] $end
$var wire 1 I iterateI_ho1_1_res_4 $end
$var wire 1 J iterateI_ho1_1_res_5 $end
$var wire 40 K iterateI_ho1_1_res_6 [39:0] $end
$var wire 1 L iterateI_ho1_2_res $end
$var wire 1 M iterateI_ho1_2_res_0 $end
$var wire 1 N iterateI_ho1_2_res_1 $end
$var wire 1 O iterateI_ho1_2_res_2 $end
$var wire 40 P iterateI_ho1_2_res_3 [39:0] $end
$var wire 1 Q iterateI_ho1_2_res_4 $end
$var wire 1 R iterateI_ho1_3_res $end
$var wire 1 S iterateI_ho1_3_res_0 $end
$var wire 1 T iterateI_ho1_3_res_1 $end
$var wire 1 U iterateI_ho1_3_res_2 $end
$var wire 1 V iterateI_ho1_4_res $end
$var wire 1 W iterateI_ho1_4_res_0 $end
$var wire 1 X iterateI_ho1_4_res_1 $end
$var wire 1 4 rst $end
$var wire 64 Y x [63:0] $end
$var wire 64 Z x_0 [63:0] $end
$var wire 64 [ x_1 [63:0] $end
$var wire 64 \ x_2 [63:0] $end
$var wire 64 ] x_3 [63:0] $end
$var wire 64 ^ x_4 [63:0] $end
$var wire 64 _ y [63:0] $end
$var wire 64 ` y_0 [63:0] $end
$var wire 1 a timer0Over $end
$var wire 8 b tag_3 [7:0] $end
$var wire 8 c tag_2 [7:0] $end
$var wire 8 d tag_1 [7:0] $end
$var wire 8 e tag_0 [7:0] $end
$var wire 8 f tagToMatch_0 [7:0] $end
$var wire 8 g tagToMatch [7:0] $end
$var wire 8 h tag [7:0] $end
$var wire 72 i t_1 [71:0] $end
$var wire 72 j t_0 [71:0] $end
$var wire 72 k t [71:0] $end
$var wire 1 l result_8 $end
$var wire 1 m result_7 $end
$var wire 1 n result_6 $end
$var wire 199 o result_5 [198:0] $end
$var wire 134 p result_4 [133:0] $end
$var wire 135 q result_39 [134:0] $end
$var wire 1 r result_38 $end
$var wire 64 s result_37 [63:0] $end
$var wire 64 t result_36 [63:0] $end
$var wire 1 u result_35 $end
$var wire 8 v result_34 [7:0] $end
$var wire 8 w result_33 [7:0] $end
$var wire 8 x result_32 [7:0] $end
$var wire 8 y result_31 [7:0] $end
$var wire 8 z result_30 [7:0] $end
$var wire 8 { result_29 [7:0] $end
$var wire 8 | result_28 [7:0] $end
$var wire 8 } result_27 [7:0] $end
$var wire 8 ~ result_26 [7:0] $end
$var wire 8 !" result_25 [7:0] $end
$var wire 40 "" result_24 [39:0] $end
$var wire 40 #" result_23 [39:0] $end
$var wire 1 $" result_22 $end
$var wire 1 %" result_21 $end
$var wire 64 &" result_2 [63:0] $end
$var wire 3 '" result_1_4_9 [2:0] $end
$var wire 1 % result_1_4_2 $end
$var wire 1 & result_1_4_1 $end
$var wire 1 ' result_1_4_0 $end
$var wire 1 # result_1_3 $end
$var wire 1 ! result_1_2 $end
$var wire 1 $ result_1_1 $end
$var wire 1 " result_1_0 $end
$var wire 1 (" result_19 $end
$var wire 40 )" result_18 [39:0] $end
$var wire 1 *" result_17 $end
$var wire 1 +" result_15 $end
$var wire 72 ," result_14 [71:0] $end
$var wire 72 -" result_12 [71:0] $end
$var wire 72 ." result_10 [71:0] $end
$var wire 7 /" result_1 [6:0] $end
$var wire 1 ( result_0_2_1 $end
$var wire 64 0" result_0_2_0 [63:0] $end
$var wire 65 1" result_0_2 [64:0] $end
$var wire 1 * result_0_1_1 $end
$var wire 64 2" result_0_1_0 [63:0] $end
$var wire 65 3" result_0_1 [64:0] $end
$var wire 1 , result_0_0_1 $end
$var wire 64 4" result_0_0_0 [63:0] $end
$var wire 65 5" result_0_0 [64:0] $end
$var wire 195 6" result_0 [194:0] $end
$var wire 202 7" result [201:0] $end
$var wire 1 8" qPush $end
$var wire 1 9" qPopValid $end
$var wire 1 :" qPop $end
$var wire 133 ;" qData [132:0] $end
$var wire 3 <" pacings [2:0] $end
$var wire 1 =" p2 $end
$var wire 1 >" p1 $end
$var wire 1 ?" p0 $end
$var wire 40 @" iterateI_ho1_0_arg0_3 [39:0] $end
$var wire 40 A" iterateI_ho1_0_arg0_2 [39:0] $end
$var wire 1 B" iterateI_ho1_0_arg0_1 $end
$var wire 40 C" iterateI_ho1_0_arg0_0 [39:0] $end
$var wire 1 D" iterateI_ho1_0_arg0 $end
$var wire 130 E" inputs_2 [129:0] $end
$var wire 130 F" inputs [129:0] $end
$var wire 8 G" f1_3 [7:0] $end
$var wire 8 H" f1_2 [7:0] $end
$var wire 8 I" f1_1 [7:0] $end
$var wire 8 J" f1_0 [7:0] $end
$var wire 8 K" f1 [7:0] $end
$var wire 64 L" dta_3 [63:0] $end
$var wire 64 M" dta_2 [63:0] $end
$var wire 64 N" dta_1 [63:0] $end
$var wire 64 O" dta_0 [63:0] $end
$var wire 64 P" dta [63:0] $end
$var wire 64 Q" \c$tte_rhs_0 [63:0] $end
$var wire 64 R" \c$tte_rhs [63:0] $end
$var wire 72 S" \c$result_app_arg_0 [71:0] $end
$var wire 72 T" \c$result_app_arg [71:0] $end
$var wire 64 U" \c$out2_case_alt [63:0] $end
$var wire 64 V" \c$out1_case_alt_0 [63:0] $end
$var wire 64 W" \c$out1_case_alt [63:0] $end
$var wire 64 X" \c$out0_case_alt_0 [63:0] $end
$var wire 64 Y" \c$out0_case_alt [63:0] $end
$var wire 1 Z" \c$cursor_case_scrut $end
$var wire 64 [" \c$cursor_case_alt_4 [63:0] $end
$var wire 64 \" \c$cursor_case_alt_2 [63:0] $end
$var wire 64 ]" \c$cursor_case_alt_1 [63:0] $end
$var wire 64 ^" \c$cursor_case_alt_0 [63:0] $end
$var wire 64 _" \c$cursor_case_alt [63:0] $end
$var wire 1 `" \c$case_alt_8 $end
$var wire 1 a" \c$case_alt_7 $end
$var wire 1 b" \c$case_alt_6 $end
$var wire 1 c" \c$case_alt_5 $end
$var wire 1 d" \c$case_alt_12 $end
$var wire 1 e" \c$case_alt_11 $end
$var wire 1 f" \c$case_alt_10 $end
$var wire 133 g" \c$case_alt_1 [132:0] $end
$var wire 133 h" \c$case_alt_0 [132:0] $end
$var wire 133 i" \c$case_alt [132:0] $end
$var wire 665 j" \c$buffer_case_alt_sel_alt_t_1 [664:0] $end
$var wire 665 k" \c$buffer_case_alt_sel_alt_f_2 [664:0] $end
$var wire 532 l" \c$buffer_case_alt_1 [531:0] $end
$var wire 532 m" \c$buffer_case_alt_0 [531:0] $end
$var wire 532 n" \c$buffer_case_alt [531:0] $end
$var wire 80 o" \c$app_arg_9 [79:0] $end
$var wire 120 p" \c$app_arg_8 [119:0] $end
$var wire 3 q" \c$app_arg_7 [2:0] $end
$var wire 2 r" \c$app_arg_6 [1:0] $end
$var wire 5 s" \c$app_arg_5 [4:0] $end
$var wire 160 t" \c$app_arg_4 [159:0] $end
$var wire 2 u" \c$app_arg_3 [1:0] $end
$var wire 4 v" \c$app_arg_2 [3:0] $end
$var wire 6 w" \c$app_arg_1 [5:0] $end
$var wire 6 x" \c$app_arg_0 [5:0] $end
$var wire 6 y" \c$app_arg [5:0] $end
$var wire 1 z" b_4 $end
$var wire 1 {" b_3 $end
$var wire 1 |" b_2 $end
$var wire 1 }" b_1 $end
$var wire 1 ~" b_0 $end
$var wire 1 !# b $end
$var reg 532 "# buffer [531:0] $end
$var reg 133 ## \c$app_arg_10 [132:0] $end
$var reg 1 $# \c$app_arg_11 $end
$var reg 1 %# \c$app_arg_12 $end
$var reg 1 9 \c$bb_res_res $end
$var reg 1 D \c$bb_res_res_0 $end
$var reg 1 L \c$bb_res_res_1 $end
$var reg 1 F \c$bb_res_res_10 $end
$var reg 1 N \c$bb_res_res_11 $end
$var reg 1 T \c$bb_res_res_12 $end
$var reg 1 X \c$bb_res_res_13 $end
$var reg 1 < \c$bb_res_res_14 $end
$var reg 1 G \c$bb_res_res_15 $end
$var reg 1 O \c$bb_res_res_16 $end
$var reg 1 = \c$bb_res_res_17 $end
$var reg 40 &# \c$bb_res_res_18 [39:0] $end
$var reg 40 '# \c$bb_res_res_19 [39:0] $end
$var reg 1 R \c$bb_res_res_2 $end
$var reg 40 (# \c$bb_res_res_20 [39:0] $end
$var reg 1 ? \c$bb_res_res_21 $end
$var reg 1 I \c$bb_res_res_22 $end
$var reg 1 Q \c$bb_res_res_23 $end
$var reg 1 U \c$bb_res_res_24 $end
$var reg 1 @ \c$bb_res_res_25 $end
$var reg 1 A \c$bb_res_res_26 $end
$var reg 1 J \c$bb_res_res_27 $end
$var reg 40 )# \c$bb_res_res_28 [39:0] $end
$var reg 40 *# \c$bb_res_res_29 [39:0] $end
$var reg 1 V \c$bb_res_res_3 $end
$var reg 40 +# \c$bb_res_res_30 [39:0] $end
$var reg 1 : \c$bb_res_res_4 $end
$var reg 1 E \c$bb_res_res_5 $end
$var reg 1 M \c$bb_res_res_6 $end
$var reg 1 S \c$bb_res_res_7 $end
$var reg 1 W \c$bb_res_res_8 $end
$var reg 1 ; \c$bb_res_res_9 $end
$var reg 133 ,# \c$case_alt_2 [132:0] $end
$var reg 133 -# \c$case_alt_3 [132:0] $end
$var reg 1 .# \c$case_alt_9 $end
$var reg 64 /# \c$cursor_case_alt_3 [63:0] $end
$var reg 64 0# \c$ds_app_arg [63:0] $end
$var reg 64 1# \c$ds_app_arg_0 [63:0] $end
$var reg 64 2# cursor [63:0] $end
$var reg 72 3# result_11 [71:0] $end
$var reg 72 4# result_13 [71:0] $end
$var reg 72 5# result_16 [71:0] $end
$var reg 72 6# result_20 [71:0] $end
$var reg 64 7# result_3 [63:0] $end
$var reg 72 8# result_9 [71:0] $end
$var reg 8 9# t_2 [7:0] $end
$var reg 8 :# t_3 [7:0] $end
$var reg 8 ;# t_4 [7:0] $end
$var reg 8 <# t_5 [7:0] $end
$var reg 8 =# t_6 [7:0] $end
$var reg 64 ># toWait [63:0] $end
$scope begin mk_array[0] $end
$var parameter 2 ?# i $end
$upscope $end
$scope begin mk_array[1] $end
$var parameter 2 @# i $end
$upscope $end
$scope begin mk_array[2] $end
$var parameter 3 A# i $end
$upscope $end
$scope begin mk_array[3] $end
$var parameter 3 B# i $end
$upscope $end
$scope begin buffer_register $end
$upscope $end
$scope begin c$app_arg_10_register $end
$upscope $end
$scope begin c$app_arg_11_register $end
$upscope $end
$scope begin c$app_arg_12_register $end
$upscope $end
$scope begin c$bb_res_res_0_delay $end
$upscope $end
$scope begin c$bb_res_res_10_delay $end
$upscope $end
$scope begin c$bb_res_res_11_delay $end
$upscope $end
$scope begin c$bb_res_res_12_delay $end
$upscope $end
$scope begin c$bb_res_res_13_delay $end
$upscope $end
$scope begin c$bb_res_res_14_delay $end
$upscope $end
$scope begin c$bb_res_res_15_delay $end
$upscope $end
$scope begin c$bb_res_res_16_delay $end
$upscope $end
$scope begin c$bb_res_res_17_delay $end
$upscope $end
$scope begin c$bb_res_res_18_delay $end
$upscope $end
$scope begin c$bb_res_res_19_delay $end
$upscope $end
$scope begin c$bb_res_res_1_delay $end
$upscope $end
$scope begin c$bb_res_res_20_delay $end
$upscope $end
$scope begin c$bb_res_res_21_delay $end
$upscope $end
$scope begin c$bb_res_res_22_delay $end
$upscope $end
$scope begin c$bb_res_res_23_delay $end
$upscope $end
$scope begin c$bb_res_res_24_delay $end
$upscope $end
$scope begin c$bb_res_res_25_delay $end
$upscope $end
$scope begin c$bb_res_res_26_delay $end
$upscope $end
$scope begin c$bb_res_res_27_delay $end
$upscope $end
$scope begin c$bb_res_res_28_delay $end
$upscope $end
$scope begin c$bb_res_res_29_delay $end
$upscope $end
$scope begin c$bb_res_res_2_delay $end
$upscope $end
$scope begin c$bb_res_res_30_delay $end
$upscope $end
$scope begin c$bb_res_res_3_delay $end
$upscope $end
$scope begin c$bb_res_res_4_delay $end
$upscope $end
$scope begin c$bb_res_res_5_delay $end
$upscope $end
$scope begin c$bb_res_res_6_delay $end
$upscope $end
$scope begin c$bb_res_res_7_delay $end
$upscope $end
$scope begin c$bb_res_res_8_delay $end
$upscope $end
$scope begin c$bb_res_res_9_delay $end
$upscope $end
$scope begin c$bb_res_res_delay $end
$upscope $end
$scope begin c$ds_app_arg_0_delay $end
$upscope $end
$scope begin c$ds_app_arg_delay $end
$upscope $end
$scope begin cursor_register $end
$upscope $end
$scope begin result_11_register $end
$upscope $end
$scope begin result_13_register $end
$upscope $end
$scope begin result_16_register $end
$upscope $end
$scope begin result_20_register $end
$upscope $end
$scope begin result_3_register $end
$upscope $end
$scope begin result_9_register $end
$upscope $end
$scope begin t_2_register $end
$upscope $end
$scope begin t_3_register $end
$upscope $end
$scope begin t_4_register $end
$upscope $end
$scope begin t_5_register $end
$upscope $end
$scope begin t_6_register $end
$upscope $end
$scope begin toWait_register $end
$upscope $end
$upscope $end
$upscope $end
$enddefinitions $end
$comment Show the parameter values. $end
$dumpall
b11 B#
b10 A#
b1 @#
b0 ?#
$end
#20000000
$dumpvars
b0 >#
b1 =#
b1 <#
b1 ;#
b1 :#
b1 9#
b110000000000000000000000000000000000000000000000000000000000000000 8#
b11111010000 7#
b110000000000000000000000000000000000000000000000000000000000000000 6#
b110000000000000000000000000000000000000000000000000000000000000000 5#
b110000000000000000000000000000000000000000000000000000000000000000 4#
b110000000000000000000000000000000000000000000000000000000000000000 3#
b0 2#
b0 1#
b0 0#
b0 /#
0.#
b0 -#
bx0xxxxxxxxxxxxxxxxxxxxxxxxxxxxxxxxxxxxxxxxxxxxxxxxxxxxxxxxxxxxxxxx0000 ,#
b100000001000000010000000100000001 +#
b100000001000000010000000100000001 *#
b100000001000000010000000100000001 )#
b1100000011000000110000001100000011 (#
b100000001000000010000000100000001 '#
b100000001000000010000000100000001 &#
0%#
0$#
b0 ##
b0 "#
0!#
0~"
0}"
0|"
0{"
0z"
b0 y"
b0 x"
b0 w"
b0 v"
b0 u"
b100000001000000010000000100000001000000010000000100000001000000010000000100000001000000010000000100000001000000010000001100000011000000110000001100000011 t"
b0 s"
b0 r"
b0 q"
b10000000100000001000000010000000100000001000000010000000100000001000000010000000100000001000000010000000100000001 p"
b1000000010000000100000001000000010000000100000001000000010000000100000001 o"
b0 n"
bx0xxxxxxxxxxxxxxxxxxxxxxxxxxxxxxxxxxxxxxxxxxxxxxxxxxxxxxxxxxxxxxxx0000000000000000000000000000000000000000000000000000000000000000000000000000000000000000000000000000000000000000000000000000000000000000000000000000000000000000000000000000000000000000000000000000000000000000000000000000000000000000000000000000000000000000000000000000000000000000000000000000000000000000000000000000000000000000000000000000000000000000000000000000000000000000000000000000000000000000000 m"
bx0xxxxxxxxxxxxxxxxxxxxxxxxxxxxxxxxxxxxxxxxxxxxxxxxxxxxxxxxxxxxxxxx0000000000000000000000000000000000000000000000000000000000000000000000000000000000000000000000000000000000000000000000000000000000000000000000000000000000000000000000000000000000000000000000000000000000000000000000000000000000000000000000000000000000000000000000000000000000000000000000000000000000000000000000000000000000000000000000000000000000000000000000000000000000000000000000000000000000000000000 l"
bx0xxxxxxxxxxxxxxxxxxxxxxxxxxxxxxxxxxxxxxxxxxxxxxxxxxxxxxxxxxxxxxxx00000000000000000000000000000000000000000000000000000000000000000000000000000000000000000000000000000000000000000000000000000000000000000000000000000000000000000000000000000000000000000000000000000000000000000000000000000000000000000000000000000000000000000000000000000000000000000000000000000000000000000000000000000000000000000000000000000000000000000000000000000000000000000000000000000000000000000000000000000000000000000000000000000000000000000000000000000000000000000000000000000000000000000000000000000000000000000000000000000000 k"
bx0xxxxxxxxxxxxxxxxxxxxxxxxxxxxxxxxxxxxxxxxxxxxxxxxxxxxxxxxxxxxxxxx00000000000000000000000000000000000000000000000000000000000000000000000000000000000000000000000000000000000000000000000000000000000000000000000000000000000000000000000000000000000000000000000000000000000000000000000000000000000000000000000000000000000000000000000000000000000000000000000000000000000000000000000000000000000000000000000000000000000000000000000000000000000000000000000000000000000000000000000000000000000000000000000000000000000000000000000000000000000000000000000000000000000000000000000000000000000000000000000000000000 j"
b0 i"
bx0xxxxxxxxxxxxxxxxxxxxxxxxxxxxxxxxxxxxxxxxxxxxxxxxxxxxxxxxxxxxxxxx0000 h"
b0 g"
0f"
1e"
1d"
0c"
1b"
0a"
x`"
b0 _"
b0 ^"
b1 ]"
b0 \"
b1111111111111111111111111111111111111111111111111111111111111111 ["
0Z"
b1010 Y"
b0 X"
b10 W"
b1 V"
b0 U"
b110000000000000000000000000000000000000000000000000000000000000000 T"
b110000000000000000000000000000000000000000000000000000000000000000 S"
b1 R"
b0 Q"
b0 P"
b0 O"
b0 N"
b0 M"
b0 L"
b10 K"
b10 J"
b10 I"
b10 H"
b10 G"
bx0xxxxxxxxxxxxxxxxxxxxxxxxxxxxxxxxxxxxxxxxxxxxxxxxxxxxxxxxxxxxxxxx0 F"
b0 E"
0D"
b100000001000000010000000100000001 C"
0B"
b100000001000000010000000100000001 A"
b100000001000000010000000100000001 @"
0?"
0>"
0="
b0 <"
bx0xxxxxxxxxxxxxxxxxxxxxxxxxxxxxxxxxxxxxxxxxxxxxxxxxxxxxxxxxxxxxxxx0000 ;"
1:"
09"
08"
b100000 7"
b0 6"
b0 5"
b0 4"
b0 3"
b0 2"
b0 1"
b0 0"
b100000 /"
b110000000000000000000000000000000000000000000000000000000000000000 ."
b110000000000000000000000000000000000000000000000000000000000000000 -"
b110000000000000000000000000000000000000000000000000000000000000000 ,"
0+"
0*"
b1100000011000000110000001100000011 )"
0("
b0 '"
b111110100000 &"
0%"
0$"
b100000001000000010000000100000001 #"
b100000001000000010000000100000001 ""
b1 !"
b10 ~
b1 }
b10 |
b1 {
b10 z
b1 y
b10 x
b1 w
b10 v
1u
b0 t
b0 s
0r
b0 q
b0xxxxxxxxxxxxxxxxxxxxxxxxxxxxxxxxxxxxxxxxxxxxxxxxxxxxxxxxxxxxxxxx0xxxxxxxxxxxxxxxxxxxxxxxxxxxxxxxxxxxxxxxxxxxxxxxxxxxxxxxxxxxxxxxx0000 p
b1000000000000000000000000000000000000000000000000000000000000000000000000000000000000000000000000000000000000000000000000000000000000000000000000000000000000000000000000000000000000000000000000000000 o
0n
0m
0l
b110000000000000000000000000000000000000000000000000000000000000011 k
b10000000000000000000000000000000000000000000000000000000000000001 j
b10000000000000000000000000000000000000000000000000000000000001010 i
b11 h
b1 g
b1 f
b11 e
b11 d
b11 c
b11 b
0a
b1010 `
b10 _
b0 ^
b0 ]
b0 \
b0 [
b1 Z
b11111010000 Y
0X
0W
0V
0U
0T
0S
0R
0Q
b1100000011000000110000001100000011 P
0O
0N
0M
0L
b100000001000000010000000100000001 K
0J
0I
b100000001000000010000000100000001 H
0G
0F
0E
0D
b100000001000000010000000100000001 C
b100000001000000010000000100000001 B
0A
0@
0?
b100000001000000010000000100000001 >
0=
0<
0;
0:
09
bx 8
bx 7
bx 6
05
04
03
02
bx 1
bx 0
1/
1.
b0 -
0,
b0 +
0*
b0 )
0(
0'
0&
0%
1$
0#
0"
0!
$end
#30000000
0.
#40000000
b10000000000000000000000000000000000000000000000000000000000000011 k
b1011101110000 &"
b100000001000000010000000100000001 )"
b111110100000 Y
b111110100000 7#
b100000001000000010000000100000001000000010000000100000001000000010000000100000001000000010000000100000001000000010000000100000001000000010000000100000001 t"
b100000001000000010000000100000001 P
b100000001000000010000000100000001 (#
1.
#50000000
0.
#60000000
b1111101000000 &"
b1011101110000 Y
b1011101110000 7#
1.
#70000000
0.
#80000000
b10011100010000 &"
b1111101000000 Y
b1111101000000 7#
1.
#90000000
0.
#100000000
b10111011100000 &"
b10011100010000 Y
b10011100010000 7#
1.
#110000000
0.
#120000000
b11011010110000 &"
b10111011100000 Y
b10111011100000 7#
1.
#130000000
0.
#140000000
b11111010000000 &"
b11011010110000 Y
b11011010110000 7#
1.
#150000000
0.
#160000000
b100011001010000 &"
b11111010000000 Y
b11111010000000 7#
1.
#170000000
0.
#180000000
b100111000100000 &"
b100011001010000 Y
b100011001010000 7#
1.
#190000000
0.
#200000000
b101010111110000 &"
b100111000100000 Y
b100111000100000 7#
1.
#210000000
0.
#220000000
b101110111000000 &"
b101010111110000 Y
b101010111110000 7#
1.
#230000000
0.
#240000000
b110010110010000 &"
b101110111000000 Y
b101110111000000 7#
1.
#250000000
0.
#260000000
b110110101100000 &"
b110010110010000 Y
b110010110010000 7#
1.
#270000000
0.
#280000000
b111010100110000 &"
b110110101100000 Y
b110110101100000 7#
1.
#290000000
0.
#300000000
b111110100000000 &"
b111010100110000 Y
b111010100110000 7#
1.
#310000000
0.
#320000000
b1000010011010000 &"
b111110100000000 Y
b111110100000000 7#
1.
#330000000
0.
#340000000
b1000110010100000 &"
b1000010011010000 Y
b1000010011010000 7#
1.
#350000000
0.
#360000000
b1001010001110000 &"
b1000110010100000 Y
b1000110010100000 7#
1.
#370000000
0.
#380000000
b1001110001000000 &"
b1001010001110000 Y
b1001010001110000 7#
1.
#390000000
0.
#400000000
b1010010000010000 &"
b1001110001000000 Y
b1001110001000000 7#
1.
#410000000
0.
#420000000
b1010101111100000 &"
b1010010000010000 Y
b1010010000010000 7#
1.
#430000000
0.
#440000000
b1011001110110000 &"
b1010101111100000 Y
b1010101111100000 7#
1.
#450000000
0.
#460000000
b1011101110000000 &"
b1011001110110000 Y
b1011001110110000 7#
1.
#470000000
0.
#480000000
b1100001101010000 &"
b1011101110000000 Y
b1011101110000000 7#
1.
#490000000
0.
#500000000
b1100101100100000 &"
b1100001101010000 Y
b1100001101010000 7#
1.
#510000000
0.
#520000000
b1101001011110000 &"
b1100101100100000 Y
b1100101100100000 7#
1.
#530000000
0.
#540000000
b1101101011000000 &"
b1101001011110000 Y
b1101001011110000 7#
1.
#550000000
0.
#560000000
b1110001010010000 &"
b1101101011000000 Y
b1101101011000000 7#
1.
#570000000
0.
#580000000
b1110101001100000 &"
b1110001010010000 Y
b1110001010010000 7#
1.
#590000000
0.
#600000000
b1111001000110000 &"
b1110101001100000 Y
b1110101001100000 7#
1.
#610000000
0.
#620000000
b1111101000000000 &"
b1111001000110000 Y
b1111001000110000 7#
1.
#630000000
0.
#640000000
b10000000111010000 &"
b1111101000000000 Y
b1111101000000000 7#
1.
#650000000
0.
#660000000
b10000100110100000 &"
b10000000111010000 Y
b10000000111010000 7#
1.
#670000000
0.
#680000000
b10001000101110000 &"
b10000100110100000 Y
b10000100110100000 7#
1.
#690000000
0.
#700000000
b10001100101000000 &"
b10001000101110000 Y
b10001000101110000 7#
1.
#710000000
0.
#720000000
b10010000100010000 &"
b10001100101000000 Y
b10001100101000000 7#
1.
#730000000
0.
#740000000
b10010100011100000 &"
b10010000100010000 Y
b10010000100010000 7#
1.
#750000000
0.
#760000000
b10011000010110000 &"
b10010100011100000 Y
b10010100011100000 7#
1.
#770000000
0.
#780000000
b10011100010000000 &"
b10011000010110000 Y
b10011000010110000 7#
1.
#790000000
0.
#800000000
b10100000001010000 &"
b10011100010000000 Y
b10011100010000000 7#
1.
#810000000
0.
#820000000
b10100100000100000 &"
b10100000001010000 Y
b10100000001010000 7#
1.
#830000000
0.
#840000000
b10100111111110000 &"
b10100100000100000 Y
b10100100000100000 7#
1.
#850000000
0.
#860000000
b10101011111000000 &"
b10100111111110000 Y
b10100111111110000 7#
1.
#870000000
0.
#880000000
b10101111110010000 &"
b10101011111000000 Y
b10101011111000000 7#
1.
#890000000
0.
#900000000
b10110011101100000 &"
b10101111110010000 Y
b10101111110010000 7#
1.
#910000000
0.
#920000000
b10110111100110000 &"
b10110011101100000 Y
b10110011101100000 7#
1.
#930000000
0.
#940000000
b10111011100000000 &"
b10110111100110000 Y
b10110111100110000 7#
1.
#950000000
0.
#960000000
b10111111011010000 &"
b10111011100000000 Y
b10111011100000000 7#
1.
#970000000
0.
#980000000
b11000011010100000 &"
b10111111011010000 Y
b10111111011010000 7#
1.
#990000000
0.
#1000000000
b11000111001110000 &"
b11000011010100000 Y
b11000011010100000 7#
1.
#1010000000
0.
#1020000000
b11001011001000000 &"
b11000111001110000 Y
b11000111001110000 7#
1.
#1030000000
0.
#1040000000
b11001111000010000 &"
b11001011001000000 Y
b11001011001000000 7#
1.
#1050000000
0.
#1060000000
b11010010111100000 &"
b11001111000010000 Y
b11001111000010000 7#
1.
#1070000000
0.
#1080000000
b11010110110110000 &"
b11010010111100000 Y
b11010010111100000 7#
1.
#1090000000
0.
#1100000000
b11011010110000000 &"
b11010110110110000 Y
b11010110110110000 7#
1.
#1110000000
0.
#1120000000
b11011110101010000 &"
b11011010110000000 Y
b11011010110000000 7#
1.
#1130000000
0.
#1140000000
b11100010100100000 &"
b11011110101010000 Y
b11011110101010000 7#
1.
#1150000000
0.
#1160000000
b11100110011110000 &"
b11100010100100000 Y
b11100010100100000 7#
1.
#1170000000
0.
#1180000000
b11101010011000000 &"
b11100110011110000 Y
b11100110011110000 7#
1.
#1190000000
0.
#1200000000
b11101110010010000 &"
b11101010011000000 Y
b11101010011000000 7#
1.
#1210000000
0.
#1220000000
b11110010001100000 &"
b11101110010010000 Y
b11101110010010000 7#
1.
#1230000000
0.
#1240000000
b11110110000110000 &"
b11110010001100000 Y
b11110010001100000 7#
1.
#1250000000
0.
#1260000000
b11111010000000000 &"
b11110110000110000 Y
b11110110000110000 7#
1.
#1270000000
0.
#1280000000
b11111101111010000 &"
b11111010000000000 Y
b11111010000000000 7#
1.
#1290000000
0.
#1300000000
b100000001110100000 &"
b11111101111010000 Y
b11111101111010000 7#
1.
#1310000000
0.
#1320000000
b100000101101110000 &"
b100000001110100000 Y
b100000001110100000 7#
1.
#1330000000
0.
#1340000000
b100001001101000000 &"
b100000101101110000 Y
b100000101101110000 7#
1.
#1350000000
0.
#1360000000
b100001101100010000 &"
b100001001101000000 Y
b100001001101000000 7#
1.
#1370000000
0.
#1380000000
b100010001011100000 &"
b100001101100010000 Y
b100001101100010000 7#
1.
#1390000000
0.
#1400000000
b100010101010110000 &"
b100010001011100000 Y
b100010001011100000 7#
1.
#1410000000
0.
#1420000000
b100011001010000000 &"
b100010101010110000 Y
b100010101010110000 7#
1.
#1430000000
0.
#1440000000
b100011101001010000 &"
b100011001010000000 Y
b100011001010000000 7#
1.
#1450000000
0.
#1460000000
b100100001000100000 &"
b100011101001010000 Y
b100011101001010000 7#
1.
#1470000000
0.
#1480000000
b100100100111110000 &"
b100100001000100000 Y
b100100001000100000 7#
1.
#1490000000
0.
#1500000000
b100101000111000000 &"
b100100100111110000 Y
b100100100111110000 7#
1.
#1510000000
0.
#1520000000
b100101100110010000 &"
b100101000111000000 Y
b100101000111000000 7#
1.
#1530000000
0.
#1540000000
b100110000101100000 &"
b100101100110010000 Y
b100101100110010000 7#
1.
#1550000000
0.
#1560000000
b100110100100110000 &"
b100110000101100000 Y
b100110000101100000 7#
1.
#1570000000
0.
#1580000000
b100111000100000000 &"
b100110100100110000 Y
b100110100100110000 7#
1.
#1590000000
0.
#1600000000
b100111100011010000 &"
b100111000100000000 Y
b100111000100000000 7#
1.
#1610000000
0.
#1620000000
b101000000010100000 &"
b100111100011010000 Y
b100111100011010000 7#
1.
#1630000000
0.
#1640000000
b101000100001110000 &"
b101000000010100000 Y
b101000000010100000 7#
1.
#1650000000
0.
#1660000000
b101001000001000000 &"
b101000100001110000 Y
b101000100001110000 7#
1.
#1670000000
0.
#1680000000
b101001100000010000 &"
b101001000001000000 Y
b101001000001000000 7#
1.
#1690000000
0.
#1700000000
b101001111111100000 &"
b101001100000010000 Y
b101001100000010000 7#
1.
#1710000000
0.
#1720000000
b101010011110110000 &"
b101001111111100000 Y
b101001111111100000 7#
1.
#1730000000
0.
#1740000000
b101010111110000000 &"
b101010011110110000 Y
b101010011110110000 7#
1.
#1750000000
0.
#1760000000
b101011011101010000 &"
b101010111110000000 Y
b101010111110000000 7#
1.
#1770000000
0.
#1780000000
b101011111100100000 &"
b101011011101010000 Y
b101011011101010000 7#
1.
