src/templates/deleteWorthy/dump.vcd
$date
	Fri Jan 31 10:59:14 2025
$end
$version
	Icarus Verilog
$end
$timescale
	100fs
$end
$scope module testbench $end
$var wire 1 ! hlc_clock $end
$var wire 64 " bTimer [63:0] $end
$var wire 1 # bEn $end
$var reg 1 $ clk $end
$var reg 1 % en $end
$var reg 64 & input_a [63:0] $end
$var reg 1 ' new_input $end
$var reg 1 ( rst $end
$scope module monitor $end
$var wire 1 ) b $end
$var wire 1 $ clk $end
$var wire 1 % en $end
$var wire 64 * input0_0 [63:0] $end
$var wire 1 ' input0_1 $end
$var wire 1 ( rst $end
$var wire 64 + x [63:0] $end
$var wire 64 , t_0 [63:0] $end
$var wire 66 - t [65:0] $end
$var wire 1 . result_9 $end
$var wire 65 / result_8 [64:0] $end
$var wire 1 0 result_7 $end
$var wire 64 1 result_5 [63:0] $end
$var wire 1 2 result_4 $end
$var wire 66 3 result_3 [65:0] $end
$var wire 65 4 result_1_2 [64:0] $end
$var wire 64 5 result_1_1 [63:0] $end
$var wire 1 # result_1_0 $end
$var wire 64 6 result_10 [63:0] $end
$var wire 1 ! result_0 $end
$var wire 66 7 result [65:0] $end
$var wire 65 8 input0 [64:0] $end
$var wire 64 9 curTime [63:0] $end
$var wire 1 : \c$b_app_arg $end
$var wire 1 ; b_1 $end
$var wire 1 < b_0 $end
$var reg 64 = result_11 [63:0] $end
$var reg 1 > result_12 $end
$var reg 66 ? result_2 [65:0] $end
$var reg 64 @ result_6 [63:0] $end
$scope begin result_11_register $end
$upscope $end
$scope begin result_12_register $end
$upscope $end
$scope begin result_2_register $end
$upscope $end
$scope begin result_6_register $end
$upscope $end
$upscope $end
$upscope $end
$enddefinitions $end
$comment Show the parameter values. $end
$dumpall
$end
#0
$dumpvars
b0 @
b0 ?
0>
b0 =
1<
1;
0:
b0 9
bx0 8
b0 7
b1 6
b0 5
b0 4
b0 3
02
b11111010000 1
00
b0 /
1.
b0 -
b1 ,
b0 +
bx *
0)
0(
0'
bx &
0%
0$
0#
b0 "
0!
$end
#10000000
1$
#20000000
0$
#30000000
1$
#40000000
0$
#50000000
1$
#60000000
0$
#70000000
1$
#80000000
0$
1%
1'
b11 8
b1 &
b1 *
#90000000
1!
b10 6
b111110100000 3
b111110100000 1
b100000000000000000000000000000000000000000000000000000000000000000 7
1>
b10 ,
b1 =
b111110100000 -
b11111010000 +
b11111010000 @
1$
b10 8
0'
#100000000
0$
#110000000
b11111010000 "
b11111010000 5
b11111010000 4
0.
b11 6
b1111101000000 3
b1011101110000 1
b11111010000 9
b100000000000000000000000000000000000000000000000000000011111010000 7
b11111010000 /
0<
b11 ,
b10 =
b1111101000000 -
b111110100000 +
b111110100000 @
b111110100000 ?
1$
#120000000
0$
#130000000
b111110100000 "
b111110100000 5
b111110100000 4
0!
b100 6
b10111011100000 3
b1111101000000 1
b111110100000 9
b111110100000 /
b111110100000 7
0>
b100 ,
b11 =
b10111011100000 -
b1011101110000 +
b1011101110000 @
b1111101000000 ?
1$
#140000000
0$
#150000000
b1011101110000 "
b1011101110000 5
b1011101110000 4
b0 6
b11111010000000 3
b10011100010000 1
b1011101110000 9
b1011101110000 7
b1011101110000 /
0;
b101 ,
b100 =
b11111010000000 -
b1111101000000 +
b1111101000000 @
b10111011100000 ?
1$
#160000000
0$
#170000000
b1111101000000 "
b1111101000000 5
b1111101000000 4
1.
b1 6
b100111000100000 3
b10111011100000 1
b1111101000000 9
b1111101000000 7
b1111101000000 /
1<
1;
b1 ,
b0 =
b100111000100000 -
b10011100010000 +
b10011100010000 @
b11111010000000 ?
1$
#180000000
0$
#190000000
b10011100010000 "
b10011100010000 5
b10011100010000 4
1!
b10 6
b101110111000000 3
b11011010110000 1
b10011100010000 9
b10011100010000 /
b100000000000000000000000000000000000000000000000000010011100010000 7
1>
b10 ,
b1 =
b101110111000000 -
b10111011100000 +
b10111011100000 @
b100111000100000 ?
1$
#200000000
0$
#210000000
b10111011100000 "
b10111011100000 5
b10111011100000 4
0.
b11 6
b110110101100000 3
b11111010000000 1
b10111011100000 9
b100000000000000000000000000000000000000000000000000010111011100000 7
b10111011100000 /
0<
b11 ,
b10 =
b110110101100000 -
b11011010110000 +
b11011010110000 @
b101110111000000 ?
1$
#220000000
0$
#230000000
b11011010110000 "
b11011010110000 5
b11011010110000 4
0!
b100 6
b111110100000000 3
b100011001010000 1
b11011010110000 9
b11011010110000 /
b11011010110000 7
0>
b100 ,
b11 =
b111110100000000 -
b11111010000000 +
b11111010000000 @
b110110101100000 ?
1$
#240000000
0$
#250000000
b11111010000000 "
b11111010000000 5
b11111010000000 4
b0 6
b1000110010100000 3
b100111000100000 1
b11111010000000 9
b11111010000000 7
b11111010000000 /
0;
b101 ,
b100 =
b1000110010100000 -
b100011001010000 +
b100011001010000 @
b111110100000000 ?
1$
#260000000
0$
#270000000
b100011001010000 "
b100011001010000 5
b100011001010000 4
1.
b1 6
b1001110001000000 3
b101010111110000 1
b100011001010000 9
b100011001010000 7
b100011001010000 /
1<
1;
b1 ,
b0 =
b1001110001000000 -
b100111000100000 +
b100111000100000 @
b1000110010100000 ?
1$
#280000000
0$
#290000000
b100111000100000 "
b100111000100000 5
b100111000100000 4
1!
b10 6
b1010101111100000 3
b101110111000000 1
b100111000100000 9
b100111000100000 /
b100000000000000000000000000000000000000000000000000100111000100000 7
1>
b10 ,
b1 =
b1010101111100000 -
b101010111110000 +
b101010111110000 @
b1001110001000000 ?
1$
#300000000
0$
#310000000
b101010111110000 "
b101010111110000 5
b101010111110000 4
0.
b11 6
b1011101110000000 3
b110010110010000 1
b101010111110000 9
b100000000000000000000000000000000000000000000000000101010111110000 7
b101010111110000 /
0<
b11 ,
b10 =
b1011101110000000 -
b101110111000000 +
b101110111000000 @
b1010101111100000 ?
1$
#320000000
0$
#330000000
b101110111000000 "
b101110111000000 5
b101110111000000 4
0!
b100 6
b1100101100100000 3
b110110101100000 1
b101110111000000 9
b101110111000000 /
b101110111000000 7
0>
b100 ,
b11 =
b1100101100100000 -
b110010110010000 +
b110010110010000 @
b1011101110000000 ?
1$
#340000000
0$
#350000000
b110010110010000 "
b110010110010000 5
b110010110010000 4
b0 6
b1101101011000000 3
b111010100110000 1
b110010110010000 9
b110010110010000 7
b110010110010000 /
0;
b101 ,
b100 =
b1101101011000000 -
b110110101100000 +
b110110101100000 @
b1100101100100000 ?
1$
#360000000
0$
#370000000
b110110101100000 "
b110110101100000 5
b110110101100000 4
1.
b1 6
b1110101001100000 3
b111110100000000 1
b110110101100000 9
b110110101100000 7
b110110101100000 /
1<
1;
b1 ,
b0 =
b1110101001100000 -
b111010100110000 +
b111010100110000 @
b1101101011000000 ?
1$
#380000000
0$
#390000000
b111010100110000 "
b111010100110000 5
b111010100110000 4
1!
b10 6
b1111101000000000 3
b1000010011010000 1
b111010100110000 9
b111010100110000 /
b100000000000000000000000000000000000000000000000000111010100110000 7
1>
b10 ,
b1 =
b1111101000000000 -
b111110100000000 +
b111110100000000 @
b1110101001100000 ?
1$
#400000000
0$
#410000000
b111110100000000 "
b111110100000000 5
b111110100000000 4
0.
b11 6
b10000100110100000 3
b1000110010100000 1
b111110100000000 9
b100000000000000000000000000000000000000000000000000111110100000000 7
b111110100000000 /
0<
b11 ,
b10 =
b10000100110100000 -
b1000010011010000 +
b1000010011010000 @
b1111101000000000 ?
1$
#420000000
0$
#430000000
b1000010011010000 "
b1000010011010000 5
b1000010011010000 4
0!
b100 6
b10001100101000000 3
b1001010001110000 1
b1000010011010000 9
b1000010011010000 /
b1000010011010000 7
0>
b100 ,
b11 =
b10001100101000000 -
b1000110010100000 +
b1000110010100000 @
b10000100110100000 ?
1$
#440000000
0$
#450000000
b1000110010100000 "
b1000110010100000 5
b1000110010100000 4
b0 6
b10010100011100000 3
b1001110001000000 1
b1000110010100000 9
b1000110010100000 7
b1000110010100000 /
0;
b101 ,
b100 =
b10010100011100000 -
b1001010001110000 +
b1001010001110000 @
b10001100101000000 ?
1$
#460000000
0$
#470000000
b1001010001110000 "
b1001010001110000 5
b1001010001110000 4
1.
b1 6
b10011100010000000 3
b1010010000010000 1
b1001010001110000 9
b1001010001110000 7
b1001010001110000 /
1<
1;
b1 ,
b0 =
b10011100010000000 -
b1001110001000000 +
b1001110001000000 @
b10010100011100000 ?
1$
#480000000
0$
#490000000
b1001110001000000 "
b1001110001000000 5
b1001110001000000 4
1!
b10 6
b10100100000100000 3
b1010101111100000 1
b1001110001000000 9
b1001110001000000 /
b100000000000000000000000000000000000000000000000001001110001000000 7
1>
b10 ,
b1 =
b10100100000100000 -
b1010010000010000 +
b1010010000010000 @
b10011100010000000 ?
1$
#500000000
0$
#510000000
b1010010000010000 "
b1010010000010000 5
b1010010000010000 4
0.
b11 6
b10101011111000000 3
b1011001110110000 1
b1010010000010000 9
b100000000000000000000000000000000000000000000000001010010000010000 7
b1010010000010000 /
0<
b11 ,
b10 =
b10101011111000000 -
b1010101111100000 +
b1010101111100000 @
b10100100000100000 ?
1$
#520000000
0$
#530000000
b1010101111100000 "
b1010101111100000 5
b1010101111100000 4
0!
b100 6
b10110011101100000 3
b1011101110000000 1
b1010101111100000 9
b1010101111100000 /
b1010101111100000 7
0>
b100 ,
b11 =
b10110011101100000 -
b1011001110110000 +
b1011001110110000 @
b10101011111000000 ?
1$
#540000000
0$
#550000000
b1011001110110000 "
b1011001110110000 5
b1011001110110000 4
b0 6
b10111011100000000 3
b1100001101010000 1
b1011001110110000 9
b1011001110110000 7
b1011001110110000 /
0;
b101 ,
b100 =
b10111011100000000 -
b1011101110000000 +
b1011101110000000 @
b10110011101100000 ?
1$
#560000000
0$
#570000000
b1011101110000000 "
b1011101110000000 5
b1011101110000000 4
1.
b1 6
b11000011010100000 3
b1100101100100000 1
b1011101110000000 9
b1011101110000000 7
b1011101110000000 /
1<
1;
b1 ,
b0 =
b11000011010100000 -
b1100001101010000 +
b1100001101010000 @
b10111011100000000 ?
1$
#580000000
0$
#590000000
b1100001101010000 "
b1100001101010000 5
b1100001101010000 4
1!
b10 6
b11001011001000000 3
b1101001011110000 1
b1100001101010000 9
b1100001101010000 /
b100000000000000000000000000000000000000000000000001100001101010000 7
1>
b10 ,
b1 =
b11001011001000000 -
b1100101100100000 +
b1100101100100000 @
b11000011010100000 ?
1$
#600000000
0$
#610000000
b1100101100100000 "
b1100101100100000 5
b1100101100100000 4
0.
b11 6
b11010010111100000 3
b1101101011000000 1
b1100101100100000 9
b100000000000000000000000000000000000000000000000001100101100100000 7
b1100101100100000 /
0<
b11 ,
b10 =
b11010010111100000 -
b1101001011110000 +
b1101001011110000 @
b11001011001000000 ?
1$
#620000000
0$
#630000000
b1101001011110000 "
b1101001011110000 5
b1101001011110000 4
0!
b100 6
b11011010110000000 3
b1110001010010000 1
b1101001011110000 9
b1101001011110000 /
b1101001011110000 7
0>
b100 ,
b11 =
b11011010110000000 -
b1101101011000000 +
b1101101011000000 @
b11010010111100000 ?
1$
#640000000
0$
#650000000
b1101101011000000 "
b1101101011000000 5
b1101101011000000 4
b0 6
b11100010100100000 3
b1110101001100000 1
b1101101011000000 9
b1101101011000000 7
b1101101011000000 /
0;
b101 ,
b100 =
b11100010100100000 -
b1110001010010000 +
b1110001010010000 @
b11011010110000000 ?
1$
#660000000
0$
#670000000
b1110001010010000 "
b1110001010010000 5
b1110001010010000 4
1.
b1 6
b11101010011000000 3
b1111001000110000 1
b1110001010010000 9
b1110001010010000 7
b1110001010010000 /
1<
1;
b1 ,
b0 =
b11101010011000000 -
b1110101001100000 +
b1110101001100000 @
b11100010100100000 ?
1$
#680000000
0$
#690000000
b1110101001100000 "
b1110101001100000 5
b1110101001100000 4
1!
b10 6
b11110010001100000 3
b1111101000000000 1
b1110101001100000 9
b1110101001100000 /
b100000000000000000000000000000000000000000000000001110101001100000 7
1>
b10 ,
b1 =
b11110010001100000 -
b1111001000110000 +
b1111001000110000 @
b11101010011000000 ?
1$
#700000000
0$
#710000000
b1111001000110000 "
b1111001000110000 5
b1111001000110000 4
0.
b11 6
b11111010000000000 3
b10000000111010000 1
b1111001000110000 9
b100000000000000000000000000000000000000000000000001111001000110000 7
b1111001000110000 /
0<
b11 ,
b10 =
b11111010000000000 -
b1111101000000000 +
b1111101000000000 @
b11110010001100000 ?
1$
#720000000
0$
#730000000
b1111101000000000 "
b1111101000000000 5
b1111101000000000 4
0!
b100 6
b100000001110100000 3
b10000100110100000 1
b1111101000000000 9
b1111101000000000 /
b1111101000000000 7
0>
b100 ,
b11 =
b100000001110100000 -
b10000000111010000 +
b10000000111010000 @
b11111010000000000 ?
1$
#740000000
0$
#750000000
b10000000111010000 "
b10000000111010000 5
b10000000111010000 4
b0 6
b100001001101000000 3
b10001000101110000 1
b10000000111010000 9
b10000000111010000 7
b10000000111010000 /
0;
b101 ,
b100 =
b100001001101000000 -
b10000100110100000 +
b10000100110100000 @
b100000001110100000 ?
1$
#760000000
0$
#770000000
b10000100110100000 "
b10000100110100000 5
b10000100110100000 4
1.
b1 6
b100010001011100000 3
b10001100101000000 1
b10000100110100000 9
b10000100110100000 7
b10000100110100000 /
1<
1;
b1 ,
b0 =
b100010001011100000 -
b10001000101110000 +
b10001000101110000 @
b100001001101000000 ?
1$
#780000000
0$
#790000000
b10001000101110000 "
b10001000101110000 5
b10001000101110000 4
1!
b10 6
b100011001010000000 3
b10010000100010000 1
b10001000101110000 9
b10001000101110000 /
b100000000000000000000000000000000000000000000000010001000101110000 7
1>
b10 ,
b1 =
b100011001010000000 -
b10001100101000000 +
b10001100101000000 @
b100010001011100000 ?
1$
#800000000
0$
#810000000
b10001100101000000 "
b10001100101000000 5
b10001100101000000 4
0.
b11 6
b100100001000100000 3
b10010100011100000 1
b10001100101000000 9
b100000000000000000000000000000000000000000000000010001100101000000 7
b10001100101000000 /
0<
b11 ,
b10 =
b100100001000100000 -
b10010000100010000 +
b10010000100010000 @
b100011001010000000 ?
1$
#820000000
0$
#830000000
b10010000100010000 "
b10010000100010000 5
b10010000100010000 4
0!
b100 6
b100101000111000000 3
b10011000010110000 1
b10010000100010000 9
b10010000100010000 /
b10010000100010000 7
0>
b100 ,
b11 =
b100101000111000000 -
b10010100011100000 +
b10010100011100000 @
b100100001000100000 ?
1$
#840000000
0$
#850000000
b10010100011100000 "
b10010100011100000 5
b10010100011100000 4
b0 6
b100110000101100000 3
b10011100010000000 1
b10010100011100000 9
b10010100011100000 7
b10010100011100000 /
0;
b101 ,
b100 =
b100110000101100000 -
b10011000010110000 +
b10011000010110000 @
b100101000111000000 ?
1$
#860000000
0$
#870000000
b10011000010110000 "
b10011000010110000 5
b10011000010110000 4
1.
b1 6
b100111000100000000 3
b10100000001010000 1
b10011000010110000 9
b10011000010110000 7
b10011000010110000 /
1<
1;
b1 ,
b0 =
b100111000100000000 -
b10011100010000000 +
b10011100010000000 @
b100110000101100000 ?
1$
#880000000
0$
#890000000
b10011100010000000 "
b10011100010000000 5
b10011100010000000 4
1!
b10 6
b101000000010100000 3
b10100100000100000 1
b10011100010000000 9
b10011100010000000 /
b100000000000000000000000000000000000000000000000010011100010000000 7
1>
b10 ,
b1 =
b101000000010100000 -
b10100000001010000 +
b10100000001010000 @
b100111000100000000 ?
1$
#900000000
0$
#910000000
b10100000001010000 "
b10100000001010000 5
b10100000001010000 4
0.
b11 6
b101001000001000000 3
b10100111111110000 1
b10100000001010000 9
b100000000000000000000000000000000000000000000000010100000001010000 7
b10100000001010000 /
0<
b11 ,
b10 =
b101001000001000000 -
b10100100000100000 +
b10100100000100000 @
b101000000010100000 ?
1$
#920000000
0$
#930000000
b10100100000100000 "
b10100100000100000 5
b10100100000100000 4
0!
b100 6
b101001111111100000 3
b10101011111000000 1
b10100100000100000 9
b10100100000100000 /
b10100100000100000 7
0>
b100 ,
b11 =
b101001111111100000 -
b10100111111110000 +
b10100111111110000 @
b101001000001000000 ?
1$
#940000000
0$
#950000000
b10100111111110000 "
b10100111111110000 5
b10100111111110000 4
b0 6
b101010111110000000 3
b10101111110010000 1
b10100111111110000 9
b10100111111110000 7
b10100111111110000 /
0;
b101 ,
b100 =
b101010111110000000 -
b10101011111000000 +
b10101011111000000 @
b101001111111100000 ?
1$
#960000000
0$
#970000000
b10101011111000000 "
b10101011111000000 5
b10101011111000000 4
1.
b1 6
b101011111100100000 3
b10110011101100000 1
b10101011111000000 9
b10101011111000000 7
b10101011111000000 /
1<
1;
b1 ,
b0 =
b101011111100100000 -
b10101111110010000 +
b10101111110010000 @
b101010111110000000 ?
1$
#980000000
0$
#990000000
b10101111110010000 "
b10101111110010000 5
b10101111110010000 4
1!
b10 6
b101100111011000000 3
b10110111100110000 1
b10101111110010000 9
b10101111110010000 /
b100000000000000000000000000000000000000000000000010101111110010000 7
1>
b10 ,
b1 =
b101100111011000000 -
b10110011101100000 +
b10110011101100000 @
b101011111100100000 ?
1$
#1000000000
0$
#1010000000
b10110011101100000 "
b10110011101100000 5
b10110011101100000 4
0.
b11 6
b101101111001100000 3
b10111011100000000 1
b10110011101100000 9
b100000000000000000000000000000000000000000000000010110011101100000 7
b10110011101100000 /
0<
b11 ,
b10 =
b101101111001100000 -
b10110111100110000 +
b10110111100110000 @
b101100111011000000 ?
1$
#1020000000
0$
#1030000000
b10110111100110000 "
b10110111100110000 5
b10110111100110000 4
0!
b100 6
b101110111000000000 3
b10111111011010000 1
b10110111100110000 9
b10110111100110000 /
b10110111100110000 7
0>
b100 ,
b11 =
b101110111000000000 -
b10111011100000000 +
b10111011100000000 @
b101101111001100000 ?
1$
#1040000000
0$
#1050000000
b10111011100000000 "
b10111011100000000 5
b10111011100000000 4
b0 6
b101111110110100000 3
b11000011010100000 1
b10111011100000000 9
b10111011100000000 7
b10111011100000000 /
0;
b101 ,
b100 =
b101111110110100000 -
b10111111011010000 +
b10111111011010000 @
b101110111000000000 ?
1$
#1060000000
0$
#1070000000
b10111111011010000 "
b10111111011010000 5
b10111111011010000 4
1.
b1 6
b110000110101000000 3
b11000111001110000 1
b10111111011010000 9
b10111111011010000 7
b10111111011010000 /
1<
1;
b1 ,
b0 =
b110000110101000000 -
b11000011010100000 +
b11000011010100000 @
b101111110110100000 ?
1$
#1080000000
0$
#1090000000
b11000011010100000 "
b11000011010100000 5
10
12
b11000011010100000 4
1!
1)
b10 6
b100000000000000000000000000000000000000000000000110001110011100001 3
b0 1
1:
b11000011010100000 9
b11000011010100000 /
b100000000000000000000000000000000000000000000000011000011010100000 7
1>
b10 ,
b1 =
b100000000000000000000000000000000000000000000000110001110011100001 -
b11000111001110000 +
b11000111001110000 @
b110000110101000000 ?
1$
#1100000000
0$
#1110000000
1#
b11000111001110000 "
b11000111001110000 5
b10000000000000000000000000000000000000000000000011000111001110000 4
0.
b11 6
b100000000000000000000000000000000000000000000000000000000000000001 3
b11000111001110000 9
b110000000000000000000000000000000000000000000000011000111001110000 7
b10000000000000000000000000000000000000000000000011000111001110000 /
0<
b11 ,
b10 =
b100000000000000000000000000000000000000000000000000000000000000001 -
b0 +
b0 @
b100000000000000000000000000000000000000000000000110001110011100001 ?
1$
#1120000000
0$
#1130000000
b11111010000 1
b0 "
b0 5
00
b0 -
02
b10000000000000000000000000000000000000000000000000000000000000000 4
0!
0)
b100 6
0:
b0 9
b10000000000000000000000000000000000000000000000000000000000000000 /
b10000000000000000000000000000000000000000000000000000000000000000 7
0>
b100 ,
b11 =
b100000000000000000000000000000000000000000000000000000000000000001 ?
1$
#1140000000
0$
#1150000000
b0 6
b100000000000000000000000000000000000000000000000000000111110100001 3
b111110100000 1
0;
b101 ,
b100 =
b111110100000 -
b11111010000 +
b11111010000 @
1$
#1160000000
0$
#1170000000
b11111010000 "
b11111010000 5
b10000000000000000000000000000000000000000000000000000011111010000 4
1.
b1 6
b100000000000000000000000000000000000000000000000000001111101000001 3
b1011101110000 1
b11111010000 9
b10000000000000000000000000000000000000000000000000000011111010000 7
b10000000000000000000000000000000000000000000000000000011111010000 /
1<
1;
b1 ,
b0 =
b1111101000000 -
b111110100000 +
b111110100000 @
b100000000000000000000000000000000000000000000000000000111110100001 ?
1$
1'
b101 8
b10 &
b10 *
#1180000000
0$
b100 8
0'
#1190000000
b111110100000 "
b111110100000 5
b10000000000000000000000000000000000000000000000000000111110100000 4
1!
b10 6
b10111011100000 3
b1111101000000 1
b111110100000 9
b10000000000000000000000000000000000000000000000000000111110100000 /
b110000000000000000000000000000000000000000000000000000111110100000 7
1>
b10 ,
b1 =
b10111011100000 -
b1011101110000 +
b1011101110000 @
b100000000000000000000000000000000000000000000000000001111101000001 ?
1$
#1200000000
0$
#1210000000
0#
b1011101110000 "
b1011101110000 5
b1011101110000 4
0.
b11 6
b11111010000000 3
b10011100010000 1
b1011101110000 9
b100000000000000000000000000000000000000000000000000001011101110000 7
b1011101110000 /
0<
b11 ,
b10 =
b11111010000000 -
b1111101000000 +
b1111101000000 @
b10111011100000 ?
1$
#1220000000
0$
#1230000000
b1111101000000 "
b1111101000000 5
b1111101000000 4
0!
b100 6
b100111000100000 3
b10111011100000 1
b1111101000000 9
b1111101000000 /
b1111101000000 7
0>
b100 ,
b11 =
b100111000100000 -
b10011100010000 +
b10011100010000 @
b11111010000000 ?
1$
#1240000000
0$
#1250000000
b10011100010000 "
b10011100010000 5
b10011100010000 4
b0 6
b101110111000000 3
b11011010110000 1
b10011100010000 9
b10011100010000 7
b10011100010000 /
0;
b101 ,
b100 =
b101110111000000 -
b10111011100000 +
b10111011100000 @
b100111000100000 ?
1$
#1260000000
0$
#1270000000
b10111011100000 "
b10111011100000 5
b10111011100000 4
1.
b1 6
b110110101100000 3
b11111010000000 1
b10111011100000 9
b10111011100000 7
b10111011100000 /
1<
1;
b1 ,
b0 =
b110110101100000 -
b11011010110000 +
b11011010110000 @
b101110111000000 ?
1$
#1280000000
0$
#1290000000
b11011010110000 "
b11011010110000 5
b11011010110000 4
1!
b10 6
b111110100000000 3
b100011001010000 1
b11011010110000 9
b11011010110000 /
b100000000000000000000000000000000000000000000000000011011010110000 7
1>
b10 ,
b1 =
b111110100000000 -
b11111010000000 +
b11111010000000 @
b110110101100000 ?
1$
#1300000000
0$
#1310000000
b11111010000000 "
b11111010000000 5
b11111010000000 4
0.
b11 6
b1000110010100000 3
b100111000100000 1
b11111010000000 9
b100000000000000000000000000000000000000000000000000011111010000000 7
b11111010000000 /
0<
b11 ,
b10 =
b1000110010100000 -
b100011001010000 +
b100011001010000 @
b111110100000000 ?
1$
#1320000000
0$
#1330000000
b100011001010000 "
b100011001010000 5
b100011001010000 4
0!
b100 6
b1001110001000000 3
b101010111110000 1
b100011001010000 9
b100011001010000 /
b100011001010000 7
0>
b100 ,
b11 =
b1001110001000000 -
b100111000100000 +
b100111000100000 @
b1000110010100000 ?
1$
#1340000000
0$
#1350000000
b100111000100000 "
b100111000100000 5
b100111000100000 4
b0 6
b1010101111100000 3
b101110111000000 1
b100111000100000 9
b100111000100000 7
b100111000100000 /
0;
b101 ,
b100 =
b1010101111100000 -
b101010111110000 +
b101010111110000 @
b1001110001000000 ?
1$
#1360000000
0$
#1370000000
b101010111110000 "
b101010111110000 5
b101010111110000 4
1.
b1 6
b1011101110000000 3
b110010110010000 1
b101010111110000 9
b101010111110000 7
b101010111110000 /
1<
1;
b1 ,
b0 =
b1011101110000000 -
b101110111000000 +
b101110111000000 @
b1010101111100000 ?
1$
#1380000000
0$
#1390000000
b101110111000000 "
b101110111000000 5
b101110111000000 4
1!
b10 6
b1100101100100000 3
b110110101100000 1
b101110111000000 9
b101110111000000 /
b100000000000000000000000000000000000000000000000000101110111000000 7
1>
b10 ,
b1 =
b1100101100100000 -
b110010110010000 +
b110010110010000 @
b1011101110000000 ?
1$
#1400000000
0$
#1410000000
b110010110010000 "
b110010110010000 5
b110010110010000 4
0.
b11 6
b1101101011000000 3
b111010100110000 1
b110010110010000 9
b100000000000000000000000000000000000000000000000000110010110010000 7
b110010110010000 /
0<
b11 ,
b10 =
b1101101011000000 -
b110110101100000 +
b110110101100000 @
b1100101100100000 ?
1$
#1420000000
0$
#1430000000
b110110101100000 "
b110110101100000 5
b110110101100000 4
0!
b100 6
b1110101001100000 3
b111110100000000 1
b110110101100000 9
b110110101100000 /
b110110101100000 7
0>
b100 ,
b11 =
b1110101001100000 -
b111010100110000 +
b111010100110000 @
b1101101011000000 ?
1$
#1440000000
0$
#1450000000
b111010100110000 "
b111010100110000 5
b111010100110000 4
b0 6
b1111101000000000 3
b1000010011010000 1
b111010100110000 9
b111010100110000 7
b111010100110000 /
0;
b101 ,
b100 =
b1111101000000000 -
b111110100000000 +
b111110100000000 @
b1110101001100000 ?
1$
#1460000000
0$
#1470000000
b111110100000000 "
b111110100000000 5
b111110100000000 4
1.
b1 6
b10000100110100000 3
b1000110010100000 1
b111110100000000 9
b111110100000000 7
b111110100000000 /
1<
1;
b1 ,
b0 =
b10000100110100000 -
b1000010011010000 +
b1000010011010000 @
b1111101000000000 ?
1$
#1480000000
0$
#1490000000
b1000010011010000 "
b1000010011010000 5
b1000010011010000 4
1!
b10 6
b10001100101000000 3
b1001010001110000 1
b1000010011010000 9
b1000010011010000 /
b100000000000000000000000000000000000000000000000001000010011010000 7
1>
b10 ,
b1 =
b10001100101000000 -
b1000110010100000 +
b1000110010100000 @
b10000100110100000 ?
1$
#1500000000
0$
#1510000000
b1000110010100000 "
b1000110010100000 5
b1000110010100000 4
0.
b11 6
b10010100011100000 3
b1001110001000000 1
b1000110010100000 9
b100000000000000000000000000000000000000000000000001000110010100000 7
b1000110010100000 /
0<
b11 ,
b10 =
b10010100011100000 -
b1001010001110000 +
b1001010001110000 @
b10001100101000000 ?
1$
#1520000000
0$
#1530000000
b1001010001110000 "
b1001010001110000 5
b1001010001110000 4
0!
b100 6
b10011100010000000 3
b1010010000010000 1
b1001010001110000 9
b1001010001110000 /
b1001010001110000 7
0>
b100 ,
b11 =
b10011100010000000 -
b1001110001000000 +
b1001110001000000 @
b10010100011100000 ?
1$
#1540000000
0$
#1550000000
b1001110001000000 "
b1001110001000000 5
b1001110001000000 4
b0 6
b10100100000100000 3
b1010101111100000 1
b1001110001000000 9
b1001110001000000 7
b1001110001000000 /
0;
b101 ,
b100 =
b10100100000100000 -
b1010010000010000 +
b1010010000010000 @
b10011100010000000 ?
1$
#1560000000
0$
#1570000000
b1010010000010000 "
b1010010000010000 5
b1010010000010000 4
1.
b1 6
b10101011111000000 3
b1011001110110000 1
b1010010000010000 9
b1010010000010000 7
b1010010000010000 /
1<
1;
b1 ,
b0 =
b10101011111000000 -
b1010101111100000 +
b1010101111100000 @
b10100100000100000 ?
1$
#1580000000
0$
#1590000000
b1010101111100000 "
b1010101111100000 5
b1010101111100000 4
1!
b10 6
b10110011101100000 3
b1011101110000000 1
b1010101111100000 9
b1010101111100000 /
b100000000000000000000000000000000000000000000000001010101111100000 7
1>
b10 ,
b1 =
b10110011101100000 -
b1011001110110000 +
b1011001110110000 @
b10101011111000000 ?
1$
#1600000000
0$
#1610000000
b1011001110110000 "
b1011001110110000 5
b1011001110110000 4
0.
b11 6
b10111011100000000 3
b1100001101010000 1
b1011001110110000 9
b100000000000000000000000000000000000000000000000001011001110110000 7
b1011001110110000 /
0<
b11 ,
b10 =
b10111011100000000 -
b1011101110000000 +
b1011101110000000 @
b10110011101100000 ?
1$
#1620000000
0$
#1630000000
b1011101110000000 "
b1011101110000000 5
b1011101110000000 4
0!
b100 6
b11000011010100000 3
b1100101100100000 1
b1011101110000000 9
b1011101110000000 /
b1011101110000000 7
0>
b100 ,
b11 =
b11000011010100000 -
b1100001101010000 +
b1100001101010000 @
b10111011100000000 ?
1$
#1640000000
0$
#1650000000
b1100001101010000 "
b1100001101010000 5
b1100001101010000 4
b0 6
b11001011001000000 3
b1101001011110000 1
b1100001101010000 9
b1100001101010000 7
b1100001101010000 /
0;
b101 ,
b100 =
b11001011001000000 -
b1100101100100000 +
b1100101100100000 @
b11000011010100000 ?
1$
#1660000000
0$
#1670000000
b1100101100100000 "
b1100101100100000 5
b1100101100100000 4
1.
b1 6
b11010010111100000 3
b1101101011000000 1
b1100101100100000 9
b1100101100100000 7
b1100101100100000 /
1<
1;
b1 ,
b0 =
b11010010111100000 -
b1101001011110000 +
b1101001011110000 @
b11001011001000000 ?
1$
#1680000000
0$
#1690000000
b1101001011110000 "
b1101001011110000 5
b1101001011110000 4
1!
b10 6
b11011010110000000 3
b1110001010010000 1
b1101001011110000 9
b1101001011110000 /
b100000000000000000000000000000000000000000000000001101001011110000 7
1>
b10 ,
b1 =
b11011010110000000 -
b1101101011000000 +
b1101101011000000 @
b11010010111100000 ?
1$
#1700000000
0$
#1710000000
b1101101011000000 "
b1101101011000000 5
b1101101011000000 4
0.
b11 6
b11100010100100000 3
b1110101001100000 1
b1101101011000000 9
b100000000000000000000000000000000000000000000000001101101011000000 7
b1101101011000000 /
0<
b11 ,
b10 =
b11100010100100000 -
b1110001010010000 +
b1110001010010000 @
b11011010110000000 ?
1$
#1720000000
0$
#1730000000
b1110001010010000 "
b1110001010010000 5
b1110001010010000 4
0!
b100 6
b11101010011000000 3
b1111001000110000 1
b1110001010010000 9
b1110001010010000 /
b1110001010010000 7
0>
b100 ,
b11 =
b11101010011000000 -
b1110101001100000 +
b1110101001100000 @
b11100010100100000 ?
1$
#1740000000
0$
#1750000000
b1110101001100000 "
b1110101001100000 5
b1110101001100000 4
b0 6
b11110010001100000 3
b1111101000000000 1
b1110101001100000 9
b1110101001100000 7
b1110101001100000 /
0;
b101 ,
b100 =
b11110010001100000 -
b1111001000110000 +
b1111001000110000 @
b11101010011000000 ?
1$
#1760000000
0$
