src/end_to_end_tests/tests/only_output_streams/generated/dump.vcd
$date
	Thu May 15 18:04:29 2025
$end
$version
	Icarus Verilog
$end
$timescale
	100fs
$end
$scope module testbench $end
$var wire 1 ! q_push_valid $end
$var wire 1 " q_push $end
$var wire 1 # q_pop_valid $end
$var wire 1 $ q_pop $end
$var wire 1 % pacing_1 $end
$var wire 1 & pacing_0 $end
$var wire 1 ' output_1_aktv $end
$var wire 64 ( output_1 [63:0] $end
$var wire 1 ) output_0_aktv $end
$var wire 64 * output_0 [63:0] $end
$var reg 1 + clk $end
$var reg 1 , en $end
$var reg 1 - rst $end
$scope module monitor $end
$var wire 2 . \c$case_alt_5 [1:0] $end
$var wire 72 / \c$case_scrut [71:0] $end
$var wire 72 0 \c$case_scrut_1 [71:0] $end
$var wire 72 1 \c$case_scrut_3 [71:0] $end
$var wire 1 + clk $end
$var wire 1 , en $end
$var wire 1 2 iterateI_ho1_0_res $end
$var wire 1 3 iterateI_ho1_0_res_0 $end
$var wire 1 4 iterateI_ho1_0_res_1 $end
$var wire 16 5 iterateI_ho1_0_res_2 [15:0] $end
$var wire 1 6 iterateI_ho1_0_res_3 $end
$var wire 1 7 iterateI_ho1_1_res $end
$var wire 1 8 iterateI_ho1_1_res_0 $end
$var wire 1 - rst $end
$var wire 64 9 x [63:0] $end
$var wire 64 : x_0 [63:0] $end
$var wire 64 ; x_2 [63:0] $end
$var wire 64 < y [63:0] $end
$var wire 64 = x_1 [63:0] $end
$var wire 6 > ws_1 [5:0] $end
$var wire 6 ? ws_0 [5:0] $end
$var wire 6 @ ws [5:0] $end
$var wire 8 A winTag [7:0] $end
$var wire 64 B winData [63:0] $end
$var wire 1 C timer1Over $end
$var wire 1 D timer0Over $end
$var wire 216 E t_projection_0 [215:0] $end
$var wire 72 F t_2 [71:0] $end
$var wire 144 G t_1 [143:0] $end
$var wire 8 H result_9 [7:0] $end
$var wire 8 I result_8 [7:0] $end
$var wire 8 J result_7 [7:0] $end
$var wire 64 K result_5 [63:0] $end
$var wire 64 L result_3 [63:0] $end
$var wire 4 M result_27 [3:0] $end
$var wire 133 N result_26 [132:0] $end
$var wire 1 O result_25 $end
$var wire 72 P result_24 [71:0] $end
$var wire 16 Q result_23 [15:0] $end
$var wire 1 R result_22 $end
$var wire 72 S result_20 [71:0] $end
$var wire 3 T result_2 [2:0] $end
$var wire 2 U result_1_4_6 [1:0] $end
$var wire 1 % result_1_4_1 $end
$var wire 1 & result_1_4_0 $end
$var wire 1 # result_1_3 $end
$var wire 1 ! result_1_2 $end
$var wire 1 $ result_1_1 $end
$var wire 1 " result_1_0 $end
$var wire 8 V result_19 [7:0] $end
$var wire 72 W result_18 [71:0] $end
$var wire 8 X result_17 [7:0] $end
$var wire 1 Y result_16 $end
$var wire 144 Z result_14 [143:0] $end
$var wire 8 [ result_13 [7:0] $end
$var wire 72 \ result_12 [71:0] $end
$var wire 1 ] result_11 $end
$var wire 8 ^ result_10 [7:0] $end
$var wire 6 _ result_1 [5:0] $end
$var wire 1 ' result_0_1_1 $end
$var wire 64 ` result_0_1_0 [63:0] $end
$var wire 65 a result_0_1 [64:0] $end
$var wire 1 ) result_0_0_1 $end
$var wire 64 b result_0_0_0 [63:0] $end
$var wire 65 c result_0_0 [64:0] $end
$var wire 130 d result_0 [129:0] $end
$var wire 136 e result [135:0] $end
$var wire 1 f qPush $end
$var wire 1 g qPopValid $end
$var wire 1 h qPop $end
$var wire 2 i qData [1:0] $end
$var wire 2 j pacings [1:0] $end
$var wire 1 k p1 $end
$var wire 1 l p0 $end
$var wire 16 m iterateI_ho1_0_arg0 [15:0] $end
$var wire 1 n i_1 $end
$var wire 1 o i_0 $end
$var wire 1 p i $end
$var wire 8 q f1_0 [7:0] $end
$var wire 8 r f1 [7:0] $end
$var wire 4 s \c$ws_app_arg_4 [3:0] $end
$var wire 148 t \c$ws_app_arg_3 [147:0] $end
$var wire 4 u \c$ws_app_arg_2 [3:0] $end
$var wire 148 v \c$ws_app_arg_1 [147:0] $end
$var wire 4 w \c$ws_app_arg_0 [3:0] $end
$var wire 148 x \c$ws_app_arg [147:0] $end
$var wire 4 y \c$vec2_1 [3:0] $end
$var wire 4 z \c$vec2_0 [3:0] $end
$var wire 4 { \c$vec2 [3:0] $end
$var wire 64 | \c$tte_rhs_0 [63:0] $end
$var wire 64 } \c$tte_rhs [63:0] $end
$var wire 1 ~ \c$cursor_case_scrut $end
$var wire 64 !" \c$cursor_case_alt_4 [63:0] $end
$var wire 64 "" \c$cursor_case_alt_2 [63:0] $end
$var wire 64 #" \c$cursor_case_alt_1 [63:0] $end
$var wire 64 $" \c$cursor_case_alt_0 [63:0] $end
$var wire 64 %" \c$cursor_case_alt [63:0] $end
$var wire 2 &" \c$case_scrut_4 [1:0] $end
$var wire 2 '" \c$case_scrut_2 [1:0] $end
$var wire 2 (" \c$case_scrut_0 [1:0] $end
$var wire 1 )" \c$case_alt_9 $end
$var wire 1 *" \c$case_alt_8 $end
$var wire 1 +" \c$case_alt_7 $end
$var wire 1 ," \c$case_alt_6 $end
$var wire 2 -" \c$case_alt_2 [1:0] $end
$var wire 1 ." \c$case_alt_13 $end
$var wire 1 /" \c$case_alt_12 $end
$var wire 1 0" \c$case_alt_11 $end
$var wire 2 1" \c$case_alt_1 [1:0] $end
$var wire 2 2" \c$case_alt_0 [1:0] $end
$var wire 72 3" \c$case_alt [71:0] $end
$var wire 6 4" \c$buffer_case_alt_sel_alt_t_1 [5:0] $end
$var wire 6 5" \c$buffer_case_alt_sel_alt_f_2 [5:0] $end
$var wire 4 6" \c$buffer_case_alt_1 [3:0] $end
$var wire 4 7" \c$buffer_case_alt_0 [3:0] $end
$var wire 4 8" \c$buffer_case_alt [3:0] $end
$var wire 3 9" \c$app_arg_6 [2:0] $end
$var wire 32 :" \c$app_arg_5 [31:0] $end
$var wire 3 ;" \c$app_arg_4 [2:0] $end
$var wire 8 <" \c$app_arg_3 [7:0] $end
$var wire 8 =" \c$app_arg_2 [7:0] $end
$var wire 2 >" \c$app_arg_1 [1:0] $end
$var wire 8 ?" \c$app_arg_0 [7:0] $end
$var wire 2 @" \c$app_arg [1:0] $end
$var wire 1 A" b_0 $end
$var wire 1 B" b $end
$var reg 4 C" buffer [3:0] $end
$var reg 2 D" \c$app_arg_7 [1:0] $end
$var reg 1 E" \c$app_arg_8 $end
$var reg 1 F" \c$app_arg_9 $end
$var reg 1 2 \c$bb_res_res $end
$var reg 1 3 \c$bb_res_res_0 $end
$var reg 1 4 \c$bb_res_res_1 $end
$var reg 1 7 \c$bb_res_res_2 $end
$var reg 16 G" \c$bb_res_res_3 [15:0] $end
$var reg 1 6 \c$bb_res_res_4 $end
$var reg 1 8 \c$bb_res_res_5 $end
$var reg 1 H" \c$case_alt_10 $end
$var reg 2 I" \c$case_alt_3 [1:0] $end
$var reg 2 J" \c$case_alt_4 [1:0] $end
$var reg 64 K" \c$cursor_case_alt_3 [63:0] $end
$var reg 64 L" cursor [63:0] $end
$var reg 144 M" result_15 [143:0] $end
$var reg 72 N" result_21 [71:0] $end
$var reg 64 O" result_4 [63:0] $end
$var reg 64 P" result_6 [63:0] $end
$var reg 8 Q" t [7:0] $end
$var reg 8 R" t_0 [7:0] $end
$scope begin imap[0] $end
$var wire 74 S" map_in [73:0] $end
$var wire 1 T" map_index $end
$var wire 2 U" map_out [1:0] $end
$var wire 72 V" x_4 [71:0] $end
$var wire 8 W" t_3 [7:0] $end
$var wire 2 X" \c$case_alt_14 [1:0] $end
$var parameter 2 Y" i_3 $end
$upscope $end
$scope begin imap[1] $end
$var wire 74 Z" map_in [73:0] $end
$var wire 1 [" map_index $end
$var wire 2 \" map_out [1:0] $end
$var wire 72 ]" x_4 [71:0] $end
$var wire 8 ^" t_3 [7:0] $end
$var wire 2 _" \c$case_alt_14 [1:0] $end
$var parameter 2 `" i_3 $end
$upscope $end
$scope begin imap_0[0] $end
$var wire 74 a" map_in_0 [73:0] $end
$var wire 1 b" map_index_0 $end
$var wire 2 c" map_out_0 [1:0] $end
$var wire 72 d" x_5 [71:0] $end
$var wire 8 e" t_4 [7:0] $end
$var wire 2 f" \c$case_alt_18 [1:0] $end
$var parameter 2 g" i_7 $end
$upscope $end
$scope begin imap_0[1] $end
$var wire 74 h" map_in_0 [73:0] $end
$var wire 1 i" map_index_0 $end
$var wire 2 j" map_out_0 [1:0] $end
$var wire 72 k" x_5 [71:0] $end
$var wire 8 l" t_4 [7:0] $end
$var wire 2 m" \c$case_alt_18 [1:0] $end
$var parameter 2 n" i_7 $end
$upscope $end
$scope begin imap_1[0] $end
$var wire 74 o" map_in_1 [73:0] $end
$var wire 1 p" map_index_1 $end
$var wire 2 q" map_out_1 [1:0] $end
$var wire 72 r" x_6 [71:0] $end
$var wire 8 s" t_5 [7:0] $end
$var wire 2 t" \c$case_alt_19 [1:0] $end
$var parameter 2 u" i_10 $end
$upscope $end
$scope begin imap_1[1] $end
$var wire 74 v" map_in_1 [73:0] $end
$var wire 1 w" map_index_1 $end
$var wire 2 x" map_out_1 [1:0] $end
$var wire 72 y" x_6 [71:0] $end
$var wire 8 z" t_5 [7:0] $end
$var wire 2 {" \c$case_alt_19 [1:0] $end
$var parameter 2 |" i_10 $end
$upscope $end
$scope begin mk_array[0] $end
$var parameter 2 }" i_4 $end
$upscope $end
$scope begin mk_array[1] $end
$var parameter 2 ~" i_4 $end
$upscope $end
$scope begin mk_array_0[0] $end
$var parameter 2 !# i_8 $end
$upscope $end
$scope begin mk_array_0[1] $end
$var parameter 2 "# i_8 $end
$upscope $end
$scope begin mk_array_1[0] $end
$var parameter 2 ## i_11 $end
$upscope $end
$scope begin mk_array_1[1] $end
$var parameter 2 $# i_11 $end
$upscope $end
$scope begin mk_array_2[0] $end
$var parameter 2 %# i_12 $end
$upscope $end
$scope begin mk_array_2[1] $end
$var parameter 2 &# i_12 $end
$upscope $end
$scope begin zipWith[0] $end
$var wire 72 '# zipWith_in1 [71:0] $end
$var wire 2 (# zipWith_in2 [1:0] $end
$var wire 74 )# \c$n [73:0] $end
$var parameter 2 *# i_2 $end
$upscope $end
$scope begin zipWith[1] $end
$var wire 72 +# zipWith_in1 [71:0] $end
$var wire 2 ,# zipWith_in2 [1:0] $end
$var wire 74 -# \c$n [73:0] $end
$var parameter 2 .# i_2 $end
$upscope $end
$scope begin zipWith_0[0] $end
$var wire 72 /# zipWith_in1_0 [71:0] $end
$var wire 2 0# zipWith_in2_0 [1:0] $end
$var wire 74 1# \c$n_0 [73:0] $end
$var parameter 2 2# i_6 $end
$upscope $end
$scope begin zipWith_0[1] $end
$var wire 72 3# zipWith_in1_0 [71:0] $end
$var wire 2 4# zipWith_in2_0 [1:0] $end
$var wire 74 5# \c$n_0 [73:0] $end
$var parameter 2 6# i_6 $end
$upscope $end
$scope begin zipWith_1[0] $end
$var wire 72 7# zipWith_in1_1 [71:0] $end
$var wire 2 8# zipWith_in2_1 [1:0] $end
$var wire 74 9# \c$n_1 [73:0] $end
$var parameter 2 :# i_9 $end
$upscope $end
$scope begin zipWith_1[1] $end
$var wire 72 ;# zipWith_in1_1 [71:0] $end
$var wire 2 <# zipWith_in2_1 [1:0] $end
$var wire 74 =# \c$n_1 [73:0] $end
$var parameter 2 ># i_9 $end
$upscope $end
$scope begin buffer_register $end
$upscope $end
$scope begin c$app_arg_7_register $end
$upscope $end
$scope begin c$app_arg_8_register $end
$upscope $end
$scope begin c$app_arg_9_register $end
$upscope $end
$scope begin c$bb_res_res_0_delay $end
$upscope $end
$scope begin c$bb_res_res_1_delay $end
$upscope $end
$scope begin c$bb_res_res_2_delay $end
$upscope $end
$scope begin c$bb_res_res_3_delay $end
$upscope $end
$scope begin c$bb_res_res_4_delay $end
$upscope $end
$scope begin c$bb_res_res_5_delay $end
$upscope $end
$scope begin c$bb_res_res_delay $end
$upscope $end
$scope begin cursor_register $end
$upscope $end
$scope begin result_15_register $end
$upscope $end
$scope begin result_21_register $end
$upscope $end
$scope begin result_4_register $end
$upscope $end
$scope begin result_6_register $end
$upscope $end
$scope begin t_0_register $end
$upscope $end
$scope begin t_register $end
$upscope $end
$upscope $end
$upscope $end
$enddefinitions $end
$comment Show the parameter values. $end
$dumpall
b1 >#
b0 :#
b1 6#
b0 2#
b1 .#
b0 *#
b1 &#
b0 %#
b1 $#
b0 ##
b1 "#
b0 !#
b1 ~"
b0 }"
b1 |"
b0 u"
b1 n"
b0 g"
b1 `"
b0 Y"
$end
#20000000
$dumpvars
b10000000000000000000000000000000000000000000000000000000000000000000x =#
b0x <#
b1000000000000000000000000000000000000000000000000000000000000000000 ;#
b10000000000000000000000000000000000000000000000000000000000000000000x 9#
b0x 8#
b1000000000000000000000000000000000000000000000000000000000000000000 7#
b10000000000000000000000000000000000000000000000000000000000000000000x 5#
b0x 4#
b1000000000000000000000000000000000000000000000000000000000000000000 3#
b10000000000000000000000000000000000000000000000000000000000000000000x 1#
b0x 0#
b1000000000000000000000000000000000000000000000000000000000000000000 /#
b10000000000000000000000000000000000000000000000000000000000000000000x -#
b0x ,#
b1000000000000000000000000000000000000000000000000000000000000000000 +#
b10000000000000000000000000000000000000000000000000000000000000000000x )#
b0x (#
b1000000000000000000000000000000000000000000000000000000000000000000 '#
b0x {"
b100 z"
b1000000000000000000000000000000000000000000000000000000000000000000 y"
b0x x"
0w"
b10000000000000000000000000000000000000000000000000000000000000000000x v"
b0x t"
b100 s"
b1000000000000000000000000000000000000000000000000000000000000000000 r"
b0x q"
1p"
b10000000000000000000000000000000000000000000000000000000000000000000x o"
b0x m"
b100 l"
b1000000000000000000000000000000000000000000000000000000000000000000 k"
b0x j"
0i"
b10000000000000000000000000000000000000000000000000000000000000000000x h"
b0x f"
b100 e"
b1000000000000000000000000000000000000000000000000000000000000000000 d"
b0x c"
1b"
b10000000000000000000000000000000000000000000000000000000000000000000x a"
b0x _"
b100 ^"
b1000000000000000000000000000000000000000000000000000000000000000000 ]"
b0x \"
0["
b10000000000000000000000000000000000000000000000000000000000000000000x Z"
b0x X"
b100 W"
b1000000000000000000000000000000000000000000000000000000000000000000 V"
b0x U"
1T"
b10000000000000000000000000000000000000000000000000000000000000000000x S"
b1 R"
b1 Q"
b11111010000 P"
b11111010000 O"
b1000000000000000000000000000000000000000000000000000000000000000000 N"
b1000000000000000000000000000000000000000000000000000000000000000000000001000000000000000000000000000000000000000000000000000000000000000000 M"
b0 L"
b0 K"
b0 J"
b0 I"
0H"
b100000001 G"
0F"
0E"
b0 D"
b0 C"
0B"
0A"
b0 @"
b11111111 ?"
b0 >"
b0 ="
b11111111 <"
b0 ;"
b1000000010000000100000001 :"
b0 9"
b0 8"
b0 7"
b0 6"
b0 5"
b0 4"
b10000000000000000000000000000000000000000000000000000000000000000 3"
b0 2"
b0 1"
00"
1/"
1."
b0 -"
0,"
1+"
0*"
x)"
b0x ("
b0x '"
b0x &"
b0 %"
b0 $"
b1 #"
b0 ""
b1111111111111111111111111111111111111111111111111111111111111111 !"
0~
b1 }
b0 |
b0x0x {
b0x0x z
b0x0x y
b10000000000000000000000000000000000000000000000000000000000000000000x0000010000000000000000000000000000000000000000000000000000000000000000000x x
b0x0x w
b10000000000000000000000000000000000000000000000000000000000000000000x0000010000000000000000000000000000000000000000000000000000000000000000000x v
b0x0x u
b10000000000000000000000000000000000000000000000000000000000000000000x0000010000000000000000000000000000000000000000000000000000000000000000000x t
b0x0x s
b10 r
b10 q
xp
xo
xn
b100000001 m
0l
0k
b0 j
b0 i
1h
0g
0f
b10000 e
b0 d
b0 c
b0 b
b0 a
b0 `
b10000 _
b10 ^
0]
b10000000000000000000000000000000000000000000000000000000001100100 \
b10 [
b1000000000000000000000000000000000000000000000000000000000000000000000001000000000000000000000000000000000000000000000000000000000000000000 Z
0Y
b11 X
b10000000000000000000000000000000000000000000000000000000000001010 W
b10 V
b0 U
b0 T
b1000000000000000000000000000000000000000000000000000000000000000000 S
0R
b100000001 Q
b10000000000000000000000000000000000000000000000000000000000000000 P
0O
b1000000000000000000000000000000000000000000000000000000000000000000000000000000000000000000000000000000000000000000000000000000000000 N
b0 M
b111110100000 L
b111110100000 K
b1 J
b10 I
b1 H
b1000000000000000000000000000000000000000000000000000000000000000000000000010000000000000000000000000000000000000000000000000000000001100100 G
b10000000000000000000000000000000000000000000000000000000000001010 F
b1000000000000000000000000000000000000000000000000000000000000000000000001000000000000000000000000000000000000000000000000000000000000000000000000010000000000000000000000000000000000000000000000000000000001100100 E
0D
0C
b0 B
b100 A
b0x0x0x @
b0x0x0x ?
b0x0x0x >
b0 =
b1010 <
b0 ;
b11111010000 :
b11111010000 9
08
07
06
b100000001 5
04
03
02
bx 1
bx 0
bx /
bx .
0-
1,
1+
b0 *
0)
b0 (
0'
0&
0%
1$
0#
0"
0!
$end
#30000000
0+
#40000000
b1011101110000 K
b1011101110000 L
b111110100000 :
b111110100000 P"
b111110100000 9
b111110100000 O"
1+
#50000000
0+
#60000000
b1111101000000 K
b1111101000000 L
b1011101110000 :
b1011101110000 P"
b1011101110000 9
b1011101110000 O"
1+
#70000000
0+
#80000000
b10011100010000 K
b10011100010000 L
b1111101000000 :
b1111101000000 P"
b1111101000000 9
b1111101000000 O"
1+
#90000000
0+
#100000000
b10111011100000 K
b10111011100000 L
b10011100010000 :
b10011100010000 P"
b10011100010000 9
b10011100010000 O"
1+
#110000000
0+
#120000000
b11011010110000 K
b11011010110000 L
b10111011100000 :
b10111011100000 P"
b10111011100000 9
b10111011100000 O"
1+
#130000000
0+
#140000000
b11111010000000 K
b11111010000000 L
b11011010110000 :
b11011010110000 P"
b11011010110000 9
b11011010110000 O"
1+
#150000000
0+
#160000000
b100011001010000 K
b100011001010000 L
b11111010000000 :
b11111010000000 P"
b11111010000000 9
b11111010000000 O"
1+
#170000000
0+
#180000000
b100111000100000 K
b100111000100000 L
b100011001010000 :
b100011001010000 P"
b100011001010000 9
b100011001010000 O"
1+
#190000000
0+
#200000000
b101010111110000 K
b101010111110000 L
b100111000100000 :
b100111000100000 P"
b100111000100000 9
b100111000100000 O"
1+
#210000000
0+
#220000000
b101110111000000 K
b101110111000000 L
b101010111110000 :
b101010111110000 P"
b101010111110000 9
b101010111110000 O"
1+
#230000000
0+
#240000000
b110010110010000 K
b110010110010000 L
b101110111000000 :
b101110111000000 P"
b101110111000000 9
b101110111000000 O"
1+
#250000000
0+
#260000000
b110110101100000 K
b110110101100000 L
b110010110010000 :
b110010110010000 P"
b110010110010000 9
b110010110010000 O"
1+
#270000000
0+
#280000000
b111010100110000 K
b111010100110000 L
b110110101100000 :
b110110101100000 P"
b110110101100000 9
b110110101100000 O"
1+
#290000000
0+
#300000000
b111110100000000 K
b111110100000000 L
b111010100110000 :
b111010100110000 P"
b111010100110000 9
b111010100110000 O"
1+
#310000000
0+
#320000000
b1000010011010000 K
b1000010011010000 L
b111110100000000 :
b111110100000000 P"
b111110100000000 9
b111110100000000 O"
1+
#330000000
0+
#340000000
b1000110010100000 K
b1000110010100000 L
b1000010011010000 :
b1000010011010000 P"
b1000010011010000 9
b1000010011010000 O"
1+
#350000000
0+
#360000000
b1001010001110000 K
b1001010001110000 L
b1000110010100000 :
b1000110010100000 P"
b1000110010100000 9
b1000110010100000 O"
1+
#370000000
0+
#380000000
b1001110001000000 K
b1001110001000000 L
b1001010001110000 :
b1001010001110000 P"
b1001010001110000 9
b1001010001110000 O"
1+
#390000000
0+
#400000000
b1010010000010000 K
b1010010000010000 L
b1001110001000000 :
b1001110001000000 P"
b1001110001000000 9
b1001110001000000 O"
1+
#410000000
0+
#420000000
b1010101111100000 K
b1010101111100000 L
b1010010000010000 :
b1010010000010000 P"
b1010010000010000 9
b1010010000010000 O"
1+
#430000000
0+
#440000000
b1011001110110000 K
b1011001110110000 L
b1010101111100000 :
b1010101111100000 P"
b1010101111100000 9
b1010101111100000 O"
1+
#450000000
0+
#460000000
b1011101110000000 K
b1011101110000000 L
b1011001110110000 :
b1011001110110000 P"
b1011001110110000 9
b1011001110110000 O"
1+
#470000000
0+
#480000000
b1100001101010000 K
b1100001101010000 L
b1011101110000000 :
b1011101110000000 P"
b1011101110000000 9
b1011101110000000 O"
1+
#490000000
0+
#500000000
b1100101100100000 K
b1100101100100000 L
b1100001101010000 :
b1100001101010000 P"
b1100001101010000 9
b1100001101010000 O"
1+
#510000000
0+
#520000000
b1101001011110000 K
b1101001011110000 L
b1100101100100000 :
b1100101100100000 P"
b1100101100100000 9
b1100101100100000 O"
1+
#530000000
0+
#540000000
b1101101011000000 K
b1101101011000000 L
b1101001011110000 :
b1101001011110000 P"
b1101001011110000 9
b1101001011110000 O"
1+
#550000000
0+
#560000000
b1110001010010000 K
b1110001010010000 L
b1101101011000000 :
b1101101011000000 P"
b1101101011000000 9
b1101101011000000 O"
1+
#570000000
0+
#580000000
b1110101001100000 K
b1110101001100000 L
b1110001010010000 :
b1110001010010000 P"
b1110001010010000 9
b1110001010010000 O"
1+
#590000000
0+
#600000000
b1111001000110000 K
b1111001000110000 L
b1110101001100000 :
b1110101001100000 P"
b1110101001100000 9
b1110101001100000 O"
1+
#610000000
0+
#620000000
b1111101000000000 K
b1111101000000000 L
b1111001000110000 :
b1111001000110000 P"
b1111001000110000 9
b1111001000110000 O"
1+
#630000000
0+
#640000000
b10000000111010000 K
b10000000111010000 L
b1111101000000000 :
b1111101000000000 P"
b1111101000000000 9
b1111101000000000 O"
1+
#650000000
0+
#660000000
b10000100110100000 K
b10000100110100000 L
b10000000111010000 :
b10000000111010000 P"
b10000000111010000 9
b10000000111010000 O"
1+
#670000000
0+
#680000000
b10001000101110000 K
b10001000101110000 L
b10000100110100000 :
b10000100110100000 P"
b10000100110100000 9
b10000100110100000 O"
1+
#690000000
0+
#700000000
b10001100101000000 K
b10001100101000000 L
b10001000101110000 :
b10001000101110000 P"
b10001000101110000 9
b10001000101110000 O"
1+
#710000000
0+
#720000000
b10010000100010000 K
b10010000100010000 L
b10001100101000000 :
b10001100101000000 P"
b10001100101000000 9
b10001100101000000 O"
1+
#730000000
0+
#740000000
b10010100011100000 K
b10010100011100000 L
b10010000100010000 :
b10010000100010000 P"
b10010000100010000 9
b10010000100010000 O"
1+
#750000000
0+
#760000000
b10011000010110000 K
b10011000010110000 L
b10010100011100000 :
b10010100011100000 P"
b10010100011100000 9
b10010100011100000 O"
1+
#770000000
0+
#780000000
b10011100010000000 K
b10011100010000000 L
b10011000010110000 :
b10011000010110000 P"
b10011000010110000 9
b10011000010110000 O"
1+
#790000000
0+
#800000000
b10100000001010000 K
b10100000001010000 L
b10011100010000000 :
b10011100010000000 P"
b10011100010000000 9
b10011100010000000 O"
1+
#810000000
0+
#820000000
b10100100000100000 K
b10100100000100000 L
b10100000001010000 :
b10100000001010000 P"
b10100000001010000 9
b10100000001010000 O"
1+
#830000000
0+
#840000000
b10100111111110000 K
b10100111111110000 L
b10100100000100000 :
b10100100000100000 P"
b10100100000100000 9
b10100100000100000 O"
1+
#850000000
0+
#860000000
b10101011111000000 K
b10101011111000000 L
b10100111111110000 :
b10100111111110000 P"
b10100111111110000 9
b10100111111110000 O"
1+
#870000000
0+
#880000000
b10101111110010000 K
b10101111110010000 L
b10101011111000000 :
b10101011111000000 P"
b10101011111000000 9
b10101011111000000 O"
1+
#890000000
0+
#900000000
b10110011101100000 K
b10110011101100000 L
b10101111110010000 :
b10101111110010000 P"
b10101111110010000 9
b10101111110010000 O"
1+
#910000000
0+
#920000000
b10110111100110000 K
b10110111100110000 L
b10110011101100000 :
b10110011101100000 P"
b10110011101100000 9
b10110011101100000 O"
1+
#930000000
0+
#940000000
b10111011100000000 K
b10111011100000000 L
b10110111100110000 :
b10110111100110000 P"
b10110111100110000 9
b10110111100110000 O"
1+
#950000000
0+
#960000000
b10111111011010000 K
b10111111011010000 L
b10111011100000000 :
b10111011100000000 P"
b10111011100000000 9
b10111011100000000 O"
1+
#970000000
0+
#980000000
b11000011010100000 K
b11000011010100000 L
b10111111011010000 :
b10111111011010000 P"
b10111111011010000 9
b10111111011010000 O"
1+
#990000000
0+
#1000000000
b11000111001110000 K
b11000111001110000 L
b11000011010100000 :
b11000011010100000 P"
b11000011010100000 9
b11000011010100000 O"
1+
#1010000000
0+
#1020000000
b11001011001000000 K
b11001011001000000 L
b11000111001110000 :
b11000111001110000 P"
b11000111001110000 9
b11000111001110000 O"
1+
#1030000000
0+
#1040000000
b11001111000010000 K
b11001111000010000 L
b11001011001000000 :
b11001011001000000 P"
b11001011001000000 9
b11001011001000000 O"
1+
#1050000000
0+
#1060000000
b11010010111100000 K
b11010010111100000 L
b11001111000010000 :
b11001111000010000 P"
b11001111000010000 9
b11001111000010000 O"
1+
#1070000000
0+
#1080000000
b11010110110110000 K
b11010110110110000 L
b11010010111100000 :
b11010010111100000 P"
b11010010111100000 9
b11010010111100000 O"
1+
#1090000000
0+
#1100000000
b11011010110000000 K
b11011010110000000 L
b11010110110110000 :
b11010110110110000 P"
b11010110110110000 9
b11010110110110000 O"
1+
#1110000000
0+
#1120000000
b11011110101010000 K
b11011110101010000 L
b11011010110000000 :
b11011010110000000 P"
b11011010110000000 9
b11011010110000000 O"
1+
#1130000000
0+
#1140000000
b11100010100100000 K
b11100010100100000 L
b11011110101010000 :
b11011110101010000 P"
b11011110101010000 9
b11011110101010000 O"
1+
#1150000000
0+
#1160000000
b11100110011110000 K
b11100110011110000 L
b11100010100100000 :
b11100010100100000 P"
b11100010100100000 9
b11100010100100000 O"
1+
#1170000000
0+
#1180000000
b11101010011000000 K
b11101010011000000 L
b11100110011110000 :
b11100110011110000 P"
b11100110011110000 9
b11100110011110000 O"
1+
#1190000000
0+
#1200000000
b11101110010010000 K
b11101110010010000 L
b11101010011000000 :
b11101010011000000 P"
b11101010011000000 9
b11101010011000000 O"
1+
#1210000000
0+
#1220000000
b11110010001100000 K
b11110010001100000 L
b11101110010010000 :
b11101110010010000 P"
b11101110010010000 9
b11101110010010000 O"
1+
#1230000000
0+
#1240000000
b11110110000110000 K
b11110110000110000 L
b11110010001100000 :
b11110010001100000 P"
b11110010001100000 9
b11110010001100000 O"
1+
#1250000000
0+
#1260000000
b11111010000000000 K
b11111010000000000 L
b11110110000110000 :
b11110110000110000 P"
b11110110000110000 9
b11110110000110000 O"
1+
#1270000000
0+
#1280000000
b11111101111010000 K
b11111101111010000 L
b11111010000000000 :
b11111010000000000 P"
b11111010000000000 9
b11111010000000000 O"
1+
#1290000000
0+
#1300000000
b100000001110100000 K
b100000001110100000 L
b11111101111010000 :
b11111101111010000 P"
b11111101111010000 9
b11111101111010000 O"
1+
#1310000000
0+
#1320000000
b100000101101110000 K
b100000101101110000 L
b100000001110100000 :
b100000001110100000 P"
b100000001110100000 9
b100000001110100000 O"
1+
#1330000000
0+
#1340000000
b100001001101000000 K
b100001001101000000 L
b100000101101110000 :
b100000101101110000 P"
b100000101101110000 9
b100000101101110000 O"
1+
#1350000000
0+
#1360000000
b100001101100010000 K
b100001101100010000 L
b100001001101000000 :
b100001001101000000 P"
b100001001101000000 9
b100001001101000000 O"
1+
#1370000000
0+
#1380000000
b100010001011100000 K
b100010001011100000 L
b100001101100010000 :
b100001101100010000 P"
b100001101100010000 9
b100001101100010000 O"
1+
#1390000000
0+
#1400000000
b100010101010110000 K
b100010101010110000 L
b100010001011100000 :
b100010001011100000 P"
b100010001011100000 9
b100010001011100000 O"
1+
#1410000000
0+
#1420000000
b100011001010000000 K
b100011001010000000 L
b100010101010110000 :
b100010101010110000 P"
b100010101010110000 9
b100010101010110000 O"
1+
#1430000000
0+
#1440000000
b100011101001010000 K
b100011101001010000 L
b100011001010000000 :
b100011001010000000 P"
b100011001010000000 9
b100011001010000000 O"
1+
#1450000000
0+
#1460000000
b100100001000100000 K
b100100001000100000 L
b100011101001010000 :
b100011101001010000 P"
b100011101001010000 9
b100011101001010000 O"
1+
#1470000000
0+
#1480000000
b100100100111110000 K
b100100100111110000 L
b100100001000100000 :
b100100001000100000 P"
b100100001000100000 9
b100100001000100000 O"
1+
#1490000000
0+
#1500000000
b100101000111000000 K
b100101000111000000 L
b100100100111110000 :
b100100100111110000 P"
b100100100111110000 9
b100100100111110000 O"
1+
#1510000000
0+
#1520000000
b100101100110010000 K
b100101100110010000 L
b100101000111000000 :
b100101000111000000 P"
b100101000111000000 9
b100101000111000000 O"
1+
#1530000000
0+
#1540000000
b100110000101100000 K
b100110000101100000 L
b100101100110010000 :
b100101100110010000 P"
b100101100110010000 9
b100101100110010000 O"
1+
#1550000000
0+
#1560000000
b100110100100110000 K
b100110100100110000 L
b100110000101100000 :
b100110000101100000 P"
b100110000101100000 9
b100110000101100000 O"
1+
#1570000000
0+
#1580000000
b100111000100000000 K
b100111000100000000 L
b100110100100110000 :
b100110100100110000 P"
b100110100100110000 9
b100110100100110000 O"
1+
#1590000000
0+
#1600000000
b100111100011010000 K
b100111100011010000 L
b100111000100000000 :
b100111000100000000 P"
b100111000100000000 9
b100111000100000000 O"
1+
#1610000000
0+
#1620000000
b101000000010100000 K
b101000000010100000 L
b100111100011010000 :
b100111100011010000 P"
b100111100011010000 9
b100111100011010000 O"
1+
#1630000000
0+
#1640000000
b101000100001110000 K
b101000100001110000 L
b101000000010100000 :
b101000000010100000 P"
b101000000010100000 9
b101000000010100000 O"
1+
#1650000000
0+
#1660000000
b101001000001000000 K
b101001000001000000 L
b101000100001110000 :
b101000100001110000 P"
b101000100001110000 9
b101000100001110000 O"
1+
#1670000000
0+
#1680000000
b101001100000010000 K
b101001100000010000 L
b101001000001000000 :
b101001000001000000 P"
b101001000001000000 9
b101001000001000000 O"
1+
#1690000000
0+
#1700000000
b101001111111100000 K
b101001111111100000 L
b101001100000010000 :
b101001100000010000 P"
b101001100000010000 9
b101001100000010000 O"
1+
