src/end_to_end_tests/tests/only_output_streams/generated/dump.vcd
$date
	Sun Jun  1 19:34:59 2025
$end
$version
	Icarus Verilog
$end
$timescale
	100fs
$end
$scope module testbench $end
$var wire 1 ! q_push_valid $end
$var wire 1 " q_push $end
$var wire 1 # q_pop_valid $end
$var wire 1 $ q_pop $end
$var wire 1 % output_1_aktv $end
$var wire 64 & output_1 [63:0] $end
$var wire 1 ' output_0_aktv $end
$var wire 64 ( output_0 [63:0] $end
$var wire 1 ) enable_out1 $end
$var wire 1 * enable_out0 $end
$var reg 1 + clk $end
$var reg 1 , en $end
$var reg 1 - rst $end
$scope module monitor $end
$var wire 1 . b $end
$var wire 1 / b_0 $end
$var wire 2 0 \c$case_alt_4 [1:0] $end
$var wire 72 1 \c$case_scrut [71:0] $end
$var wire 72 2 \c$case_scrut_1 [71:0] $end
$var wire 72 3 \c$case_scrut_3 [71:0] $end
$var wire 1 + clk $end
$var wire 1 , en $end
$var wire 1 4 iterateI_ho1_0_arg0 $end
$var wire 1 5 iterateI_ho1_0_arg0_1 $end
$var wire 1 6 iterateI_ho1_0_res $end
$var wire 16 7 iterateI_ho1_0_res_0 [15:0] $end
$var wire 1 8 iterateI_ho1_0_res_1 $end
$var wire 1 9 iterateI_ho1_0_res_2 $end
$var wire 1 : iterateI_ho1_0_res_3 $end
$var wire 1 ; iterateI_ho1_1_res $end
$var wire 1 < iterateI_ho1_1_res_0 $end
$var wire 1 - rst $end
$var wire 64 = x [63:0] $end
$var wire 64 > x_0 [63:0] $end
$var wire 64 ? x_1 [63:0] $end
$var wire 64 @ x_2 [63:0] $end
$var wire 64 A y [63:0] $end
$var wire 6 B ws_1 [5:0] $end
$var wire 6 C ws_0 [5:0] $end
$var wire 6 D ws [5:0] $end
$var wire 8 E winTag [7:0] $end
$var wire 64 F winData [63:0] $end
$var wire 1 G timer1Over $end
$var wire 1 H timer0Over $end
$var wire 216 I t_projection_2 [215:0] $end
$var wire 144 J t_0 [143:0] $end
$var wire 72 K t [71:0] $end
$var wire 1 L result_9 $end
$var wire 64 M result_8 [63:0] $end
$var wire 133 N result_7 [132:0] $end
$var wire 64 O result_5 [63:0] $end
$var wire 64 P result_3 [63:0] $end
$var wire 4 Q result_27 [3:0] $end
$var wire 8 R result_26 [7:0] $end
$var wire 8 S result_25 [7:0] $end
$var wire 1 T result_24 $end
$var wire 8 U result_23 [7:0] $end
$var wire 8 V result_22 [7:0] $end
$var wire 1 W result_21 $end
$var wire 3 X result_2 [2:0] $end
$var wire 2 Y result_1_4_6 [1:0] $end
$var wire 1 ) result_1_4_1 $end
$var wire 1 * result_1_4_0 $end
$var wire 1 # result_1_3 $end
$var wire 1 ! result_1_2 $end
$var wire 1 $ result_1_1 $end
$var wire 1 " result_1_0 $end
$var wire 144 Z result_19 [143:0] $end
$var wire 8 [ result_18 [7:0] $end
$var wire 64 \ result_17 [63:0] $end
$var wire 8 ] result_16 [7:0] $end
$var wire 8 ^ result_15 [7:0] $end
$var wire 64 _ result_14 [63:0] $end
$var wire 72 ` result_12 [71:0] $end
$var wire 1 a result_11 $end
$var wire 16 b result_10 [15:0] $end
$var wire 6 c result_1 [5:0] $end
$var wire 1 % result_0_1_1 $end
$var wire 64 d result_0_1_0 [63:0] $end
$var wire 65 e result_0_1 [64:0] $end
$var wire 1 ' result_0_0_1 $end
$var wire 64 f result_0_0_0 [63:0] $end
$var wire 65 g result_0_0 [64:0] $end
$var wire 130 h result_0 [129:0] $end
$var wire 136 i result [135:0] $end
$var wire 1 j qPush $end
$var wire 1 k qPopValid $end
$var wire 1 l qPop $end
$var wire 2 m qData [1:0] $end
$var wire 2 n pacings [1:0] $end
$var wire 1 o pOut1 $end
$var wire 1 p pOut0 $end
$var wire 16 q iterateI_ho1_0_arg0_0 [15:0] $end
$var wire 1 r i_1 $end
$var wire 1 s i_0 $end
$var wire 1 t i $end
$var wire 8 u f1_0 [7:0] $end
$var wire 8 v f1 [7:0] $end
$var wire 4 w \c$ws_app_arg_4 [3:0] $end
$var wire 148 x \c$ws_app_arg_3 [147:0] $end
$var wire 4 y \c$ws_app_arg_2 [3:0] $end
$var wire 148 z \c$ws_app_arg_1 [147:0] $end
$var wire 4 { \c$ws_app_arg_0 [3:0] $end
$var wire 148 | \c$ws_app_arg [147:0] $end
$var wire 4 } \c$vec2_1 [3:0] $end
$var wire 4 ~ \c$vec2_0 [3:0] $end
$var wire 4 !" \c$vec2 [3:0] $end
$var wire 64 "" \c$tte_rhs_0 [63:0] $end
$var wire 64 #" \c$tte_rhs [63:0] $end
$var wire 64 $" \c$out0_case_alt [63:0] $end
$var wire 1 %" \c$cursor_case_scrut $end
$var wire 64 &" \c$cursor_case_alt_4 [63:0] $end
$var wire 64 '" \c$cursor_case_alt_2 [63:0] $end
$var wire 64 (" \c$cursor_case_alt_1 [63:0] $end
$var wire 64 )" \c$cursor_case_alt_0 [63:0] $end
$var wire 64 *" \c$cursor_case_alt [63:0] $end
$var wire 2 +" \c$case_scrut_4 [1:0] $end
$var wire 2 ," \c$case_scrut_2 [1:0] $end
$var wire 2 -" \c$case_scrut_0 [1:0] $end
$var wire 1 ." \c$case_alt_8 $end
$var wire 1 /" \c$case_alt_7 $end
$var wire 1 0" \c$case_alt_6 $end
$var wire 1 1" \c$case_alt_5 $end
$var wire 1 2" \c$case_alt_12 $end
$var wire 1 3" \c$case_alt_11 $end
$var wire 1 4" \c$case_alt_10 $end
$var wire 2 5" \c$case_alt_1 [1:0] $end
$var wire 2 6" \c$case_alt_0 [1:0] $end
$var wire 2 7" \c$case_alt [1:0] $end
$var wire 6 8" \c$buffer_case_alt_sel_alt_t_1 [5:0] $end
$var wire 6 9" \c$buffer_case_alt_sel_alt_f_2 [5:0] $end
$var wire 4 :" \c$buffer_case_alt_1 [3:0] $end
$var wire 4 ;" \c$buffer_case_alt_0 [3:0] $end
$var wire 4 <" \c$buffer_case_alt [3:0] $end
$var wire 2 =" \c$app_arg_6 [1:0] $end
$var wire 2 >" \c$app_arg_5 [1:0] $end
$var wire 8 ?" \c$app_arg_4 [7:0] $end
$var wire 8 @" \c$app_arg_3 [7:0] $end
$var wire 8 A" \c$app_arg_2 [7:0] $end
$var wire 3 B" \c$app_arg_1 [2:0] $end
$var wire 32 C" \c$app_arg_0 [31:0] $end
$var wire 3 D" \c$app_arg [2:0] $end
$var wire 1 E" b_2 $end
$var wire 1 F" b_1 $end
$var reg 4 G" buffer [3:0] $end
$var reg 2 H" \c$app_arg_7 [1:0] $end
$var reg 1 I" \c$app_arg_8 $end
$var reg 1 J" \c$app_arg_9 $end
$var reg 1 6 \c$bb_res_res $end
$var reg 1 ; \c$bb_res_res_0 $end
$var reg 16 K" \c$bb_res_res_1 [15:0] $end
$var reg 1 8 \c$bb_res_res_2 $end
$var reg 1 < \c$bb_res_res_3 $end
$var reg 1 9 \c$bb_res_res_4 $end
$var reg 1 : \c$bb_res_res_5 $end
$var reg 2 L" \c$case_alt_2 [1:0] $end
$var reg 2 M" \c$case_alt_3 [1:0] $end
$var reg 1 N" \c$case_alt_9 $end
$var reg 64 O" \c$cursor_case_alt_3 [63:0] $end
$var reg 64 P" cursor [63:0] $end
$var reg 72 Q" result_13 [71:0] $end
$var reg 144 R" result_20 [143:0] $end
$var reg 64 S" result_4 [63:0] $end
$var reg 64 T" result_6 [63:0] $end
$var reg 8 U" t_1 [7:0] $end
$var reg 8 V" t_2 [7:0] $end
$scope begin imap[0] $end
$var wire 74 W" map_in [73:0] $end
$var wire 1 X" map_index $end
$var wire 2 Y" map_out [1:0] $end
$var wire 72 Z" x_4 [71:0] $end
$var wire 8 [" t_3 [7:0] $end
$var wire 2 \" \c$case_alt_13 [1:0] $end
$var parameter 2 ]" i_3 $end
$upscope $end
$scope begin imap[1] $end
$var wire 74 ^" map_in [73:0] $end
$var wire 1 _" map_index $end
$var wire 2 `" map_out [1:0] $end
$var wire 72 a" x_4 [71:0] $end
$var wire 8 b" t_3 [7:0] $end
$var wire 2 c" \c$case_alt_13 [1:0] $end
$var parameter 2 d" i_3 $end
$upscope $end
$scope begin imap_0[0] $end
$var wire 74 e" map_in_0 [73:0] $end
$var wire 1 f" map_index_0 $end
$var wire 2 g" map_out_0 [1:0] $end
$var wire 72 h" x_5 [71:0] $end
$var wire 8 i" t_5 [7:0] $end
$var wire 2 j" \c$case_alt_14 [1:0] $end
$var parameter 2 k" i_7 $end
$upscope $end
$scope begin imap_0[1] $end
$var wire 74 l" map_in_0 [73:0] $end
$var wire 1 m" map_index_0 $end
$var wire 2 n" map_out_0 [1:0] $end
$var wire 72 o" x_5 [71:0] $end
$var wire 8 p" t_5 [7:0] $end
$var wire 2 q" \c$case_alt_14 [1:0] $end
$var parameter 2 r" i_7 $end
$upscope $end
$scope begin imap_1[0] $end
$var wire 74 s" map_in_1 [73:0] $end
$var wire 1 t" map_index_1 $end
$var wire 2 u" map_out_1 [1:0] $end
$var wire 72 v" x_6 [71:0] $end
$var wire 8 w" t_6 [7:0] $end
$var wire 2 x" \c$case_alt_15 [1:0] $end
$var parameter 2 y" i_10 $end
$upscope $end
$scope begin imap_1[1] $end
$var wire 74 z" map_in_1 [73:0] $end
$var wire 1 {" map_index_1 $end
$var wire 2 |" map_out_1 [1:0] $end
$var wire 72 }" x_6 [71:0] $end
$var wire 8 ~" t_6 [7:0] $end
$var wire 2 !# \c$case_alt_15 [1:0] $end
$var parameter 2 "# i_10 $end
$upscope $end
$scope begin mk_array[0] $end
$var parameter 2 ## i_4 $end
$upscope $end
$scope begin mk_array[1] $end
$var parameter 2 $# i_4 $end
$upscope $end
$scope begin mk_array_0[0] $end
$var parameter 2 %# i_8 $end
$upscope $end
$scope begin mk_array_0[1] $end
$var parameter 2 &# i_8 $end
$upscope $end
$scope begin mk_array_1[0] $end
$var parameter 2 '# i_11 $end
$upscope $end
$scope begin mk_array_1[1] $end
$var parameter 2 (# i_11 $end
$upscope $end
$scope begin mk_array_2[0] $end
$var parameter 2 )# i_12 $end
$upscope $end
$scope begin mk_array_2[1] $end
$var parameter 2 *# i_12 $end
$upscope $end
$scope begin zipWith[0] $end
$var wire 72 +# zipWith_in1 [71:0] $end
$var wire 2 ,# zipWith_in2 [1:0] $end
$var wire 74 -# \c$n [73:0] $end
$var parameter 2 .# i_2 $end
$upscope $end
$scope begin zipWith[1] $end
$var wire 72 /# zipWith_in1 [71:0] $end
$var wire 2 0# zipWith_in2 [1:0] $end
$var wire 74 1# \c$n [73:0] $end
$var parameter 2 2# i_2 $end
$upscope $end
$scope begin zipWith_0[0] $end
$var wire 72 3# zipWith_in1_0 [71:0] $end
$var wire 2 4# zipWith_in2_0 [1:0] $end
$var wire 74 5# \c$n_0 [73:0] $end
$var parameter 2 6# i_6 $end
$upscope $end
$scope begin zipWith_0[1] $end
$var wire 72 7# zipWith_in1_0 [71:0] $end
$var wire 2 8# zipWith_in2_0 [1:0] $end
$var wire 74 9# \c$n_0 [73:0] $end
$var parameter 2 :# i_6 $end
$upscope $end
$scope begin zipWith_1[0] $end
$var wire 72 ;# zipWith_in1_1 [71:0] $end
$var wire 2 <# zipWith_in2_1 [1:0] $end
$var wire 74 =# \c$n_1 [73:0] $end
$var parameter 2 ># i_9 $end
$upscope $end
$scope begin zipWith_1[1] $end
$var wire 72 ?# zipWith_in1_1 [71:0] $end
$var wire 2 @# zipWith_in2_1 [1:0] $end
$var wire 74 A# \c$n_1 [73:0] $end
$var parameter 2 B# i_9 $end
$upscope $end
$scope begin buffer_register $end
$upscope $end
$scope begin c$app_arg_7_register $end
$upscope $end
$scope begin c$app_arg_8_register $end
$upscope $end
$scope begin c$app_arg_9_register $end
$upscope $end
$scope begin c$bb_res_res_0_delay $end
$upscope $end
$scope begin c$bb_res_res_1_delay $end
$upscope $end
$scope begin c$bb_res_res_2_delay $end
$upscope $end
$scope begin c$bb_res_res_3_delay $end
$upscope $end
$scope begin c$bb_res_res_4_delay $end
$upscope $end
$scope begin c$bb_res_res_5_delay $end
$upscope $end
$scope begin c$bb_res_res_delay $end
$upscope $end
$scope begin cursor_register $end
$upscope $end
$scope begin result_13_register $end
$upscope $end
$scope begin result_20_register $end
$upscope $end
$scope begin result_4_register $end
$upscope $end
$scope begin result_6_register $end
$upscope $end
$scope begin t_1_register $end
$upscope $end
$scope begin t_2_register $end
$upscope $end
$upscope $end
$upscope $end
$enddefinitions $end
$comment Show the parameter values. $end
$dumpall
b1 B#
b0 >#
b1 :#
b0 6#
b1 2#
b0 .#
b1 *#
b0 )#
b1 (#
b0 '#
b1 &#
b0 %#
b1 $#
b0 ##
b1 "#
b0 y"
b1 r"
b0 k"
b1 d"
b0 ]"
$end
#20000000
$dumpvars
b10000000000000000000000000000000000000000000000000000000000000000000x A#
b0x @#
b1000000000000000000000000000000000000000000000000000000000000000000 ?#
b10000000000000000000000000000000000000000000000000000000000000000000x =#
b0x <#
b1000000000000000000000000000000000000000000000000000000000000000000 ;#
b10000000000000000000000000000000000000000000000000000000000000000000x 9#
b0x 8#
b1000000000000000000000000000000000000000000000000000000000000000000 7#
b10000000000000000000000000000000000000000000000000000000000000000000x 5#
b0x 4#
b1000000000000000000000000000000000000000000000000000000000000000000 3#
b10000000000000000000000000000000000000000000000000000000000000000000x 1#
b0x 0#
b1000000000000000000000000000000000000000000000000000000000000000000 /#
b10000000000000000000000000000000000000000000000000000000000000000000x -#
b0x ,#
b1000000000000000000000000000000000000000000000000000000000000000000 +#
b0x !#
b100 ~"
b1000000000000000000000000000000000000000000000000000000000000000000 }"
b0x |"
0{"
b10000000000000000000000000000000000000000000000000000000000000000000x z"
b0x x"
b100 w"
b1000000000000000000000000000000000000000000000000000000000000000000 v"
b0x u"
1t"
b10000000000000000000000000000000000000000000000000000000000000000000x s"
b0x q"
b100 p"
b1000000000000000000000000000000000000000000000000000000000000000000 o"
b0x n"
0m"
b10000000000000000000000000000000000000000000000000000000000000000000x l"
b0x j"
b100 i"
b1000000000000000000000000000000000000000000000000000000000000000000 h"
b0x g"
1f"
b10000000000000000000000000000000000000000000000000000000000000000000x e"
b0x c"
b100 b"
b1000000000000000000000000000000000000000000000000000000000000000000 a"
b0x `"
0_"
b10000000000000000000000000000000000000000000000000000000000000000000x ^"
b0x \"
b100 ["
b1000000000000000000000000000000000000000000000000000000000000000000 Z"
b0x Y"
1X"
b10000000000000000000000000000000000000000000000000000000000000000000x W"
b1 V"
b1 U"
b11111010000 T"
b11111010000 S"
b1000000000000000000000000000000000000000000000000000000000000000000000001000000000000000000000000000000000000000000000000000000000000000000 R"
b1000000000000000000000000000000000000000000000000000000000000000000 Q"
b0 P"
b0 O"
0N"
b0 M"
b0 L"
b100000001 K"
0J"
0I"
b0 H"
b0 G"
0F"
0E"
b0 D"
b1000000010000000100000001 C"
b0 B"
b11111111 A"
b0 @"
b11111111 ?"
b0 >"
b0 ="
b0 <"
b0 ;"
b0 :"
b0 9"
b0 8"
b0 7"
b0 6"
b0 5"
04"
13"
12"
01"
10"
0/"
x."
b0x -"
b0x ,"
b0x +"
b0 *"
b0 )"
b1 ("
b0 '"
b1111111111111111111111111111111111111111111111111111111111111111 &"
0%"
b0 $"
b1 #"
b0 ""
b0x0x !"
b0x0x ~
b0x0x }
b10000000000000000000000000000000000000000000000000000000000000000000x0000010000000000000000000000000000000000000000000000000000000000000000000x |
b0x0x {
b10000000000000000000000000000000000000000000000000000000000000000000x0000010000000000000000000000000000000000000000000000000000000000000000000x z
b0x0x y
b10000000000000000000000000000000000000000000000000000000000000000000x0000010000000000000000000000000000000000000000000000000000000000000000000x x
b0x0x w
b10 v
b10 u
xt
xs
xr
b100000001 q
0p
0o
b0 n
b0 m
1l
0k
0j
b10000 i
b0 h
b0 g
b0 f
b0 e
b0 d
b10000 c
b100000001 b
0a
b1000000000000000000000000000000000000000000000000000000000000000000 `
b1010 _
b10 ^
b11 ]
b1100100 \
b10 [
b1000000000000000000000000000000000000000000000000000000000000000000000001000000000000000000000000000000000000000000000000000000000000000000 Z
b0 Y
b0 X
0W
b1 V
b10 U
0T
b1 S
b10 R
b0 Q
b111110100000 P
b111110100000 O
b1000000000000000000000000000000000000000000000000000000000000000000000000000000000000000000000000000000000000000000000000000000000000 N
b0 M
0L
b10000000000000000000000000000000000000000000000000000000000001010 K
b1000000000000000000000000000000000000000000000000000000000000000000000000010000000000000000000000000000000000000000000000000000000001100100 J
b1000000000000000000000000000000000000000000000000000000000000000000000001000000000000000000000000000000000000000000000000000000000000000000000000010000000000000000000000000000000000000000000000000000000001100100 I
0H
0G
b0 F
b100 E
b0x0x0x D
b0x0x0x C
b0x0x0x B
b1010 A
b0 @
b0 ?
b11111010000 >
b11111010000 =
0<
0;
0:
09
08
b100000001 7
06
05
04
bx 3
bx 2
bx 1
bx 0
0/
0.
0-
1,
1+
0*
0)
b0 (
0'
b0 &
0%
1$
0#
0"
0!
$end
#30000000
0+
#40000000
b1011101110000 O
b1011101110000 P
b111110100000 >
b111110100000 T"
b111110100000 =
b111110100000 S"
1+
#50000000
0+
#60000000
b1111101000000 O
b1111101000000 P
b1011101110000 >
b1011101110000 T"
b1011101110000 =
b1011101110000 S"
1+
#70000000
0+
#80000000
b10011100010000 O
b10011100010000 P
b1111101000000 >
b1111101000000 T"
b1111101000000 =
b1111101000000 S"
1+
#90000000
0+
#100000000
b10111011100000 O
b10111011100000 P
b10011100010000 >
b10011100010000 T"
b10011100010000 =
b10011100010000 S"
1+
#110000000
0+
#120000000
b11011010110000 O
b11011010110000 P
b10111011100000 >
b10111011100000 T"
b10111011100000 =
b10111011100000 S"
1+
#130000000
0+
#140000000
b11111010000000 O
b11111010000000 P
b11011010110000 >
b11011010110000 T"
b11011010110000 =
b11011010110000 S"
1+
#150000000
0+
#160000000
b100011001010000 O
b100011001010000 P
b11111010000000 >
b11111010000000 T"
b11111010000000 =
b11111010000000 S"
1+
#170000000
0+
#180000000
b100111000100000 O
b100111000100000 P
b100011001010000 >
b100011001010000 T"
b100011001010000 =
b100011001010000 S"
1+
#190000000
0+
#200000000
b101010111110000 O
b101010111110000 P
b100111000100000 >
b100111000100000 T"
b100111000100000 =
b100111000100000 S"
1+
#210000000
0+
#220000000
b101110111000000 O
b101110111000000 P
b101010111110000 >
b101010111110000 T"
b101010111110000 =
b101010111110000 S"
1+
#230000000
0+
#240000000
b110010110010000 O
b110010110010000 P
b101110111000000 >
b101110111000000 T"
b101110111000000 =
b101110111000000 S"
1+
#250000000
0+
#260000000
b110110101100000 O
b110110101100000 P
b110010110010000 >
b110010110010000 T"
b110010110010000 =
b110010110010000 S"
1+
#270000000
0+
#280000000
b111010100110000 O
b111010100110000 P
b110110101100000 >
b110110101100000 T"
b110110101100000 =
b110110101100000 S"
1+
#290000000
0+
#300000000
b111110100000000 O
b111110100000000 P
b111010100110000 >
b111010100110000 T"
b111010100110000 =
b111010100110000 S"
1+
#310000000
0+
#320000000
b1000010011010000 O
b1000010011010000 P
b111110100000000 >
b111110100000000 T"
b111110100000000 =
b111110100000000 S"
1+
#330000000
0+
#340000000
b1000110010100000 O
b1000110010100000 P
b1000010011010000 >
b1000010011010000 T"
b1000010011010000 =
b1000010011010000 S"
1+
#350000000
0+
#360000000
b1001010001110000 O
b1001010001110000 P
b1000110010100000 >
b1000110010100000 T"
b1000110010100000 =
b1000110010100000 S"
1+
#370000000
0+
#380000000
b1001110001000000 O
b1001110001000000 P
b1001010001110000 >
b1001010001110000 T"
b1001010001110000 =
b1001010001110000 S"
1+
#390000000
0+
#400000000
b1010010000010000 O
b1010010000010000 P
b1001110001000000 >
b1001110001000000 T"
b1001110001000000 =
b1001110001000000 S"
1+
#410000000
0+
#420000000
b1010101111100000 O
b1010101111100000 P
b1010010000010000 >
b1010010000010000 T"
b1010010000010000 =
b1010010000010000 S"
1+
#430000000
0+
#440000000
b1011001110110000 O
b1011001110110000 P
b1010101111100000 >
b1010101111100000 T"
b1010101111100000 =
b1010101111100000 S"
1+
#450000000
0+
#460000000
b1011101110000000 O
b1011101110000000 P
b1011001110110000 >
b1011001110110000 T"
b1011001110110000 =
b1011001110110000 S"
1+
#470000000
0+
#480000000
b1100001101010000 O
b1100001101010000 P
b1011101110000000 >
b1011101110000000 T"
b1011101110000000 =
b1011101110000000 S"
1+
#490000000
0+
#500000000
b1100101100100000 O
b1100101100100000 P
b1100001101010000 >
b1100001101010000 T"
b1100001101010000 =
b1100001101010000 S"
1+
#510000000
0+
#520000000
b1101001011110000 O
b1101001011110000 P
b1100101100100000 >
b1100101100100000 T"
b1100101100100000 =
b1100101100100000 S"
1+
#530000000
0+
#540000000
b1101101011000000 O
b1101101011000000 P
b1101001011110000 >
b1101001011110000 T"
b1101001011110000 =
b1101001011110000 S"
1+
#550000000
0+
#560000000
b1110001010010000 O
b1110001010010000 P
b1101101011000000 >
b1101101011000000 T"
b1101101011000000 =
b1101101011000000 S"
1+
#570000000
0+
#580000000
b1110101001100000 O
b1110101001100000 P
b1110001010010000 >
b1110001010010000 T"
b1110001010010000 =
b1110001010010000 S"
1+
#590000000
0+
#600000000
b1111001000110000 O
b1111001000110000 P
b1110101001100000 >
b1110101001100000 T"
b1110101001100000 =
b1110101001100000 S"
1+
#610000000
0+
#620000000
b1111101000000000 O
b1111101000000000 P
b1111001000110000 >
b1111001000110000 T"
b1111001000110000 =
b1111001000110000 S"
1+
#630000000
0+
#640000000
b10000000111010000 O
b10000000111010000 P
b1111101000000000 >
b1111101000000000 T"
b1111101000000000 =
b1111101000000000 S"
1+
#650000000
0+
#660000000
b10000100110100000 O
b10000100110100000 P
b10000000111010000 >
b10000000111010000 T"
b10000000111010000 =
b10000000111010000 S"
1+
#670000000
0+
#680000000
b10001000101110000 O
b10001000101110000 P
b10000100110100000 >
b10000100110100000 T"
b10000100110100000 =
b10000100110100000 S"
1+
#690000000
0+
#700000000
b10001100101000000 O
b10001100101000000 P
b10001000101110000 >
b10001000101110000 T"
b10001000101110000 =
b10001000101110000 S"
1+
#710000000
0+
#720000000
b10010000100010000 O
b10010000100010000 P
b10001100101000000 >
b10001100101000000 T"
b10001100101000000 =
b10001100101000000 S"
1+
#730000000
0+
#740000000
b10010100011100000 O
b10010100011100000 P
b10010000100010000 >
b10010000100010000 T"
b10010000100010000 =
b10010000100010000 S"
1+
#750000000
0+
#760000000
b10011000010110000 O
b10011000010110000 P
b10010100011100000 >
b10010100011100000 T"
b10010100011100000 =
b10010100011100000 S"
1+
#770000000
0+
#780000000
b10011100010000000 O
b10011100010000000 P
b10011000010110000 >
b10011000010110000 T"
b10011000010110000 =
b10011000010110000 S"
1+
#790000000
0+
#800000000
b10100000001010000 O
b10100000001010000 P
b10011100010000000 >
b10011100010000000 T"
b10011100010000000 =
b10011100010000000 S"
1+
#810000000
0+
#820000000
b10100100000100000 O
b10100100000100000 P
b10100000001010000 >
b10100000001010000 T"
b10100000001010000 =
b10100000001010000 S"
1+
#830000000
0+
#840000000
b10100111111110000 O
b10100111111110000 P
b10100100000100000 >
b10100100000100000 T"
b10100100000100000 =
b10100100000100000 S"
1+
#850000000
0+
#860000000
b10101011111000000 O
b10101011111000000 P
b10100111111110000 >
b10100111111110000 T"
b10100111111110000 =
b10100111111110000 S"
1+
#870000000
0+
#880000000
b10101111110010000 O
b10101111110010000 P
b10101011111000000 >
b10101011111000000 T"
b10101011111000000 =
b10101011111000000 S"
1+
#890000000
0+
#900000000
b10110011101100000 O
b10110011101100000 P
b10101111110010000 >
b10101111110010000 T"
b10101111110010000 =
b10101111110010000 S"
1+
#910000000
0+
#920000000
b10110111100110000 O
b10110111100110000 P
b10110011101100000 >
b10110011101100000 T"
b10110011101100000 =
b10110011101100000 S"
1+
#930000000
0+
#940000000
b10111011100000000 O
b10111011100000000 P
b10110111100110000 >
b10110111100110000 T"
b10110111100110000 =
b10110111100110000 S"
1+
#950000000
0+
#960000000
b10111111011010000 O
b10111111011010000 P
b10111011100000000 >
b10111011100000000 T"
b10111011100000000 =
b10111011100000000 S"
1+
#970000000
0+
#980000000
b11000011010100000 O
b11000011010100000 P
b10111111011010000 >
b10111111011010000 T"
b10111111011010000 =
b10111111011010000 S"
1+
#990000000
0+
#1000000000
b11000111001110000 O
b11000111001110000 P
b11000011010100000 >
b11000011010100000 T"
b11000011010100000 =
b11000011010100000 S"
1+
#1010000000
0+
#1020000000
b11001011001000000 O
b11001011001000000 P
b11000111001110000 >
b11000111001110000 T"
b11000111001110000 =
b11000111001110000 S"
1+
#1030000000
0+
#1040000000
b11001111000010000 O
b11001111000010000 P
b11001011001000000 >
b11001011001000000 T"
b11001011001000000 =
b11001011001000000 S"
1+
#1050000000
0+
#1060000000
b11010010111100000 O
b11010010111100000 P
b11001111000010000 >
b11001111000010000 T"
b11001111000010000 =
b11001111000010000 S"
1+
#1070000000
0+
#1080000000
b11010110110110000 O
b11010110110110000 P
b11010010111100000 >
b11010010111100000 T"
b11010010111100000 =
b11010010111100000 S"
1+
#1090000000
0+
#1100000000
b11011010110000000 O
b11011010110000000 P
b11010110110110000 >
b11010110110110000 T"
b11010110110110000 =
b11010110110110000 S"
1+
#1110000000
0+
#1120000000
b11011110101010000 O
b11011110101010000 P
b11011010110000000 >
b11011010110000000 T"
b11011010110000000 =
b11011010110000000 S"
1+
#1130000000
0+
#1140000000
b11100010100100000 O
b11100010100100000 P
b11011110101010000 >
b11011110101010000 T"
b11011110101010000 =
b11011110101010000 S"
1+
#1150000000
0+
#1160000000
b11100110011110000 O
b11100110011110000 P
b11100010100100000 >
b11100010100100000 T"
b11100010100100000 =
b11100010100100000 S"
1+
#1170000000
0+
#1180000000
b11101010011000000 O
b11101010011000000 P
b11100110011110000 >
b11100110011110000 T"
b11100110011110000 =
b11100110011110000 S"
1+
#1190000000
0+
#1200000000
b11101110010010000 O
b11101110010010000 P
b11101010011000000 >
b11101010011000000 T"
b11101010011000000 =
b11101010011000000 S"
1+
#1210000000
0+
#1220000000
b11110010001100000 O
b11110010001100000 P
b11101110010010000 >
b11101110010010000 T"
b11101110010010000 =
b11101110010010000 S"
1+
#1230000000
0+
#1240000000
b11110110000110000 O
b11110110000110000 P
b11110010001100000 >
b11110010001100000 T"
b11110010001100000 =
b11110010001100000 S"
1+
#1250000000
0+
#1260000000
b11111010000000000 O
b11111010000000000 P
b11110110000110000 >
b11110110000110000 T"
b11110110000110000 =
b11110110000110000 S"
1+
#1270000000
0+
#1280000000
b11111101111010000 O
b11111101111010000 P
b11111010000000000 >
b11111010000000000 T"
b11111010000000000 =
b11111010000000000 S"
1+
#1290000000
0+
#1300000000
b100000001110100000 O
b100000001110100000 P
b11111101111010000 >
b11111101111010000 T"
b11111101111010000 =
b11111101111010000 S"
1+
#1310000000
0+
#1320000000
b100000101101110000 O
b100000101101110000 P
b100000001110100000 >
b100000001110100000 T"
b100000001110100000 =
b100000001110100000 S"
1+
#1330000000
0+
#1340000000
b100001001101000000 O
b100001001101000000 P
b100000101101110000 >
b100000101101110000 T"
b100000101101110000 =
b100000101101110000 S"
1+
#1350000000
0+
#1360000000
b100001101100010000 O
b100001101100010000 P
b100001001101000000 >
b100001001101000000 T"
b100001001101000000 =
b100001001101000000 S"
1+
#1370000000
0+
#1380000000
b100010001011100000 O
b100010001011100000 P
b100001101100010000 >
b100001101100010000 T"
b100001101100010000 =
b100001101100010000 S"
1+
#1390000000
0+
#1400000000
b100010101010110000 O
b100010101010110000 P
b100010001011100000 >
b100010001011100000 T"
b100010001011100000 =
b100010001011100000 S"
1+
#1410000000
0+
#1420000000
b100011001010000000 O
b100011001010000000 P
b100010101010110000 >
b100010101010110000 T"
b100010101010110000 =
b100010101010110000 S"
1+
#1430000000
0+
#1440000000
b100011101001010000 O
b100011101001010000 P
b100011001010000000 >
b100011001010000000 T"
b100011001010000000 =
b100011001010000000 S"
1+
#1450000000
0+
#1460000000
b100100001000100000 O
b100100001000100000 P
b100011101001010000 >
b100011101001010000 T"
b100011101001010000 =
b100011101001010000 S"
1+
#1470000000
0+
#1480000000
b100100100111110000 O
b100100100111110000 P
b100100001000100000 >
b100100001000100000 T"
b100100001000100000 =
b100100001000100000 S"
1+
#1490000000
0+
#1500000000
b100101000111000000 O
b100101000111000000 P
b100100100111110000 >
b100100100111110000 T"
b100100100111110000 =
b100100100111110000 S"
1+
#1510000000
0+
#1520000000
b100101100110010000 O
b100101100110010000 P
b100101000111000000 >
b100101000111000000 T"
b100101000111000000 =
b100101000111000000 S"
1+
#1530000000
0+
#1540000000
b100110000101100000 O
b100110000101100000 P
b100101100110010000 >
b100101100110010000 T"
b100101100110010000 =
b100101100110010000 S"
1+
#1550000000
0+
#1560000000
b100110100100110000 O
b100110100100110000 P
b100110000101100000 >
b100110000101100000 T"
b100110000101100000 =
b100110000101100000 S"
1+
#1570000000
0+
#1580000000
b100111000100000000 O
b100111000100000000 P
b100110100100110000 >
b100110100100110000 T"
b100110100100110000 =
b100110100100110000 S"
1+
#1590000000
0+
#1600000000
b100111100011010000 O
b100111100011010000 P
b100111000100000000 >
b100111000100000000 T"
b100111000100000000 =
b100111000100000000 S"
1+
#1610000000
0+
#1620000000
b101000000010100000 O
b101000000010100000 P
b100111100011010000 >
b100111100011010000 T"
b100111100011010000 =
b100111100011010000 S"
1+
#1630000000
0+
#1640000000
b101000100001110000 O
b101000100001110000 P
b101000000010100000 >
b101000000010100000 T"
b101000000010100000 =
b101000000010100000 S"
1+
#1650000000
0+
#1660000000
b101001000001000000 O
b101001000001000000 P
b101000100001110000 >
b101000100001110000 T"
b101000100001110000 =
b101000100001110000 S"
1+
#1670000000
0+
#1680000000
b101001100000010000 O
b101001100000010000 P
b101001000001000000 >
b101001000001000000 T"
b101001000001000000 =
b101001000001000000 S"
1+
#1690000000
0+
