src/end_to_end_tests/tests/cycle_in_periodic1/generated/dump.vcd
$date
	Tue Jul 22 16:30:11 2025
$end
$version
	Icarus Verilog
$end
$timescale
	100fs
$end
$scope module testbench $end
$var wire 1 ! q_push_valid $end
$var wire 1 " q_push $end
$var wire 1 # q_pop_valid $end
$var wire 1 $ q_pop $end
$var wire 1 % output_1_aktv $end
$var wire 64 & output_1 [63:0] $end
$var wire 1 ' output_0_aktv $end
$var wire 64 ( output_0 [63:0] $end
$var wire 1 ) enable_out1 $end
$var wire 1 * enable_out0 $end
$var wire 1 + enable_in0 $end
$var reg 1 , clk $end
$var reg 1 - en $end
$var reg 64 . input_0 [63:0] $end
$var reg 1 / new_input_0 $end
$var reg 1 0 rst $end
$scope module monitor $end
$var wire 1 1 b $end
$var wire 1 2 b_0 $end
$var wire 1 3 b_5 $end
$var wire 68 4 \c$case_alt_4 [67:0] $end
$var wire 1 , clk $end
$var wire 1 - en $end
$var wire 64 5 inputs_0 [63:0] $end
$var wire 1 / inputs_1 $end
$var wire 1 6 iterateI_ho1_0_arg0 $end
$var wire 1 7 iterateI_ho1_0_arg0_0 $end
$var wire 1 8 iterateI_ho1_0_res $end
$var wire 1 9 iterateI_ho1_0_res_0 $end
$var wire 1 : iterateI_ho1_0_res_1 $end
$var wire 1 ; iterateI_ho1_0_res_2 $end
$var wire 24 < iterateI_ho1_0_res_3 [23:0] $end
$var wire 1 = iterateI_ho1_0_res_4 $end
$var wire 1 > iterateI_ho1_1_res $end
$var wire 1 ? iterateI_ho1_1_res_0 $end
$var wire 1 @ iterateI_ho1_1_res_1 $end
$var wire 1 A iterateI_ho1_2_res $end
$var wire 1 B iterateI_ho1_2_res_0 $end
$var wire 1 0 rst $end
$var wire 64 C x [63:0] $end
$var wire 64 D x_0 [63:0] $end
$var wire 64 E x_1 [63:0] $end
$var wire 64 F x_2 [63:0] $end
$var wire 64 G x_3 [63:0] $end
$var wire 64 H x_4 [63:0] $end
$var wire 64 I y [63:0] $end
$var wire 8 J winTag [7:0] $end
$var wire 64 K winData [63:0] $end
$var wire 1 L timer1Over $end
$var wire 1 M timer0Over $end
$var wire 8 N tag [7:0] $end
$var wire 72 O t_0 [71:0] $end
$var wire 72 P t [71:0] $end
$var wire 1 Q result_9 $end
$var wire 1 R result_8 $end
$var wire 134 S result_7 [133:0] $end
$var wire 69 T result_6 [68:0] $end
$var wire 64 U result_4 [63:0] $end
$var wire 70 V result_30 [69:0] $end
$var wire 1 W result_29 $end
$var wire 64 X result_28 [63:0] $end
$var wire 64 Y result_27 [63:0] $end
$var wire 1 Z result_26 $end
$var wire 8 [ result_25 [7:0] $end
$var wire 8 \ result_24 [7:0] $end
$var wire 1 ] result_23 $end
$var wire 8 ^ result_22 [7:0] $end
$var wire 8 _ result_21 [7:0] $end
$var wire 8 ` result_20 [7:0] $end
$var wire 64 a result_2 [63:0] $end
$var wire 3 b result_1_4_7 [2:0] $end
$var wire 1 ) result_1_4_2 $end
$var wire 1 * result_1_4_1 $end
$var wire 1 + result_1_4_0 $end
$var wire 1 # result_1_3 $end
$var wire 1 ! result_1_2 $end
$var wire 1 $ result_1_1 $end
$var wire 1 " result_1_0 $end
$var wire 8 c result_19 [7:0] $end
$var wire 24 d result_18 [23:0] $end
$var wire 1 e result_17 $end
$var wire 8 f result_16 [7:0] $end
$var wire 8 g result_15 [7:0] $end
$var wire 72 h result_13 [71:0] $end
$var wire 72 i result_11 [71:0] $end
$var wire 1 j result_10 $end
$var wire 7 k result_1 [6:0] $end
$var wire 1 % result_0_1_1 $end
$var wire 64 l result_0_1_0 [63:0] $end
$var wire 65 m result_0_1 [64:0] $end
$var wire 1 ' result_0_0_1 $end
$var wire 64 n result_0_0_0 [63:0] $end
$var wire 65 o result_0_0 [64:0] $end
$var wire 130 p result_0 [129:0] $end
$var wire 137 q result [136:0] $end
$var wire 1 r qPush $end
$var wire 1 s qPopValid $end
$var wire 1 t qPop $end
$var wire 68 u qData [67:0] $end
$var wire 3 v pacings [2:0] $end
$var wire 1 w pOut1 $end
$var wire 1 x pOut0 $end
$var wire 1 y pIn0 $end
$var wire 24 z iterateI_ho1_0_arg0_1 [23:0] $end
$var wire 65 { inputs [64:0] $end
$var wire 1 | hasInput0 $end
$var wire 8 } f1_1 [7:0] $end
$var wire 8 ~ f1_0 [7:0] $end
$var wire 8 !" f1 [7:0] $end
$var wire 64 "" dta [63:0] $end
$var wire 64 #" \c$tte_rhs_0 [63:0] $end
$var wire 64 $" \c$tte_rhs [63:0] $end
$var wire 64 %" \c$out1_case_alt [63:0] $end
$var wire 64 &" \c$out0_case_alt_0 [63:0] $end
$var wire 64 '" \c$out0_case_alt [63:0] $end
$var wire 1 (" \c$cursor_case_scrut $end
$var wire 64 )" \c$cursor_case_alt_4 [63:0] $end
$var wire 64 *" \c$cursor_case_alt_2 [63:0] $end
$var wire 64 +" \c$cursor_case_alt_1 [63:0] $end
$var wire 64 ," \c$cursor_case_alt_0 [63:0] $end
$var wire 64 -" \c$cursor_case_alt [63:0] $end
$var wire 1 ." \c$case_alt_8 $end
$var wire 1 /" \c$case_alt_7 $end
$var wire 1 0" \c$case_alt_6 $end
$var wire 1 1" \c$case_alt_5 $end
$var wire 1 2" \c$case_alt_12 $end
$var wire 1 3" \c$case_alt_11 $end
$var wire 1 4" \c$case_alt_10 $end
$var wire 68 5" \c$case_alt_1 [67:0] $end
$var wire 68 6" \c$case_alt_0 [67:0] $end
$var wire 68 7" \c$case_alt [67:0] $end
$var wire 272 8" \c$buffer_case_alt_sel_alt_t_1 [271:0] $end
$var wire 272 9" \c$buffer_case_alt_sel_alt_f_2 [271:0] $end
$var wire 204 :" \c$buffer_case_alt_1 [203:0] $end
$var wire 204 ;" \c$buffer_case_alt_0 [203:0] $end
$var wire 204 <" \c$buffer_case_alt [203:0] $end
$var wire 3 =" \c$app_arg_6 [2:0] $end
$var wire 48 >" \c$app_arg_5 [47:0] $end
$var wire 2 ?" \c$app_arg_4 [1:0] $end
$var wire 8 @" \c$app_arg_3 [7:0] $end
$var wire 8 A" \c$app_arg_2 [7:0] $end
$var wire 4 B" \c$app_arg_1 [3:0] $end
$var wire 4 C" \c$app_arg_0 [3:0] $end
$var wire 2 D" \c$app_arg [1:0] $end
$var wire 1 E" b_4 $end
$var wire 1 F" b_3 $end
$var wire 1 G" b_2 $end
$var wire 1 H" b_1 $end
$var reg 204 I" buffer [203:0] $end
$var reg 68 J" \c$app_arg_7 [67:0] $end
$var reg 1 K" \c$app_arg_8 $end
$var reg 1 L" \c$app_arg_9 $end
$var reg 1 8 \c$bb_res_res $end
$var reg 1 9 \c$bb_res_res_0 $end
$var reg 1 > \c$bb_res_res_1 $end
$var reg 1 A \c$bb_res_res_2 $end
$var reg 1 : \c$bb_res_res_3 $end
$var reg 1 ? \c$bb_res_res_4 $end
$var reg 1 B \c$bb_res_res_5 $end
$var reg 1 ; \c$bb_res_res_6 $end
$var reg 24 M" \c$bb_res_res_7 [23:0] $end
$var reg 1 = \c$bb_res_res_8 $end
$var reg 1 @ \c$bb_res_res_9 $end
$var reg 68 N" \c$case_alt_2 [67:0] $end
$var reg 68 O" \c$case_alt_3 [67:0] $end
$var reg 1 P" \c$case_alt_9 $end
$var reg 64 Q" \c$cursor_case_alt_3 [63:0] $end
$var reg 64 R" cursor [63:0] $end
$var reg 72 S" result_12 [71:0] $end
$var reg 72 T" result_14 [71:0] $end
$var reg 64 U" result_3 [63:0] $end
$var reg 64 V" result_5 [63:0] $end
$var reg 8 W" t_1 [7:0] $end
$var reg 8 X" t_2 [7:0] $end
$var reg 8 Y" t_3 [7:0] $end
$var reg 64 Z" toWait [63:0] $end
$scope begin mk_array[0] $end
$var parameter 2 [" i $end
$upscope $end
$scope begin mk_array[1] $end
$var parameter 2 \" i $end
$upscope $end
$scope begin mk_array[2] $end
$var parameter 3 ]" i $end
$upscope $end
$scope begin buffer_register $end
$upscope $end
$scope begin c$app_arg_7_register $end
$upscope $end
$scope begin c$app_arg_8_register $end
$upscope $end
$scope begin c$app_arg_9_register $end
$upscope $end
$scope begin c$bb_res_res_0_delay $end
$upscope $end
$scope begin c$bb_res_res_1_delay $end
$upscope $end
$scope begin c$bb_res_res_2_delay $end
$upscope $end
$scope begin c$bb_res_res_3_delay $end
$upscope $end
$scope begin c$bb_res_res_4_delay $end
$upscope $end
$scope begin c$bb_res_res_5_delay $end
$upscope $end
$scope begin c$bb_res_res_6_delay $end
$upscope $end
$scope begin c$bb_res_res_7_delay $end
$upscope $end
$scope begin c$bb_res_res_8_delay $end
$upscope $end
$scope begin c$bb_res_res_9_delay $end
$upscope $end
$scope begin c$bb_res_res_delay $end
$upscope $end
$scope begin cursor_register $end
$upscope $end
$scope begin result_12_register $end
$upscope $end
$scope begin result_14_register $end
$upscope $end
$scope begin result_3_register $end
$upscope $end
$scope begin result_5_register $end
$upscope $end
$scope begin t_1_register $end
$upscope $end
$scope begin t_2_register $end
$upscope $end
$scope begin t_3_register $end
$upscope $end
$scope begin toWait_register $end
$upscope $end
$upscope $end
$upscope $end
$enddefinitions $end
$comment Show the parameter values. $end
$dumpall
b10 ]"
b1 \"
b0 ["
$end
#20000000
$dumpvars
b0 Z"
b1 Y"
b1 X"
b1 W"
b11111010000 V"
b11111010000 U"
b110000000000000000000000000000000000000000000000000000000000000000 T"
b110000000000000000000000000000000000000000000000000000000000000000 S"
b0 R"
b0 Q"
0P"
b0 O"
bx0000 N"
b10000000100000001 M"
0L"
0K"
b0 J"
b0 I"
0H"
0G"
0F"
0E"
b0 D"
b0 C"
b0 B"
b0 A"
b0 @"
b0 ?"
b10000000100000001000000010000000100000001 >"
b0 ="
b0 <"
bx00000000000000000000000000000000000000000000000000000000000000000000000000000000000000000000000000000000000000000000000000000000000000000000 ;"
bx00000000000000000000000000000000000000000000000000000000000000000000000000000000000000000000000000000000000000000000000000000000000000000000 :"
bx0000000000000000000000000000000000000000000000000000000000000000000000000000000000000000000000000000000000000000000000000000000000000000000000000000000000000000000000000000000000000000000000000000000000000000 9"
bx0000000000000000000000000000000000000000000000000000000000000000000000000000000000000000000000000000000000000000000000000000000000000000000000000000000000000000000000000000000000000000000000000000000000000000 8"
b0 7"
bx0000 6"
b0 5"
04"
13"
12"
01"
10"
0/"
x."
b0 -"
b0 ,"
b1 +"
b0 *"
b1111111111111111111111111111111111111111111111111111111111111111 )"
0("
b0 '"
b0 &"
b0 %"
b1 $"
b0 #"
b0 ""
b10 !"
b10 ~
b10 }
0|
bx0 {
b10000000100000001 z
0y
0x
0w
b0 v
bx0000 u
1t
0s
0r
b100000 q
b0 p
b0 o
b0 n
b0 m
b0 l
b100000 k
0j
b110000000000000000000000000000000000000000000000000000000000000000 i
b110000000000000000000000000000000000000000000000000000000000000000 h
b10 g
b10 f
0e
b10000000100000001 d
b1 c
b0 b
b111110100000 a
b10 `
b1 _
b10 ^
0]
b1 \
b10 [
1Z
b0 Y
b0 X
0W
b0 V
b111110100000 U
b0xxxxxxxxxxxxxxxxxxxxxxxxxxxxxxxxxxxxxxxxxxxxxxxxxxxxxxxxxxxxxxxx0000 T
b10000000000000000000000000000000000000000000000000000000000000000000000000000000000000000000000000000000000000000000000000000000000000 S
0R
0Q
b10000000000000000000000000000000000000000000000000000000000000000 P
b10000000000000000000000000000000000000000000000000000000000000001 O
b11 N
0M
0L
b0 K
b11 J
b0 I
b0 H
b0 G
b0 F
b0 E
b11111010000 D
b11111010000 C
0B
0A
0@
0?
0>
0=
b10000000100000001 <
0;
0:
09
08
07
06
bx 5
bx 4
03
02
01
00
0/
bx .
1-
1,
0+
0*
0)
b0 (
0'
b0 &
0%
1$
0#
0"
0!
$end
#30000000
0,
#40000000
b1011101110000 U
b1011101110000 a
b111110100000 D
b111110100000 V"
b111110100000 C
b111110100000 U"
1,
#50000000
0,
#60000000
b1111101000000 U
b1111101000000 a
b1011101110000 D
b1011101110000 V"
b1011101110000 C
b1011101110000 U"
1,
#70000000
0,
#80000000
b10011100010000 U
b10011100010000 a
b1111101000000 D
b1111101000000 V"
b1111101000000 C
b1111101000000 U"
1,
#90000000
0,
#100000000
b10111011100000 U
b10111011100000 a
b10011100010000 D
b10011100010000 V"
b10011100010000 C
b10011100010000 U"
1,
#110000000
0,
#120000000
b11011010110000 U
b11011010110000 a
b10111011100000 D
b10111011100000 V"
b10111011100000 C
b10111011100000 U"
1,
#130000000
0,
#140000000
b11111010000000 U
b11111010000000 a
b11011010110000 D
b11011010110000 V"
b11011010110000 C
b11011010110000 U"
1,
#150000000
0,
#160000000
b100011001010000 U
b100011001010000 a
b11111010000000 D
b11111010000000 V"
b11111010000000 C
b11111010000000 U"
1,
#170000000
0,
#180000000
b100111000100000 U
b100111000100000 a
b100011001010000 D
b100011001010000 V"
b100011001010000 C
b100011001010000 U"
1,
#190000000
0,
#200000000
b101010111110000 U
b101010111110000 a
b100111000100000 D
b100111000100000 V"
b100111000100000 C
b100111000100000 U"
1,
#210000000
0,
#220000000
b101110111000000 U
b101110111000000 a
b101010111110000 D
b101010111110000 V"
b101010111110000 C
b101010111110000 U"
1,
#230000000
0,
#240000000
b110010110010000 U
b110010110010000 a
b101110111000000 D
b101110111000000 V"
b101110111000000 C
b101110111000000 U"
1,
#250000000
0,
#260000000
b110110101100000 U
b110110101100000 a
b110010110010000 D
b110010110010000 V"
b110010110010000 C
b110010110010000 U"
1,
#270000000
0,
#280000000
b111010100110000 U
b111010100110000 a
b110110101100000 D
b110110101100000 V"
b110110101100000 C
b110110101100000 U"
1,
#290000000
0,
#300000000
b111110100000000 U
b111110100000000 a
b111010100110000 D
b111010100110000 V"
b111010100110000 C
b111010100110000 U"
1,
#310000000
0,
#320000000
b1000010011010000 U
b1000010011010000 a
b111110100000000 D
b111110100000000 V"
b111110100000000 C
b111110100000000 U"
1,
#330000000
0,
#340000000
b1000110010100000 U
b1000110010100000 a
b1000010011010000 D
b1000010011010000 V"
b1000010011010000 C
b1000010011010000 U"
1,
#350000000
0,
#360000000
b1001010001110000 U
b1001010001110000 a
b1000110010100000 D
b1000110010100000 V"
b1000110010100000 C
b1000110010100000 U"
1,
#370000000
0,
#380000000
b1001110001000000 U
b1001110001000000 a
b1001010001110000 D
b1001010001110000 V"
b1001010001110000 C
b1001010001110000 U"
1,
#390000000
0,
#400000000
b1010010000010000 U
b1010010000010000 a
b1001110001000000 D
b1001110001000000 V"
b1001110001000000 C
b1001110001000000 U"
1,
#410000000
0,
#420000000
b1010101111100000 U
b1010101111100000 a
b1010010000010000 D
b1010010000010000 V"
b1010010000010000 C
b1010010000010000 U"
1,
#430000000
0,
#440000000
b1011001110110000 U
b1011001110110000 a
b1010101111100000 D
b1010101111100000 V"
b1010101111100000 C
b1010101111100000 U"
1,
#450000000
0,
#460000000
b1011101110000000 U
b1011101110000000 a
b1011001110110000 D
b1011001110110000 V"
b1011001110110000 C
b1011001110110000 U"
1,
#470000000
0,
#480000000
b1100001101010000 U
b1100001101010000 a
b1011101110000000 D
b1011101110000000 V"
b1011101110000000 C
b1011101110000000 U"
1,
#490000000
0,
#500000000
b1100101100100000 U
b1100101100100000 a
b1100001101010000 D
b1100001101010000 V"
b1100001101010000 C
b1100001101010000 U"
1,
#510000000
0,
#520000000
b1101001011110000 U
b1101001011110000 a
b1100101100100000 D
b1100101100100000 V"
b1100101100100000 C
b1100101100100000 U"
1,
#530000000
0,
#540000000
b1101101011000000 U
b1101101011000000 a
b1101001011110000 D
b1101001011110000 V"
b1101001011110000 C
b1101001011110000 U"
1,
#550000000
0,
#560000000
b1110001010010000 U
b1110001010010000 a
b1101101011000000 D
b1101101011000000 V"
b1101101011000000 C
b1101101011000000 U"
1,
#570000000
0,
#580000000
b1110101001100000 U
b1110101001100000 a
b1110001010010000 D
b1110001010010000 V"
b1110001010010000 C
b1110001010010000 U"
1,
#590000000
0,
#600000000
b1111001000110000 U
b1111001000110000 a
b1110101001100000 D
b1110101001100000 V"
b1110101001100000 C
b1110101001100000 U"
1,
#610000000
0,
#620000000
b1111101000000000 U
b1111101000000000 a
b1111001000110000 D
b1111001000110000 V"
b1111001000110000 C
b1111001000110000 U"
1,
#630000000
0,
#640000000
b10000000111010000 U
b10000000111010000 a
b1111101000000000 D
b1111101000000000 V"
b1111101000000000 C
b1111101000000000 U"
1,
#650000000
0,
#660000000
b10000100110100000 U
b10000100110100000 a
b10000000111010000 D
b10000000111010000 V"
b10000000111010000 C
b10000000111010000 U"
1,
#670000000
0,
#680000000
b10001000101110000 U
b10001000101110000 a
b10000100110100000 D
b10000100110100000 V"
b10000100110100000 C
b10000100110100000 U"
1,
#690000000
0,
#700000000
b10001100101000000 U
b10001100101000000 a
b10001000101110000 D
b10001000101110000 V"
b10001000101110000 C
b10001000101110000 U"
1,
#710000000
0,
#720000000
b10010000100010000 U
b10010000100010000 a
b10001100101000000 D
b10001100101000000 V"
b10001100101000000 C
b10001100101000000 U"
1,
#730000000
0,
#740000000
b10010100011100000 U
b10010100011100000 a
b10010000100010000 D
b10010000100010000 V"
b10010000100010000 C
b10010000100010000 U"
1,
#750000000
0,
#760000000
b10011000010110000 U
b10011000010110000 a
b10010100011100000 D
b10010100011100000 V"
b10010100011100000 C
b10010100011100000 U"
1,
#770000000
0,
#780000000
b10011100010000000 U
b10011100010000000 a
b10011000010110000 D
b10011000010110000 V"
b10011000010110000 C
b10011000010110000 U"
1,
#790000000
0,
#800000000
b10100000001010000 U
b10100000001010000 a
b10011100010000000 D
b10011100010000000 V"
b10011100010000000 C
b10011100010000000 U"
1,
#810000000
0,
#820000000
b10100100000100000 U
b10100100000100000 a
b10100000001010000 D
b10100000001010000 V"
b10100000001010000 C
b10100000001010000 U"
1,
#830000000
0,
#840000000
b10100111111110000 U
b10100111111110000 a
b10100100000100000 D
b10100100000100000 V"
b10100100000100000 C
b10100100000100000 U"
1,
#850000000
0,
#860000000
b10101011111000000 U
b10101011111000000 a
b10100111111110000 D
b10100111111110000 V"
b10100111111110000 C
b10100111111110000 U"
1,
#870000000
0,
#880000000
b10101111110010000 U
b10101111110010000 a
b10101011111000000 D
b10101011111000000 V"
b10101011111000000 C
b10101011111000000 U"
1,
#890000000
0,
#900000000
b10110011101100000 U
b10110011101100000 a
b10101111110010000 D
b10101111110010000 V"
b10101111110010000 C
b10101111110010000 U"
1,
#910000000
0,
#920000000
b10110111100110000 U
b10110111100110000 a
b10110011101100000 D
b10110011101100000 V"
b10110011101100000 C
b10110011101100000 U"
1,
#930000000
0,
#940000000
b10111011100000000 U
b10111011100000000 a
b10110111100110000 D
b10110111100110000 V"
b10110111100110000 C
b10110111100110000 U"
1,
#950000000
0,
#960000000
b10111111011010000 U
b10111111011010000 a
b10111011100000000 D
b10111011100000000 V"
b10111011100000000 C
b10111011100000000 U"
1,
#970000000
0,
#980000000
b11000011010100000 U
b11000011010100000 a
b10111111011010000 D
b10111111011010000 V"
b10111111011010000 C
b10111111011010000 U"
1,
#990000000
0,
#1000000000
b11000111001110000 U
b11000111001110000 a
b11000011010100000 D
b11000011010100000 V"
b11000011010100000 C
b11000011010100000 U"
1,
#1010000000
0,
#1020000000
b11001011001000000 U
b11001011001000000 a
b11000111001110000 D
b11000111001110000 V"
b11000111001110000 C
b11000111001110000 U"
1,
#1030000000
0,
#1040000000
b11001111000010000 U
b11001111000010000 a
b11001011001000000 D
b11001011001000000 V"
b11001011001000000 C
b11001011001000000 U"
1,
#1050000000
0,
#1060000000
b11010010111100000 U
b11010010111100000 a
b11001111000010000 D
b11001111000010000 V"
b11001111000010000 C
b11001111000010000 U"
1,
#1070000000
0,
#1080000000
b11010110110110000 U
b11010110110110000 a
b11010010111100000 D
b11010010111100000 V"
b11010010111100000 C
b11010010111100000 U"
1,
#1090000000
0,
#1100000000
b11011010110000000 U
b11011010110000000 a
b11010110110110000 D
b11010110110110000 V"
b11010110110110000 C
b11010110110110000 U"
1,
#1110000000
0,
#1120000000
b11011110101010000 U
b11011110101010000 a
b11011010110000000 D
b11011010110000000 V"
b11011010110000000 C
b11011010110000000 U"
1,
#1130000000
0,
#1140000000
b11100010100100000 U
b11100010100100000 a
b11011110101010000 D
b11011110101010000 V"
b11011110101010000 C
b11011110101010000 U"
1,
#1150000000
0,
#1160000000
b11100110011110000 U
b11100110011110000 a
b11100010100100000 D
b11100010100100000 V"
b11100010100100000 C
b11100010100100000 U"
1,
#1170000000
0,
#1180000000
b11101010011000000 U
b11101010011000000 a
b11100110011110000 D
b11100110011110000 V"
b11100110011110000 C
b11100110011110000 U"
1,
#1190000000
0,
#1200000000
b11101110010010000 U
b11101110010010000 a
b11101010011000000 D
b11101010011000000 V"
b11101010011000000 C
b11101010011000000 U"
1,
#1210000000
0,
#1220000000
b11110010001100000 U
b11110010001100000 a
b11101110010010000 D
b11101110010010000 V"
b11101110010010000 C
b11101110010010000 U"
1,
#1230000000
0,
#1240000000
b11110110000110000 U
b11110110000110000 a
b11110010001100000 D
b11110010001100000 V"
b11110010001100000 C
b11110010001100000 U"
1,
#1250000000
0,
#1260000000
b11111010000000000 U
b11111010000000000 a
b11110110000110000 D
b11110110000110000 V"
b11110110000110000 C
b11110110000110000 U"
1,
#1270000000
0,
#1280000000
b11111101111010000 U
b11111101111010000 a
b11111010000000000 D
b11111010000000000 V"
b11111010000000000 C
b11111010000000000 U"
1,
#1290000000
0,
#1300000000
b100000001110100000 U
b100000001110100000 a
b11111101111010000 D
b11111101111010000 V"
b11111101111010000 C
b11111101111010000 U"
1,
#1310000000
0,
#1320000000
b100000101101110000 U
b100000101101110000 a
b100000001110100000 D
b100000001110100000 V"
b100000001110100000 C
b100000001110100000 U"
1,
#1330000000
0,
#1340000000
b100001001101000000 U
b100001001101000000 a
b100000101101110000 D
b100000101101110000 V"
b100000101101110000 C
b100000101101110000 U"
1,
#1350000000
0,
#1360000000
b100001101100010000 U
b100001101100010000 a
b100001001101000000 D
b100001001101000000 V"
b100001001101000000 C
b100001001101000000 U"
1,
#1370000000
0,
#1380000000
b100010001011100000 U
b100010001011100000 a
b100001101100010000 D
b100001101100010000 V"
b100001101100010000 C
b100001101100010000 U"
1,
#1390000000
0,
#1400000000
b100010101010110000 U
b100010101010110000 a
b100010001011100000 D
b100010001011100000 V"
b100010001011100000 C
b100010001011100000 U"
1,
#1410000000
0,
#1420000000
b100011001010000000 U
b100011001010000000 a
b100010101010110000 D
b100010101010110000 V"
b100010101010110000 C
b100010101010110000 U"
1,
#1430000000
0,
#1440000000
b100011101001010000 U
b100011101001010000 a
b100011001010000000 D
b100011001010000000 V"
b100011001010000000 C
b100011001010000000 U"
1,
#1450000000
0,
#1460000000
b100100001000100000 U
b100100001000100000 a
b100011101001010000 D
b100011101001010000 V"
b100011101001010000 C
b100011101001010000 U"
1,
#1470000000
0,
#1480000000
b100100100111110000 U
b100100100111110000 a
b100100001000100000 D
b100100001000100000 V"
b100100001000100000 C
b100100001000100000 U"
1,
#1490000000
0,
#1500000000
b100101000111000000 U
b100101000111000000 a
b100100100111110000 D
b100100100111110000 V"
b100100100111110000 C
b100100100111110000 U"
1,
#1510000000
0,
#1520000000
b100101100110010000 U
b100101100110010000 a
b100101000111000000 D
b100101000111000000 V"
b100101000111000000 C
b100101000111000000 U"
1,
#1530000000
0,
#1540000000
b100110000101100000 U
b100110000101100000 a
b100101100110010000 D
b100101100110010000 V"
b100101100110010000 C
b100101100110010000 U"
1,
#1550000000
0,
#1560000000
b100110100100110000 U
b100110100100110000 a
b100110000101100000 D
b100110000101100000 V"
b100110000101100000 C
b100110000101100000 U"
1,
#1570000000
0,
#1580000000
b100111000100000000 U
b100111000100000000 a
b100110100100110000 D
b100110100100110000 V"
b100110100100110000 C
b100110100100110000 U"
1,
#1590000000
0,
#1600000000
b100111100011010000 U
b100111100011010000 a
b100111000100000000 D
b100111000100000000 V"
b100111000100000000 C
b100111000100000000 U"
1,
#1610000000
0,
#1620000000
b101000000010100000 U
b101000000010100000 a
b100111100011010000 D
b100111100011010000 V"
b100111100011010000 C
b100111100011010000 U"
1,
#1630000000
0,
#1640000000
b101000100001110000 U
b101000100001110000 a
b101000000010100000 D
b101000000010100000 V"
b101000000010100000 C
b101000000010100000 U"
1,
#1650000000
0,
#1660000000
b101001000001000000 U
b101001000001000000 a
b101000100001110000 D
b101000100001110000 V"
b101000100001110000 C
b101000100001110000 U"
1,
#1670000000
0,
#1680000000
b101001100000010000 U
b101001100000010000 a
b101001000001000000 D
b101001000001000000 V"
b101001000001000000 C
b101001000001000000 U"
1,
#1690000000
0,
#1700000000
b101001111111100000 U
b101001111111100000 a
b101001100000010000 D
b101001100000010000 V"
b101001100000010000 C
b101001100000010000 U"
1,
#1710000000
0,
#1720000000
b101010011110110000 U
b101010011110110000 a
b101001111111100000 D
b101001111111100000 V"
b101001111111100000 C
b101001111111100000 U"
1,
#1730000000
0,
#1740000000
b101010111110000000 U
b101010111110000000 a
b101010011110110000 D
b101010011110110000 V"
b101010011110110000 C
b101010011110110000 U"
1,
#1750000000
0,
#1760000000
b101011011101010000 U
b101011011101010000 a
b101010111110000000 D
b101010111110000000 V"
b101010111110000000 C
b101010111110000000 U"
1,
#1770000000
0,
#1780000000
b101011111100100000 U
b101011111100100000 a
b101011011101010000 D
b101011011101010000 V"
b101011011101010000 C
b101011011101010000 U"
1,
#1790000000
0,
#1800000000
b101100011011110000 U
b101100011011110000 a
b101011111100100000 D
b101011111100100000 V"
b101011111100100000 C
b101011111100100000 U"
1,
#1810000000
0,
#1820000000
b101100111011000000 U
b101100111011000000 a
b101100011011110000 D
b101100011011110000 V"
b101100011011110000 C
b101100011011110000 U"
1,
#1830000000
0,
#1840000000
b101101011010010000 U
b101101011010010000 a
b101100111011000000 D
b101100111011000000 V"
b101100111011000000 C
b101100111011000000 U"
1,
#1850000000
0,
#1860000000
b101101111001100000 U
b101101111001100000 a
b101101011010010000 D
b101101011010010000 V"
b101101011010010000 C
b101101011010010000 U"
1,
#1870000000
0,
#1880000000
b101110011000110000 U
b101110011000110000 a
b101101111001100000 D
b101101111001100000 V"
b101101111001100000 C
b101101111001100000 U"
1,
#1890000000
0,
#1900000000
b101110111000000000 U
b101110111000000000 a
b101110011000110000 D
b101110011000110000 V"
b101110011000110000 C
b101110011000110000 U"
1,
#1910000000
0,
#1920000000
b101111010111010000 U
b101111010111010000 a
b101110111000000000 D
b101110111000000000 V"
b101110111000000000 C
b101110111000000000 U"
1,
#1930000000
0,
#1940000000
b101111110110100000 U
b101111110110100000 a
b101111010111010000 D
b101111010111010000 V"
b101111010111010000 C
b101111010111010000 U"
1,
#1950000000
0,
#1960000000
b110000010101110000 U
b110000010101110000 a
b101111110110100000 D
b101111110110100000 V"
b101111110110100000 C
b101111110110100000 U"
1,
#1970000000
0,
#1980000000
b110000110101000000 U
b110000110101000000 a
b110000010101110000 D
b110000010101110000 V"
b110000010101110000 C
b110000010101110000 U"
1,
#1990000000
0,
#2000000000
b110001010100010000 U
b110001010100010000 a
b110000110101000000 D
b110000110101000000 V"
b110000110101000000 C
b110000110101000000 U"
1,
#2010000000
0,
#2020000000
b110001110011100000 U
b110001110011100000 a
b110001010100010000 D
b110001010100010000 V"
b110001010100010000 C
b110001010100010000 U"
1,
#2030000000
0,
#2040000000
b110010010010110000 U
b110010010010110000 a
b110001110011100000 D
b110001110011100000 V"
b110001110011100000 C
b110001110011100000 U"
1,
#2050000000
0,
#2060000000
b110010110010000000 U
b110010110010000000 a
b110010010010110000 D
b110010010010110000 V"
b110010010010110000 C
b110010010010110000 U"
1,
#2070000000
0,
#2080000000
b110011010001010000 U
b110011010001010000 a
b110010110010000000 D
b110010110010000000 V"
b110010110010000000 C
b110010110010000000 U"
1,
#2090000000
0,
#2100000000
b110011110000100000 U
b110011110000100000 a
b110011010001010000 D
b110011010001010000 V"
b110011010001010000 C
b110011010001010000 U"
1,
#2110000000
0,
#2120000000
b110100001111110000 U
b110100001111110000 a
b110011110000100000 D
b110011110000100000 V"
b110011110000100000 C
b110011110000100000 U"
1,
#2130000000
0,
#2140000000
b110100101111000000 U
b110100101111000000 a
b110100001111110000 D
b110100001111110000 V"
b110100001111110000 C
b110100001111110000 U"
1,
#2150000000
0,
#2160000000
b110101001110010000 U
b110101001110010000 a
b110100101111000000 D
b110100101111000000 V"
b110100101111000000 C
b110100101111000000 U"
1,
#2170000000
0,
#2180000000
b110101101101100000 U
b110101101101100000 a
b110101001110010000 D
b110101001110010000 V"
b110101001110010000 C
b110101001110010000 U"
1,
#2190000000
0,
#2200000000
b110110001100110000 U
b110110001100110000 a
b110101101101100000 D
b110101101101100000 V"
b110101101101100000 C
b110101101101100000 U"
1,
#2210000000
0,
#2220000000
b110110101100000000 U
b110110101100000000 a
b110110001100110000 D
b110110001100110000 V"
b110110001100110000 C
b110110001100110000 U"
1,
#2230000000
0,
#2240000000
b110111001011010000 U
b110111001011010000 a
b110110101100000000 D
b110110101100000000 V"
b110110101100000000 C
b110110101100000000 U"
1,
#2250000000
0,
#2260000000
b110111101010100000 U
b110111101010100000 a
b110111001011010000 D
b110111001011010000 V"
b110111001011010000 C
b110111001011010000 U"
1,
#2270000000
0,
#2280000000
b111000001001110000 U
b111000001001110000 a
b110111101010100000 D
b110111101010100000 V"
b110111101010100000 C
b110111101010100000 U"
1,
#2290000000
0,
#2300000000
b111000101001000000 U
b111000101001000000 a
b111000001001110000 D
b111000001001110000 V"
b111000001001110000 C
b111000001001110000 U"
1,
#2310000000
0,
#2320000000
b111001001000010000 U
b111001001000010000 a
b111000101001000000 D
b111000101001000000 V"
b111000101001000000 C
b111000101001000000 U"
1,
#2330000000
0,
#2340000000
b111001100111100000 U
b111001100111100000 a
b111001001000010000 D
b111001001000010000 V"
b111001001000010000 C
b111001001000010000 U"
1,
#2350000000
0,
