src/end_to_end_tests/tests/ignore_simple_graph/generated/dump.vcd
$date
	Thu May  8 11:43:53 2025
$end
$version
	Icarus Verilog
$end
$timescale
	100fs
$end
$scope module testbench $end
$var wire 1 ! q_push_valid $end
$var wire 1 " q_push $end
$var wire 1 # q_pop_valid $end
$var wire 1 $ q_pop $end
$var wire 1 % pacing_3 $end
$var wire 1 & pacing_2 $end
$var wire 1 ' pacing_1 $end
$var wire 1 ( pacing_0 $end
$var wire 1 ) output_3_aktv $end
$var wire 64 * output_3 [63:0] $end
$var wire 1 + output_2_aktv $end
$var wire 64 , output_2 [63:0] $end
$var wire 1 - output_1_aktv $end
$var wire 64 . output_1 [63:0] $end
$var wire 1 / output_0_aktv $end
$var wire 64 0 output_0 [63:0] $end
$var reg 1 1 clk $end
$var reg 1 2 en $end
$var reg 64 3 input_0 [63:0] $end
$var reg 1 4 new_input_0 $end
$var reg 1 5 rst $end
$scope module monitor $end
$var wire 1 6 b_5 $end
$var wire 69 7 \c$case_alt_6 [68:0] $end
$var wire 1 1 clk $end
$var wire 1 2 en $end
$var wire 64 8 inputs_0 [63:0] $end
$var wire 1 4 inputs_1 $end
$var wire 1 9 iterateI_ho1_0_res $end
$var wire 1 : iterateI_ho1_0_res_0 $end
$var wire 1 ; iterateI_ho1_0_res_1 $end
$var wire 1 < iterateI_ho1_0_res_2 $end
$var wire 1 = iterateI_ho1_0_res_3 $end
$var wire 1 > iterateI_ho1_0_res_4 $end
$var wire 1 ? iterateI_ho1_0_res_5 $end
$var wire 1 @ iterateI_ho1_0_res_6 $end
$var wire 1 A iterateI_ho1_0_res_7 $end
$var wire 40 B iterateI_ho1_0_res_8 [39:0] $end
$var wire 40 C iterateI_ho1_0_res_9 [39:0] $end
$var wire 1 D iterateI_ho1_1_res $end
$var wire 1 E iterateI_ho1_1_res_0 $end
$var wire 1 F iterateI_ho1_1_res_1 $end
$var wire 1 G iterateI_ho1_1_res_2 $end
$var wire 1 H iterateI_ho1_1_res_3 $end
$var wire 1 I iterateI_ho1_1_res_4 $end
$var wire 1 J iterateI_ho1_1_res_5 $end
$var wire 1 K iterateI_ho1_1_res_6 $end
$var wire 40 L iterateI_ho1_1_res_7 [39:0] $end
$var wire 1 M iterateI_ho1_2_res $end
$var wire 1 N iterateI_ho1_2_res_0 $end
$var wire 1 O iterateI_ho1_2_res_1 $end
$var wire 1 P iterateI_ho1_2_res_2 $end
$var wire 1 Q iterateI_ho1_2_res_3 $end
$var wire 1 R iterateI_ho1_2_res_4 $end
$var wire 1 S iterateI_ho1_3_res $end
$var wire 1 T iterateI_ho1_3_res_0 $end
$var wire 1 U iterateI_ho1_3_res_1 $end
$var wire 1 V iterateI_ho1_3_res_2 $end
$var wire 1 5 rst $end
$var wire 64 W x_2 [63:0] $end
$var wire 64 X x_3 [63:0] $end
$var wire 64 Y y [63:0] $end
$var wire 64 Z x_1 [63:0] $end
$var wire 64 [ x_0 [63:0] $end
$var wire 64 \ x [63:0] $end
$var wire 8 ] winTag_0 [7:0] $end
$var wire 8 ^ winTag [7:0] $end
$var wire 64 _ winData_0 [63:0] $end
$var wire 64 ` winData [63:0] $end
$var wire 8 a tag_1 [7:0] $end
$var wire 8 b tag_0 [7:0] $end
$var wire 8 c tag [7:0] $end
$var wire 72 d t_1 [71:0] $end
$var wire 72 e t_0 [71:0] $end
$var wire 72 f t [71:0] $end
$var wire 72 g result_8 [71:0] $end
$var wire 1 h result_7 $end
$var wire 1 i result_6 $end
$var wire 1 j result_5 $end
$var wire 1 k result_4 $end
$var wire 71 l result_39 [70:0] $end
$var wire 1 m result_38 $end
$var wire 64 n result_37 [63:0] $end
$var wire 64 o result_36 [63:0] $end
$var wire 1 p result_35 $end
$var wire 8 q result_34 [7:0] $end
$var wire 8 r result_33 [7:0] $end
$var wire 8 s result_32 [7:0] $end
$var wire 8 t result_31 [7:0] $end
$var wire 8 u result_30 [7:0] $end
$var wire 265 v result_3 [264:0] $end
$var wire 8 w result_29 [7:0] $end
$var wire 8 x result_28 [7:0] $end
$var wire 8 y result_27 [7:0] $end
$var wire 8 z result_26 [7:0] $end
$var wire 8 { result_25 [7:0] $end
$var wire 40 | result_24 [39:0] $end
$var wire 40 } result_23 [39:0] $end
$var wire 1 ~ result_22 $end
$var wire 1 !" result_21 $end
$var wire 1 "" result_20 $end
$var wire 70 #" result_2 [69:0] $end
$var wire 1 % result_1_4_3 $end
$var wire 1 & result_1_4_2 $end
$var wire 4 $" result_1_4_12 [3:0] $end
$var wire 1 ' result_1_4_1 $end
$var wire 1 ( result_1_4_0 $end
$var wire 1 # result_1_3 $end
$var wire 1 ! result_1_2 $end
$var wire 1 $ result_1_1 $end
$var wire 1 " result_1_0 $end
$var wire 1 %" result_18 $end
$var wire 1 &" result_17 $end
$var wire 72 '" result_15 [71:0] $end
$var wire 8 (" result_14 [7:0] $end
$var wire 72 )" result_11 [71:0] $end
$var wire 8 *" result_10 [7:0] $end
$var wire 8 +" result_1 [7:0] $end
$var wire 1 ) result_0_3_1 $end
$var wire 64 ," result_0_3_0 [63:0] $end
$var wire 65 -" result_0_3 [64:0] $end
$var wire 1 + result_0_2_1 $end
$var wire 64 ." result_0_2_0 [63:0] $end
$var wire 65 /" result_0_2 [64:0] $end
$var wire 1 - result_0_1_1 $end
$var wire 64 0" result_0_1_0 [63:0] $end
$var wire 65 1" result_0_1 [64:0] $end
$var wire 1 / result_0_0_1 $end
$var wire 64 2" result_0_0_0 [63:0] $end
$var wire 65 3" result_0_0 [64:0] $end
$var wire 260 4" result_0 [259:0] $end
$var wire 268 5" result [267:0] $end
$var wire 1 6" qPush $end
$var wire 1 7" qPopValid $end
$var wire 1 8" qPop $end
$var wire 69 9" qData [68:0] $end
$var wire 4 :" pacings [3:0] $end
$var wire 1 ;" p4 $end
$var wire 1 <" p3 $end
$var wire 1 =" p2 $end
$var wire 1 >" p0 $end
$var wire 8 ?" out3Level2TagOut3 [7:0] $end
$var wire 8 @" out3Level2TagOut2 [7:0] $end
$var wire 8 A" out2Level1TagOut2 [7:0] $end
$var wire 8 B" out2Level1TagOut1 [7:0] $end
$var wire 8 C" out1Level2TagOut1 [7:0] $end
$var wire 8 D" out1Level2TagOut0 [7:0] $end
$var wire 8 E" out0Level1TagOut3 [7:0] $end
$var wire 8 F" out0Level1TagOut0 [7:0] $end
$var wire 8 G" out0Level1TagIn0 [7:0] $end
$var wire 65 H" inputs [64:0] $end
$var wire 1 I" input0HasData $end
$var wire 65 J" input0 [64:0] $end
$var wire 1 K" hasInput0 $end
$var wire 8 L" f1_3 [7:0] $end
$var wire 8 M" f1_2 [7:0] $end
$var wire 8 N" f1_1 [7:0] $end
$var wire 8 O" f1_0 [7:0] $end
$var wire 8 P" f1 [7:0] $end
$var wire 64 Q" dta_1 [63:0] $end
$var wire 64 R" dta_0 [63:0] $end
$var wire 64 S" dta [63:0] $end
$var wire 40 T" curTags [39:0] $end
$var wire 64 U" \c$tte_rhs_0 [63:0] $end
$var wire 64 V" \c$tte_rhs [63:0] $end
$var wire 72 W" \c$result_app_arg_0 [71:0] $end
$var wire 72 X" \c$result_app_arg [71:0] $end
$var wire 72 Y" \c$out3_case_alt [71:0] $end
$var wire 72 Z" \c$out1_case_alt [71:0] $end
$var wire 72 [" \c$out0_case_alt [71:0] $end
$var wire 1 \" \c$cursor_case_scrut $end
$var wire 64 ]" \c$cursor_case_alt_4 [63:0] $end
$var wire 64 ^" \c$cursor_case_alt_2 [63:0] $end
$var wire 64 _" \c$cursor_case_alt_1 [63:0] $end
$var wire 64 `" \c$cursor_case_alt_0 [63:0] $end
$var wire 64 a" \c$cursor_case_alt [63:0] $end
$var wire 1 b" \c$case_alt_9 $end
$var wire 1 c" \c$case_alt_8 $end
$var wire 1 d" \c$case_alt_7 $end
$var wire 69 e" \c$case_alt_3 [68:0] $end
$var wire 69 f" \c$case_alt_2 [68:0] $end
$var wire 1 g" \c$case_alt_14 $end
$var wire 1 h" \c$case_alt_13 $end
$var wire 1 i" \c$case_alt_12 $end
$var wire 1 j" \c$case_alt_10 $end
$var wire 69 k" \c$case_alt_1 [68:0] $end
$var wire 72 l" \c$case_alt_0 [71:0] $end
$var wire 72 m" \c$case_alt [71:0] $end
$var wire 276 n" \c$buffer_case_alt_sel_alt_t_1 [275:0] $end
$var wire 276 o" \c$buffer_case_alt_sel_alt_f_2 [275:0] $end
$var wire 207 p" \c$buffer_case_alt_1 [206:0] $end
$var wire 207 q" \c$buffer_case_alt_0 [206:0] $end
$var wire 207 r" \c$buffer_case_alt [206:0] $end
$var wire 4 s" \c$app_arg_9 [3:0] $end
$var wire 3 t" \c$app_arg_8 [2:0] $end
$var wire 2 u" \c$app_arg_7 [1:0] $end
$var wire 4 v" \c$app_arg_6 [3:0] $end
$var wire 3 w" \c$app_arg_5 [2:0] $end
$var wire 8 x" \c$app_arg_4 [7:0] $end
$var wire 8 y" \c$app_arg_3 [7:0] $end
$var wire 5 z" \c$app_arg_2 [4:0] $end
$var wire 80 {" \c$app_arg_11 [79:0] $end
$var wire 120 |" \c$app_arg_10 [119:0] $end
$var wire 5 }" \c$app_arg_1 [4:0] $end
$var wire 5 ~" \c$app_arg_0 [4:0] $end
$var wire 5 !# \c$app_arg [4:0] $end
$var wire 1 "# b_4 $end
$var wire 1 ## b_3 $end
$var wire 1 $# b_2 $end
$var wire 1 %# b_1 $end
$var wire 1 &# b_0 $end
$var wire 1 '# b $end
$var reg 207 (# buffer [206:0] $end
$var reg 69 )# \c$app_arg_12 [68:0] $end
$var reg 1 *# \c$app_arg_13 $end
$var reg 1 +# \c$app_arg_14 $end
$var reg 1 9 \c$bb_res_res $end
$var reg 1 D \c$bb_res_res_0 $end
$var reg 1 M \c$bb_res_res_1 $end
$var reg 1 U \c$bb_res_res_10 $end
$var reg 1 < \c$bb_res_res_11 $end
$var reg 1 G \c$bb_res_res_12 $end
$var reg 1 P \c$bb_res_res_13 $end
$var reg 1 V \c$bb_res_res_14 $end
$var reg 1 = \c$bb_res_res_15 $end
$var reg 1 H \c$bb_res_res_16 $end
$var reg 1 > \c$bb_res_res_17 $end
$var reg 1 I \c$bb_res_res_18 $end
$var reg 1 Q \c$bb_res_res_19 $end
$var reg 1 S \c$bb_res_res_2 $end
$var reg 1 ? \c$bb_res_res_20 $end
$var reg 1 @ \c$bb_res_res_21 $end
$var reg 1 J \c$bb_res_res_22 $end
$var reg 1 A \c$bb_res_res_23 $end
$var reg 1 K \c$bb_res_res_24 $end
$var reg 1 R \c$bb_res_res_25 $end
$var reg 40 ,# \c$bb_res_res_26 [39:0] $end
$var reg 40 -# \c$bb_res_res_27 [39:0] $end
$var reg 40 .# \c$bb_res_res_28 [39:0] $end
$var reg 1 : \c$bb_res_res_3 $end
$var reg 1 E \c$bb_res_res_4 $end
$var reg 1 N \c$bb_res_res_5 $end
$var reg 1 T \c$bb_res_res_6 $end
$var reg 1 ; \c$bb_res_res_7 $end
$var reg 1 F \c$bb_res_res_8 $end
$var reg 1 O \c$bb_res_res_9 $end
$var reg 1 /# \c$case_alt_11 $end
$var reg 69 0# \c$case_alt_4 [68:0] $end
$var reg 69 1# \c$case_alt_5 [68:0] $end
$var reg 64 2# \c$cursor_case_alt_3 [63:0] $end
$var reg 65 3# \c$ds_case_scrut [64:0] $end
$var reg 64 4# cursor [63:0] $end
$var reg 72 5# result_12 [71:0] $end
$var reg 72 6# result_13 [71:0] $end
$var reg 72 7# result_16 [71:0] $end
$var reg 72 8# result_19 [71:0] $end
$var reg 72 9# result_9 [71:0] $end
$var reg 8 :# t_2 [7:0] $end
$var reg 8 ;# t_3 [7:0] $end
$var reg 8 <# t_4 [7:0] $end
$var reg 8 =# t_5 [7:0] $end
$var reg 8 ># t_6 [7:0] $end
$var reg 64 ?# toWait [63:0] $end
$scope begin mk_array[0] $end
$var parameter 2 @# i $end
$upscope $end
$scope begin mk_array[1] $end
$var parameter 2 A# i $end
$upscope $end
$scope begin mk_array[2] $end
$var parameter 3 B# i $end
$upscope $end
$scope begin buffer_register $end
$upscope $end
$scope begin c$app_arg_12_register $end
$upscope $end
$scope begin c$app_arg_13_register $end
$upscope $end
$scope begin c$app_arg_14_register $end
$upscope $end
$scope begin c$bb_res_res_0_delay $end
$upscope $end
$scope begin c$bb_res_res_10_delay $end
$upscope $end
$scope begin c$bb_res_res_11_delay $end
$upscope $end
$scope begin c$bb_res_res_12_delay $end
$upscope $end
$scope begin c$bb_res_res_13_delay $end
$upscope $end
$scope begin c$bb_res_res_14_delay $end
$upscope $end
$scope begin c$bb_res_res_15_delay $end
$upscope $end
$scope begin c$bb_res_res_16_delay $end
$upscope $end
$scope begin c$bb_res_res_17_delay $end
$upscope $end
$scope begin c$bb_res_res_18_delay $end
$upscope $end
$scope begin c$bb_res_res_19_delay $end
$upscope $end
$scope begin c$bb_res_res_1_delay $end
$upscope $end
$scope begin c$bb_res_res_20_delay $end
$upscope $end
$scope begin c$bb_res_res_21_delay $end
$upscope $end
$scope begin c$bb_res_res_22_delay $end
$upscope $end
$scope begin c$bb_res_res_23_delay $end
$upscope $end
$scope begin c$bb_res_res_24_delay $end
$upscope $end
$scope begin c$bb_res_res_25_delay $end
$upscope $end
$scope begin c$bb_res_res_26_delay $end
$upscope $end
$scope begin c$bb_res_res_27_delay $end
$upscope $end
$scope begin c$bb_res_res_28_delay $end
$upscope $end
$scope begin c$bb_res_res_2_delay $end
$upscope $end
$scope begin c$bb_res_res_3_delay $end
$upscope $end
$scope begin c$bb_res_res_4_delay $end
$upscope $end
$scope begin c$bb_res_res_5_delay $end
$upscope $end
$scope begin c$bb_res_res_6_delay $end
$upscope $end
$scope begin c$bb_res_res_7_delay $end
$upscope $end
$scope begin c$bb_res_res_8_delay $end
$upscope $end
$scope begin c$bb_res_res_9_delay $end
$upscope $end
$scope begin c$bb_res_res_delay $end
$upscope $end
$scope begin c$ds_case_scrut_delay $end
$upscope $end
$scope begin cursor_register $end
$upscope $end
$scope begin result_12_register $end
$upscope $end
$scope begin result_13_register $end
$upscope $end
$scope begin result_16_register $end
$upscope $end
$scope begin result_19_register $end
$upscope $end
$scope begin result_9_register $end
$upscope $end
$scope begin t_2_register $end
$upscope $end
$scope begin t_3_register $end
$upscope $end
$scope begin t_4_register $end
$upscope $end
$scope begin t_5_register $end
$upscope $end
$scope begin t_6_register $end
$upscope $end
$scope begin toWait_register $end
$upscope $end
$upscope $end
$upscope $end
$enddefinitions $end
$comment Show the parameter values. $end
$dumpall
b10 B#
b1 A#
b0 @#
$end
#20000000
$dumpvars
b0 ?#
b1 >#
b1 =#
b1 <#
b1 ;#
b1 :#
b110000000000000000000000000000000000000000000000000000000000000000 9#
b110000000000000000000000000000000000000000000000000000000000000000 8#
b110000000000000000000000000000000000000000000000000000000000000000 7#
b110000000000000000000000000000000000000000000000000000000000000000 6#
b110000000000000000000000000000000000000000000000000000000000000000 5#
b0 4#
b0 3#
b0 2#
b0 1#
bx00000 0#
0/#
b100000001000000010000000100000001 .#
b100000001000000010000000100000001 -#
b100000001000000010000000100000001 ,#
0+#
0*#
b0 )#
b0 (#
0'#
0&#
0%#
0$#
0##
0"#
b0 !#
b0 ~"
b0 }"
b10000000100000001000000010000000100000001000000010000000100000001000000010000000100000001000000010000000100000001 |"
b1000000010000000100000001000000010000000100000001000000010000000100000001 {"
b0 z"
b0 y"
b0 x"
b0 w"
b0 v"
b0 u"
b0 t"
b0 s"
b0 r"
bx00000000000000000000000000000000000000000000000000000000000000000000000000000000000000000000000000000000000000000000000000000000000000000000000 q"
bx00000000000000000000000000000000000000000000000000000000000000000000000000000000000000000000000000000000000000000000000000000000000000000000000 p"
bx00000000000000000000000000000000000000000000000000000000000000000000000000000000000000000000000000000000000000000000000000000000000000000000000000000000000000000000000000000000000000000000000000000000000000000000 o"
bx00000000000000000000000000000000000000000000000000000000000000000000000000000000000000000000000000000000000000000000000000000000000000000000000000000000000000000000000000000000000000000000000000000000000000000000 n"
b10000000000000000000000000000000000000000000000000000000000000000 m"
b10000000000000000000000000000000000000000000000000000000000000000 l"
b0 k"
xj"
0i"
1h"
1g"
bx00000 f"
b0 e"
0d"
1c"
0b"
b0 a"
b0 `"
b1 _"
b0 ^"
b1111111111111111111111111111111111111111111111111111111111111111 ]"
0\"
b10000000000000000000000000000000000000000000000000000000000000000 ["
b10000000000000000000000000000000000000000000000000000000000000000 Z"
b10000000000000000000000000000000000000000000000000000000000000000 Y"
b110000000000000000000000000000000000000000000000000000000000000000 X"
b110000000000000000000000000000000000000000000000000000000000000000 W"
b1 V"
b0 U"
b100000001000000010000000100000001 T"
b0 S"
b0 R"
b0 Q"
b10 P"
b10 O"
b10 N"
b10 M"
b10 L"
0K"
b0 J"
0I"
bx0 H"
b1 G"
b1 F"
b1 E"
b1 D"
b1 C"
b1 B"
b1 A"
b1 @"
b1 ?"
0>"
0="
0<"
0;"
b0 :"
bx00000 9"
18"
07"
06"
b1000000 5"
b0 4"
b0 3"
b0 2"
b0 1"
b0 0"
b0 /"
b0 ."
b0 -"
b0 ,"
b1000000 +"
b10 *"
b110000000000000000000000000000000000000000000000000000000000000000 )"
b10 ("
b110000000000000000000000000000000000000000000000000000000000000000 '"
0&"
0%"
b0 $"
b0xxxxxxxxxxxxxxxxxxxxxxxxxxxxxxxxxxxxxxxxxxxxxxxxxxxxxxxxxxxxxxxx00000 #"
0""
0!"
0~
b100000001000000010000000100000001 }
b100000001000000010000000100000001 |
b1 {
b10 z
b1 y
b10 x
b1 w
b1000000000000000000000000000000000000000000000000000000000000000000000000000000000000000000000000000000000000000000000000000000000000000000000000000000000000000000000000000000000000000000000000000000000000000000000000000000000000000000000000000000000000000000000000 v
b10 u
b1 t
b10 s
b1 r
b10 q
1p
b0 o
b0 n
0m
b0 l
0k
0j
0i
0h
b110000000000000000000000000000000000000000000000000000000000000000 g
b10000000000000000000000000000000000000000000000000000000000000000 f
b10000000000000000000000000000000000000000000000000000000000000001 e
b10000000000000000000000000000000000000000000000000000000000000001 d
b11 c
b11 b
b11 a
b0 `
b0 _
b11 ^
b11 ]
b0 \
b0 [
b0 Z
b0 Y
b0 X
b0 W
0V
0U
0T
0S
0R
0Q
0P
0O
0N
0M
b100000001000000010000000100000001 L
0K
0J
0I
0H
0G
0F
0E
0D
b100000001000000010000000100000001 C
b100000001000000010000000100000001 B
0A
0@
0?
0>
0=
0<
0;
0:
09
bx 8
bx 7
06
05
04
bx 3
12
11
b0 0
0/
b0 .
0-
b0 ,
0+
b0 *
0)
0(
0'
0&
0%
1$
0#
0"
0!
$end
#30000000
01
#40000000
11
#50000000
01
#60000000
11
#70000000
01
#80000000
11
#90000000
01
#100000000
11
#110000000
01
#120000000
11
#130000000
01
#140000000
11
#150000000
01
#160000000
11
#170000000
01
#180000000
11
#190000000
01
#200000000
11
#210000000
01
#220000000
11
#230000000
01
#240000000
11
#250000000
01
#260000000
11
#270000000
01
#280000000
11
#290000000
01
#300000000
11
#310000000
01
#320000000
11
#330000000
01
#340000000
11
#350000000
01
#360000000
11
#370000000
01
#380000000
11
#390000000
01
#400000000
11
#410000000
01
#420000000
11
#430000000
01
#440000000
11
#450000000
01
#460000000
11
#470000000
01
#480000000
11
#490000000
01
#500000000
11
#510000000
01
#520000000
11
#530000000
01
#540000000
11
#550000000
01
#560000000
11
#570000000
01
#580000000
11
#590000000
01
#600000000
11
#610000000
01
#620000000
11
#630000000
01
#640000000
11
#650000000
01
#660000000
11
#670000000
01
#680000000
11
#690000000
01
#700000000
11
#710000000
01
#720000000
11
#730000000
01
#740000000
11
#750000000
01
#760000000
11
#770000000
01
#780000000
11
#790000000
01
#800000000
11
#810000000
01
#820000000
11
#830000000
01
#840000000
11
#850000000
01
#860000000
11
#870000000
01
#880000000
11
#890000000
01
#900000000
11
#910000000
01
#920000000
11
#930000000
01
#940000000
11
#950000000
01
#960000000
11
#970000000
01
#980000000
11
#990000000
01
#1000000000
1"
b11000000 +"
b111111000000000000000000000000000000000000000000000000000000000000000000000000000000000000000000000000000000000000000000000000000000000000000000 r"
1i"
1d"
b111111 k"
b111111000000000000000000000000000000000000000000000000000000000000000000000000000000000000000000000000000000000000000000000000000000000000000000 p"
b111111000000000000000000000000000000000000000000000000000000000000000000000000000000000000000000000000000000000000000000000000000000000000000000 q"
b111111 f"
b11000000 5"
16"
b111111 0#
b111111000000000000000000000000000000000000000000000000000000000000000000000000000000000000000000000000000000000000000000000000000000000000000000000000000000000000000000000000000000000000000000000000000000000000000 o"
b111111000000000000000000000000000000000000000000000000000000000000000000000000000000000000000000000000000000000000000000000000000000000000000000000000000000000000000000000000000000000000000000000000000000000000000 n"
b111111 9"
1K"
b1 3
b1 8
b1000000000000000000000000000000000000000000000000000000000000000111111 #"
b11 H"
14
11
#1010000000
01
#1020000000
0$
b1 `"
0j"
0b"
0c"
08"
1(
1'
1&
1%
b1 o
1!
1#
b1111 $"
1m
b10 r
b10 t
b10 w
b10 y
b10 {
16
b10 u"
1I"
b100 t"
b10000 z"
1>"
b1000 s"
b10000 }"
1="
b100 w"
b10000 ~"
1<"
b1000 v"
b10000 !#
1;"
17"
b11 J"
b1111 v
b1111 :"
b111111000000000000000000000000000000000000000000000000000000000000000000000000000000000000000000000000000000000000000000000000000000000000000000 (#
1+#
1*#
b11000000000000000000000000000000000000000000000000000000000000000111111 l
b111111 )#
0"
b111111 +"
b111111000000000000000000000000000000000000000000000000000000000000000000000000000000000000000000000000000000000000000000000000000000000000000000 r"
0i"
0d"
b0 k"
b111111000000000000000000000000000000000000000000000000000000000000000000000 p"
b111111000000000000000000000000000000000000000000000000000000000000000000000 q"
b0 f"
b111111 5"
06"
b0 0#
b111111000000000000000000000000000000000000000000000000000000000000000000000000000000000000000000000000000000000000000000000000000000000000000000 o"
b111111000000000000000000000000000000000000000000000000000000000000000000000000000000000000000000000000000000000000000000000000000000000000000000 n"
b0 9"
0K"
b0 3
b0 8
b0 #"
b0 H"
04
11
#1030000000
01
#1040000000
0(
0'
0&
0%
0!
0#
b0 $"
b0 o
b0 +"
0I"
0>"
0="
0<"
0;"
0m
b10 r
b10 t
b10 w
b10 y
b10 {
b100000000000000000000000000000000000000000000000000000000000000001 W"
b0 5"
07"
b0 J"
b0 v
b0 :"
06
b1 q
b1 s
b1 u
b1 x
b1 z
1""
0+#
0*#
b0 l
b0 )#
0p
1"#
b1 W
b1 ?#
1##
b11 L"
b10 >#
1$#
b11 M"
b10 =#
1%#
b11 N"
b10 <#
1&#
b11 O"
b10 ;#
b10000000100000001000000010000000100000000100000001000000010000000100000001 {"
b100000001000000010000000100000001000000001000000010000000100000001000000010000000100000001000000010000000100000001 |"
b1000000010000000100000001000000010 T"
1'#
b11 P"
b10 :#
b100 s"
1A
b10 t"
1@
b1 u"
1?
b11 3#
b100 v"
1>
b10 w"
1=
b1000 z"
1<
b1000 }"
1;
b1000 ~"
1:
b1000 !#
19
11
#1050000000
01
#1060000000
1$
b1 \
b1000000 +"
b0 `"
xj"
1c"
b100000000000000000000000000000000000000000000000000000000000000001 ["
b1 *"
b100000000000000000000000000000000000000000000000000000000000000000 m"
b1 ("
b100000000000000000000000000000000000000000000000000000000000000000 l"
b1000000 5"
18"
b10 G"
b100000000000000000000000000000000000000000000000000000000000000001 f
b10 F"
b1 y"
b10 E"
b1 x"
b10 B"
b10 A"
b100000000000000000000000000000000000000000000000000000000000000001 g
b100000000000000000000000000000000000000000000000000000000000000000 X"
b1000000000000000000000000000000000000000000000000000000000000000000000000000000000000000000000000000000000000000000000000000000000000000000000000000000000000000000000000000000000000000000000000000000000000000000000000000000000000000000000000000000000000000000000000 v
b1 Q"
b10 a
b1000000010000000100000001000000010 |
1!"
0""
1&"
1p
0"#
b0 W
b0 ?#
b100000000000000000000000000000000000000000000000000000000000000001 8#
b10000000100000001000000010000000100000001000000010000000100000001000000010 {"
b1000000010000000100000001000000010 C
b1000000010000000100000001000000010 .#
b100000001000000010000000100000001000000010000000100000001000000010000000100000000100000001000000010000000100000001 |"
b1000000010000000100000001000000010 B
b1000000010000000100000001000000010 ,#
1K
b10 s"
0A
1J
b1 t"
0@
b0 u"
0?
b0 3#
1I
b10 v"
0>
1H
b1 w"
0=
1G
b100 z"
0<
1F
b100 }"
0;
1E
b100 ~"
0:
1D
b100 !#
09
11
#1070000000
01
#1080000000
b1 0
b1 2"
b10 3"
b1 Z
b10000000000000000000000000000000000000000000000000000000000000000000000000000000000000000000000000000000000000000000000000000000000000000000000000000000000000000000000000000000000000000000000000000 4"
b100000000000000000000000000000000000000000000000000000000000000001 Z"
b100000000000000000000000000000000000000000000000000000000000000000 Y"
b1000000000000000000000000000000000000000000000000000000000000000000000000000000000000000000000000000000000000000000000000000000000000000000000000000000000000000000000000000000000000000000000000000001000000 5"
b10 D"
b100000000000000000000000000000000000000000000000000000000000000010 d
b10 C"
b100000000000000000000000000000000000000000000000000000000000000001 e
b10 ?"
b10 @"
b100000000000000000000000000000000000000000000000000000000000000010 '"
b100000000000000000000000000000000000000000000000000000000000000001 )"
b10 b
b10 c
b1000000000000000000000000000000000000000000000000000000000000000100000000000000000000000000000000000000000000000000000000000000000000000000000000000000000000000000000000000000000000000000000000000000000000000000000000000000000000000000000000000000000000000000000000 v
b1 R"
b1000000010000000100000001000000010 }
1~
0!"
1%"
0&"
b100000000000000000000000000000000000000000000000000000000000000000 6#
b100000000000000000000000000000000000000000000000000000000000000001 9#
b100000001000000010000000100000001000000010000000100000001000000010000000100000001000000010000000100000001000000010 |"
b1000000010000000100000001000000010 L
b1000000010000000100000001000000010 -#
1R
b1 s"
0K
b0 t"
0J
1Q
b1 v"
0I
b0 w"
0H
1P
b10 z"
0G
1O
b10 }"
0F
1N
b10 ~"
0E
1M
b10 !#
0D
11
#1090000000
01
#1100000000
1/
b10 .
b10 0"
1-
1+
b1 *
b1 ,"
1)
b11 3"
b101 1"
b1 /"
b11 -"
b11000000000000000000000000000000000000000000000000000000000000001010000000000000000000000000000000000000000000000000000000000000000100000000000000000000000000000000000000000000000000000000000000011 4"
b1100000000000000000000000000000000000000000000000000000000000000101000000000000000000000000000000000000000000000000000000000000000010000000000000000000000000000000000000000000000000000000000000001101000000 5"
b10 ]
b10 _
b10 ^
b1 `
0~
0%"
1h
1i
1j
b1000000000000000000000000000000000000000000000000000000000000000110000000000000000000000000000000000000000000000000000000000000010100000000000000000000000000000000000000000000000000000000000000001000000000000000000000000000000000000000000000000000000000000000110000 v
1k
b100000000000000000000000000000000000000000000000000000000000000010 7#
b100000000000000000000000000000000000000000000000000000000000000001 5#
b0 s"
0R
b0 v"
0Q
1V
b1 z"
0P
1U
b1 }"
0O
1T
b1 ~"
0N
1S
b1 !#
0M
11
#1110000000
01
#1120000000
0/
0-
0+
0)
b10 3"
b100 1"
b0 /"
b10 -"
b10000000000000000000000000000000000000000000000000000000000000001000000000000000000000000000000000000000000000000000000000000000000000000000000000000000000000000000000000000000000000000000000000010 4"
b1000000000000000000000000000000000000000000000000000000000000000100000000000000000000000000000000000000000000000000000000000000000000000000000000000000000000000000000000000000000000000000000000001001000000 5"
0h
0i
0j
b1000000000000000000000000000000000000000000000000000000000000000100000000000000000000000000000000000000000000000000000000000000010000000000000000000000000000000000000000000000000000000000000000000000000000000000000000000000000000000000000000000000000000000000100000 v
0k
b0 z"
0V
b0 }"
0U
b0 ~"
0T
b0 !#
0S
11
