src/experiments/offset_with_different_defaults/dump.vcd
$date
	Fri Mar  7 09:25:35 2025
$end
$version
	Icarus Verilog
$end
$timescale
	100fs
$end
$scope module testbench $end
$var wire 1 ! output_c_aktv $end
$var wire 8 " output_c [7:0] $end
$var wire 1 # output_b_aktv $end
$var wire 8 $ output_b [7:0] $end
$var reg 1 % clk $end
$var reg 1 & en $end
$var reg 8 ' input_a [7:0] $end
$var reg 1 ( new_input $end
$var reg 1 ) rst $end
$scope module monitor $end
$var wire 1 * \c$app_arg $end
$var wire 1 + \c$app_arg_0 $end
$var wire 10 , \c$case_alt_1 [9:0] $end
$var wire 1 % clk $end
$var wire 1 & en $end
$var wire 8 - input0_0 [7:0] $end
$var wire 1 ( input0_1 $end
$var wire 1 ) rst $end
$var wire 64 . x [63:0] $end
$var wire 3 / t_projection_3 [2:0] $end
$var wire 24 0 t_projection [23:0] $end
$var wire 2 1 t_2 [1:0] $end
$var wire 16 2 t_1 [15:0] $end
$var wire 8 3 t_0 [7:0] $end
$var wire 8 4 t [7:0] $end
$var wire 18 5 result_9 [17:0] $end
$var wire 1 6 result_8 $end
$var wire 1 7 result_7 $end
$var wire 8 8 result_6 [7:0] $end
$var wire 1 9 result_5 $end
$var wire 8 : result_4 [7:0] $end
$var wire 19 ; result_3 [18:0] $end
$var wire 11 < result_2 [10:0] $end
$var wire 1 ! result_1_1 $end
$var wire 8 = result_1_0 [7:0] $end
$var wire 12 > result_13 [11:0] $end
$var wire 1 ? result_12 $end
$var wire 2 @ result_11 [1:0] $end
$var wire 16 A result_10 [15:0] $end
$var wire 9 B result_1 [8:0] $end
$var wire 1 # result_0_1 $end
$var wire 8 C result_0_0 [7:0] $end
$var wire 9 D result_0 [8:0] $end
$var wire 18 E result [17:0] $end
$var wire 10 F qData [9:0] $end
$var wire 1 G push $end
$var wire 1 H pop $end
$var wire 1 I pacingA $end
$var wire 1 J newA $end
$var wire 1 K isValidEvent $end
$var wire 9 L input0 [8:0] $end
$var wire 16 M \c$vec_2 [15:0] $end
$var wire 2 N \c$vec_1 [1:0] $end
$var wire 16 O \c$vec_0 [15:0] $end
$var wire 2 P \c$vec [1:0] $end
$var wire 64 Q \c$tte_rhs_3 [63:0] $end
$var wire 64 R \c$tte_rhs_2 [63:0] $end
$var wire 64 S \c$tte_rhs_1 [63:0] $end
$var wire 64 T \c$tte_rhs_0 [63:0] $end
$var wire 64 U \c$tte_rhs [63:0] $end
$var wire 3 V \c$state_case_alt [2:0] $end
$var wire 10 W \c$eventInfo_app_arg [9:0] $end
$var wire 1 X \c$cursor_case_scrut $end
$var wire 64 Y \c$cursor_case_alt_5 [63:0] $end
$var wire 64 Z \c$cursor_case_alt_3 [63:0] $end
$var wire 64 [ \c$cursor_case_alt_2 [63:0] $end
$var wire 64 \ \c$cursor_case_alt_0 [63:0] $end
$var wire 64 ] \c$cursor_case_alt [63:0] $end
$var wire 1 ^ \c$case_alt_4 $end
$var wire 1 _ \c$case_alt_2 $end
$var wire 10 ` \c$case_alt [9:0] $end
$var wire 70 a \c$buffer_case_alt_sel_alt_t_1 [69:0] $end
$var wire 60 b \c$buffer_case_alt_0 [59:0] $end
$var wire 60 c \c$buffer_case_alt [59:0] $end
$var wire 1 d b_0 $end
$var wire 1 e b $end
$var wire 64 f \a# [63:0] $end
$var reg 60 g buffer [59:0] $end
$var reg 10 h \c$app_arg_1 [9:0] $end
$var reg 1 i \c$app_arg_2 $end
$var reg 1 j \c$app_arg_3 $end
$var reg 10 k \c$case_alt_0 [9:0] $end
$var reg 1 l \c$case_alt_3 $end
$var reg 64 m \c$cursor_case_alt_1 [63:0] $end
$var reg 64 n \c$cursor_case_alt_4 [63:0] $end
$var reg 3 o \c$state_app_arg [2:0] $end
$var reg 64 p cursor [63:0] $end
$var reg 16 q dataOut [15:0] $end
$var reg 10 r eventInfo [9:0] $end
$var reg 3 s state [2:0] $end
$var reg 2 t validOut [1:0] $end
$scope begin mk_array[0] $end
$var parameter 2 u i $end
$upscope $end
$scope begin mk_array[1] $end
$var parameter 2 v i $end
$upscope $end
$scope begin mk_array[2] $end
$var parameter 3 w i $end
$upscope $end
$scope begin mk_array[3] $end
$var parameter 3 x i $end
$upscope $end
$scope begin mk_array[4] $end
$var parameter 4 y i $end
$upscope $end
$scope begin mk_array[5] $end
$var parameter 4 z i $end
$upscope $end
$scope begin buffer_register $end
$upscope $end
$scope begin c$app_arg_1_register $end
$upscope $end
$scope begin c$app_arg_2_register $end
$upscope $end
$scope begin c$app_arg_3_register $end
$upscope $end
$scope begin cursor_register $end
$upscope $end
$scope begin dataOut_register $end
$upscope $end
$scope begin eventInfo_register $end
$upscope $end
$scope begin state_register $end
$upscope $end
$scope begin validOut_register $end
$upscope $end
$upscope $end
$upscope $end
$enddefinitions $end
$comment Show the parameter values. $end
$dumpall
b101 z
b100 y
b11 x
b10 w
b1 v
b0 u
$end
#0
$dumpvars
b0 t
b0 s
b0 r
b0 q
b0 p
b1 o
b0 n
b1 m
0l
b0 k
0j
0i
b0 h
b0 g
b0 f
0e
0d
b0 c
bx0000000000000000000000000000000000000000000000000000 b
bx00000000000000000000000000000000000000000000000000000000000000 a
b0 `
0_
0^
b0 ]
b1 \
b1 [
b0 Z
b1111111111111111111111111111111111111111111111111111111111111111 Y
1X
b0 W
b0 V
b0 U
b0 T
b1 S
b0 R
b1 Q
b0 P
b0 O
b0 N
b0 M
bx0 L
0K
0J
0I
1H
0G
bx00 F
b10100011001000 E
b10100 D
b1010 C
b11001000 B
b0 A
b0 @
0?
b0 >
b1100100 =
b0xxxxxxxx00 <
b1000010100011001000 ;
b1100100 :
09
b1010 8
07
16
b0 5
b0 4
b0 3
b0 2
b1 1
b0 0
b1 /
b0 .
bx -
bx ,
0+
0*
0)
0(
bx '
1&
0%
b1010 $
0#
b1100100 "
0!
$end
#10000000
0H
b10100011001000 ;
06
b0 o
b0 S
b1 f
b1 s
1%
#20000000
0%
#30000000
1H
b1000010100011001000 ;
16
b1 o
b1 S
b0 f
b0 s
1%
#40000000
0%
#50000000
0H
b10100011001000 ;
06
b0 o
b0 S
b1 f
b1 s
1%
#60000000
0%
#70000000
1H
b1000010100011001000 ;
16
b1 o
b1 S
b0 f
b0 s
1%
#80000000
0%
#90000000
0H
b10100011001000 ;
06
b0 o
b0 S
b1 f
b1 s
1%
#100000000
b1 ]
b11100000000000000000000000000000000000000000000000000 c
1^
1G
b11100000000000000000000000000000000000000000000000000 b
1J
b111000000000000000000000000000000000000000000000000000000000000 a
b111 F
0%
1(
b10000000111 <
b11 L
b1 '
b1 -
#110000000
1_
b111 `
b1 ]
b11100000001110000000000000000000000000000000000000000 c
1H
b1 \
b11100000001110000000000000000000000000000000000000000 b
b1000010100011001000 ;
16
b0 Z
1l
b10 [
b111 k
b1 o
b1 S
b111 ,
b0 Y
b1 .
b1 p
b111000000011100000000000000000000000000000000000000000000000000 a
b11100000000000000000000000000000000000000000000000000 g
b100000000000 >
1j
b0 f
b0 s
1%
#120000000
b0 ]
b11100000000000000000000000000000000000000000000000000 c
0^
b10000000001110000000000000000000000000000000000000000 b
0G
b100000000011100000000000000000000000000000000000000000000000000 a
b100 F
0J
0%
b100 <
b10 L
0(
#130000000
0H
0_
b0 `
b111 W
b10 V
b10100011001000 ;
06
0l
b1 [
b0 k
1K
b10 o
b0 S
bx ,
b1111111111111111111111111111111111111111111111111111111111111111 Y
b0 .
b0 p
0j
1i
b10000000111 >
b111 h
b1 f
b1 s
1%
#140000000
0%
#150000000
b1 @
b1 A
b0 V
b1 2
1?
0K
1I
b1 0
b11 o
b1 R
0i
b0 >
b0 h
b111 r
b10 f
b10 s
1%
#160000000
0%
#170000000
1+
0?
17
b1 A
b1 @
b100 o
b0 R
b1 T
b1 M
b1 O
b100000001 2
b1 N
b1 P
b11 1
b11 f
b11 s
b100000001 0
b1 q
b101 5
b11 /
b1 t
1%
#180000000
0%
#190000000
1#
1!
b10101 D
b11001001 B
b10101011001001 E
0+
b10101011001001 ;
1*
07
19
b0 o
b0 T
b1 U
b100 f
b100 s
1%
#200000000
0%
#210000000
0#
0!
b10100 D
b11001000 B
b10100011001000 E
1H
0*
b1000010100011001000 ;
16
09
b1 o
b1 S
b0 U
b0 f
b0 s
1%
#220000000
b1 ]
b101100000001110000000000000000000000000000000000000000 c
1^
1G
b101100000001110000000000000000000000000000000000000000 b
1J
b1011000000011100000000000000000000000000000000000000000000000000 a
b1011 F
0%
1(
b10000001011 <
b101 L
b10 '
b10 -
#230000000
b10 ]
b1 Z
b10 \
b101100000010110000000111000000000000000000000000000000 c
0H
0_
b0 `
b101100000010110000000111000000000000000000000000000000 b
b10100011001000 ;
06
1l
b10 [
b1011 k
b0 o
b0 S
b1011 ,
b0 Y
b1 .
b1 p
b1011000000101100000001110000000000000000000000000000000000000000 a
b101100000001110000000000000000000000000000000000000000 g
b100000000000 >
1j
b1 f
b1 s
1%
#240000000
b1 ]
b101100000001110000000000000000000000000000000000000000 c
0^
b100000000010110000000111000000000000000000000000000000 b
0G
b1000000000101100000001110000000000000000000000000000000000000000 a
b1000 F
0J
0%
b1000 <
b100 L
0(
#250000000
b0 ]
b0 Z
b1 \
1_
b1011 `
1H
b1000010100011001000 ;
16
b1 o
b1 S
b0 >
0j
b0 f
b0 s
1%
#260000000
0%
#270000000
0H
0_
b0 `
b1011 W
b10 V
b10100011001000 ;
06
0l
b1 [
b0 k
1K
b10 o
b0 S
bx ,
b1111111111111111111111111111111111111111111111111111111111111111 Y
b0 .
b0 p
1i
b10000001011 >
b1011 h
b1 f
b1 s
1%
#280000000
0%
#290000000
b11 @
b100000010 A
b0 V
b100000010 2
1?
0K
b100000010 0
b11 o
b1 R
0i
b0 >
b0 h
b1011 r
b10 f
b10 s
1%
#300000000
0%
#310000000
b1 $
b1 C
b1 "
b1 =
b10 D
b10 B
b10000000010 E
1+
b1 8
b10000000010 ;
b1 :
0?
17
b1 3
b1 4
b100000010 A
1d
1e
b100 o
b0 R
b1 T
b100000010 M
b100000010 O
b1000000010 2
b11 N
b11 P
b11 f
b11 s
b10000001000000010 0
b100000010 q
b10000001011 5
b111 /
b11 t
1%
#320000000
0%
#330000000
1#
1!
b11 D
b11 B
b11000000011 E
0+
b11000000011 ;
1*
07
19
b0 o
b0 T
b1 U
b100 f
b100 s
1%
#340000000
b1 ]
b111100000010110000000111000000000000000000000000000000 c
1^
1G
b111100000010110000000111000000000000000000000000000000 b
1J
b1111000000101100000001110000000000000000000000000000000000000000 a
b1111 F
0%
1(
b10000001111 <
b111 L
b11 '
b11 -
#350000000
0#
0!
b10 D
b10 B
1_
b1111 `
b10000000010 E
b1 ]
b111100000011110000001011000000011100000000000000000000 c
1H
0*
b1 \
b111100000011110000001011000000011100000000000000000000 b
b1000000010000000010 ;
16
09
b0 Z
1l
b10 [
b1111 k
b1 o
b1 S
b0 U
b1111 ,
b0 Y
b1 .
b1 p
b1111000000111100000010110000000111000000000000000000000000000000 a
b111100000010110000000111000000000000000000000000000000 g
b100000000000 >
1j
b0 f
b0 s
1%
#360000000
b0 ]
b111100000010110000000111000000000000000000000000000000 c
0^
b110000000011110000001011000000011100000000000000000000 b
0G
b1100000000111100000010110000000111000000000000000000000000000000 a
b1100 F
0J
0%
b1100 <
b110 L
0(
#370000000
0H
0_
b0 `
b1111 W
b10 V
b10000000010 ;
06
0l
b1 [
b0 k
1K
b10 o
b0 S
bx ,
b1111111111111111111111111111111111111111111111111111111111111111 Y
b0 .
b0 p
0j
1i
b10000001111 >
b1111 h
b1 f
b1 s
1%
#380000000
0%
#390000000
b1000000011 A
b0 V
b1000000011 2
1?
0K
b10000001000000011 0
b11 o
b1 R
0i
b0 >
b0 h
b1111 r
b10 f
b10 s
1%
#400000000
0%
#410000000
b10 $
b10 C
b10 "
b10 =
b100 D
b100 B
b100000000100 E
1+
b10 8
b100000000100 ;
b10 :
0?
17
b10 3
b10 4
b1000000011 A
b100 o
b0 R
b1 T
b1000000011 M
b1000000011 O
b1100000011 2
b11 f
b11 s
b100000001111 5
b100000001100000011 0
b1000000011 q
1%
#420000000
0%
#430000000
1#
1!
b101 D
b101 B
b101000000101 E
0+
b101000000101 ;
1*
07
19
b0 o
b0 T
b1 U
b100 f
b100 s
1%
#440000000
0%
#450000000
0#
0!
b100 D
b100 B
b100000000100 E
1H
0*
b1000000100000000100 ;
16
09
b1 o
b1 S
b0 U
b0 f
b0 s
1%
#460000000
b1 ]
b1001100000011110000001011000000011100000000000000000000 c
1^
1G
b1001100000011110000001011000000011100000000000000000000 b
1J
b10011000000111100000010110000000111000000000000000000000000000000 a
b10011 F
0%
1(
b10000010011 <
b1001 L
b100 '
b100 -
#470000000
b10 ]
b1 Z
b10 \
b1001100000100110000001111000000101100000001110000000000 c
0H
0_
b0 `
b1001100000100110000001111000000101100000001110000000000 b
b100000000100 ;
06
1l
b10 [
b10011 k
b0 o
b0 S
b10011 ,
b0 Y
b1 .
b1 p
b10011000001001100000011110000001011000000011100000000000000000000 a
b1001100000011110000001011000000011100000000000000000000 g
b100000000000 >
1j
b1 f
b1 s
1%
#480000000
b1 ]
b1001100000011110000001011000000011100000000000000000000 c
0^
b1000000000100110000001111000000101100000001110000000000 b
0G
b10000000001001100000011110000001011000000011100000000000000000000 a
b10000 F
0J
0%
b10000 <
b1000 L
0(
#490000000
b0 ]
b0 Z
b1 \
1_
b10011 `
1H
b1000000100000000100 ;
16
b1 o
b1 S
b0 >
0j
b0 f
b0 s
1%
#500000000
0%
#510000000
0H
0_
b0 `
b10011 W
b10 V
b100000000100 ;
06
0l
b1 [
b0 k
1K
b10 o
b0 S
bx ,
b1111111111111111111111111111111111111111111111111111111111111111 Y
b0 .
b0 p
1i
b10000010011 >
b10011 h
b1 f
b1 s
1%
#520000000
0%
#530000000
b1100000100 A
b0 V
b1100000100 2
1?
0K
b100000001100000100 0
b11 o
b1 R
0i
b0 >
b0 h
b10011 r
b10 f
b10 s
1%
#540000000
0%
#550000000
b11 $
b11 C
b11 "
b11 =
b110 D
b110 B
b110000000110 E
1+
b11 8
b110000000110 ;
b11 :
0?
17
b11 3
b11 4
b1100000100 A
b100 o
b0 R
b1 T
b1100000100 M
b1100000100 O
b10000000100 2
b11 f
b11 s
b110000010011 5
b110000010000000100 0
b1100000100 q
1%
#560000000
0%
#570000000
1#
1!
b111 D
b111 B
b111000000111 E
0+
b111000000111 ;
1*
07
19
b0 o
b0 T
b1 U
b100 f
b100 s
1%
#580000000
b1 ]
b1011100000100110000001111000000101100000001110000000000 c
1^
1G
b1011100000100110000001111000000101100000001110000000000 b
1J
b10111000001001100000011110000001011000000011100000000000000000000 a
b10111 F
0%
1(
b10000010111 <
b1011 L
b101 '
b101 -
#590000000
0#
0!
b110 D
b110 B
1_
b10111 `
b110000000110 E
b1 ]
b1011100000101110000010011000000111100000010110000000111 c
1H
0*
b1 \
b1011100000101110000010011000000111100000010110000000111 b
b1000000110000000110 ;
16
09
b0 Z
1l
b10 [
b10111 k
b1 o
b1 S
b0 U
b10111 ,
b0 Y
b1 .
b1 p
b10111000001011100000100110000001111000000101100000001110000000000 a
b1011100000100110000001111000000101100000001110000000000 g
b100000000000 >
1j
b0 f
b0 s
1%
#600000000
b0 ]
b1011100000100110000001111000000101100000001110000000000 c
0^
b1010000000101110000010011000000111100000010110000000111 b
0G
b10100000001011100000100110000001111000000101100000001110000000000 a
b10100 F
0J
0%
b10100 <
b1010 L
0(
#610000000
0H
0_
b0 `
b10111 W
b10 V
b110000000110 ;
06
0l
b1 [
b0 k
1K
b10 o
b0 S
bx ,
b1111111111111111111111111111111111111111111111111111111111111111 Y
b0 .
b0 p
0j
1i
b10000010111 >
b10111 h
b1 f
b1 s
1%
#620000000
0%
#630000000
b10000000101 A
b0 V
b10000000101 2
1?
0K
b110000010000000101 0
b11 o
b1 R
0i
b0 >
b0 h
b10111 r
b10 f
b10 s
1%
#640000000
0%
#650000000
b100 $
b100 C
b100 "
b100 =
b1000 D
b1000 B
b1000000001000 E
1+
b100 8
b1000000001000 ;
b100 :
0?
17
b100 3
b100 4
b10000000101 A
b100 o
b0 R
b1 T
b10000000101 M
b10000000101 O
b10100000101 2
b11 f
b11 s
b1000000010111 5
b1000000010100000101 0
b10000000101 q
1%
#660000000
0%
#670000000
1#
1!
b1001 D
b1001 B
b1001000001001 E
0+
b1001000001001 ;
1*
07
19
b0 o
b0 T
b1 U
b100 f
b100 s
1%
#680000000
0%
#690000000
0#
0!
b1000 D
b1000 B
b1000000001000 E
1H
0*
b1000001000000001000 ;
16
09
b1 o
b1 S
b0 U
b0 f
b0 s
1%
#700000000
b1 ]
b1101100000101110000010011000000111100000010110000000111 c
1^
1G
b1101100000101110000010011000000111100000010110000000111 b
1J
b11011000001011100000100110000001111000000101100000001110000000000 a
b11011 F
0%
1(
b10000011011 <
b1101 L
b110 '
b110 -
#710000000
b10 ]
b1 Z
b10 \
b1101100000110110000010111000001001100000011110000001011 c
0H
0_
b0 `
b1101100000110110000010111000001001100000011110000001011 b
b1000000001000 ;
06
1l
b10 [
b11011 k
b0 o
b0 S
b11011 ,
b0 Y
b1 .
b1 p
b11011000001101100000101110000010011000000111100000010110000000111 a
b1101100000101110000010011000000111100000010110000000111 g
b100000000000 >
1j
b1 f
b1 s
1%
#720000000
b1 ]
b1101100000101110000010011000000111100000010110000000111 c
0^
b1100000000110110000010111000001001100000011110000001011 b
0G
b11000000001101100000101110000010011000000111100000010110000000111 a
b11000 F
0J
0%
b11000 <
b1100 L
0(
#730000000
b0 ]
b0 Z
b1 \
1_
b11011 `
1H
b1000001000000001000 ;
16
b1 o
b1 S
b0 >
0j
b0 f
b0 s
1%
#740000000
0%
#750000000
0H
0_
b0 `
b11011 W
b10 V
b1000000001000 ;
06
0l
b1 [
b0 k
1K
b10 o
b0 S
bx ,
b1111111111111111111111111111111111111111111111111111111111111111 Y
b0 .
b0 p
1i
b10000011011 >
b11011 h
b1 f
b1 s
1%
#760000000
0%
#770000000
b10100000110 A
b0 V
b10100000110 2
1?
0K
b1000000010100000110 0
b11 o
b1 R
0i
b0 >
b0 h
b11011 r
b10 f
b10 s
1%
#780000000
0%
#790000000
b101 $
b101 C
b101 "
b101 =
b1010 D
b1010 B
b1010000001010 E
1+
b101 8
b1010000001010 ;
b101 :
0?
17
b101 3
b101 4
b10100000110 A
b100 o
b0 R
b1 T
b10100000110 M
b10100000110 O
b11000000110 2
b11 f
b11 s
b1010000011011 5
b1010000011000000110 0
b10100000110 q
1%
#800000000
0%
#810000000
1#
1!
b1011 D
b1011 B
b1011000001011 E
0+
b1011000001011 ;
1*
07
19
b0 o
b0 T
b1 U
b100 f
b100 s
1%
#820000000
0%
#830000000
0#
0!
b1010 D
b1010 B
b1010000001010 E
1H
0*
b1000001010000001010 ;
16
09
b1 o
b1 S
b0 U
b0 f
b0 s
1%
