src/experiments/archive/pre_seminar/clock_divider/dump.vcd
$date
	Fri Jan 24 16:49:27 2025
$end
$version
	Icarus Verilog
$end
$timescale
	100fs
$end
$scope module testbench $end
$var wire 1 ! clk5 $end
$var wire 1 " clk4 $end
$var wire 1 # clk3 $end
$var wire 1 $ clk2 $end
$var wire 1 % clk1 $end
$var reg 1 & clk $end
$var reg 1 ' en $end
$var reg 1 ( rst $end
$scope module monitor $end
$var wire 1 & eta $end
$var wire 1 ( eta1 $end
$var wire 1 ' eta2 $end
$var wire 64 ) t_3 [63:0] $end
$var wire 64 * t_2 [63:0] $end
$var wire 64 + t_1 [63:0] $end
$var wire 64 , t_0 [63:0] $end
$var wire 64 - t [63:0] $end
$var wire 1 ! result_4 $end
$var wire 1 " result_3 $end
$var wire 64 . result_27 [63:0] $end
$var wire 1 / result_26 $end
$var wire 64 0 result_23 [63:0] $end
$var wire 1 1 result_22 $end
$var wire 1 # result_2 $end
$var wire 64 2 result_19 [63:0] $end
$var wire 1 3 result_18 $end
$var wire 64 4 result_15 [63:0] $end
$var wire 1 5 result_14 $end
$var wire 64 6 result_11 [63:0] $end
$var wire 1 7 result_10 $end
$var wire 1 $ result_1 $end
$var wire 1 % result_0 $end
$var wire 5 8 result [4:0] $end
$var wire 1 9 b_8 $end
$var wire 1 : b_7 $end
$var wire 1 ; b_6 $end
$var wire 1 < b_5 $end
$var wire 1 = b_4 $end
$var wire 1 > b_3 $end
$var wire 1 ? b_2 $end
$var wire 1 @ b_1 $end
$var wire 1 A b_0 $end
$var wire 1 B b $end
$var reg 64 C result_12 [63:0] $end
$var reg 1 D result_13 $end
$var reg 64 E result_16 [63:0] $end
$var reg 1 F result_17 $end
$var reg 64 G result_20 [63:0] $end
$var reg 1 H result_21 $end
$var reg 64 I result_24 [63:0] $end
$var reg 1 J result_25 $end
$var reg 64 K result_28 [63:0] $end
$var reg 1 L result_29 $end
$scope begin result_12_register $end
$upscope $end
$scope begin result_13_register $end
$upscope $end
$scope begin result_16_register $end
$upscope $end
$scope begin result_17_register $end
$upscope $end
$scope begin result_20_register $end
$upscope $end
$scope begin result_21_register $end
$upscope $end
$scope begin result_24_register $end
$upscope $end
$scope begin result_25_register $end
$upscope $end
$scope begin result_28_register $end
$upscope $end
$scope begin result_29_register $end
$upscope $end
$upscope $end
$upscope $end
$enddefinitions $end
$comment Show the parameter values. $end
$dumpall
$end
#0
$dumpvars
0L
b0 K
0J
b0 I
0H
b0 G
0F
b0 E
0D
b0 C
0B
0A
1@
1?
1>
1=
1<
1;
1:
19
b0 8
07
b0 6
15
b1 4
13
b1 2
11
b1 0
1/
b1 .
b1 -
b1 ,
b1 +
b1 *
b1 )
0(
1'
0&
0%
0$
0#
0"
0!
$end
#50000
1%
b10 .
1$
01
b0 0
1#
b10 2
1"
b10 4
1L
b10 )
b1 K
1J
0<
0;
b10 *
b1 I
1H
b10 +
b1 G
b11110 8
1F
b10 ,
b1 E
1&
#100000
0&
#150000
0/
b11 .
0$
11
b1 0
03
b11 2
b11 4
0:
b11 )
b10 K
b10110 8
0J
1<
1;
b1 *
b0 I
0>
b11 +
b10 G
b11 ,
b10 E
1&
#200000
0&
#250000
0%
b0 .
1$
01
b0 0
0#
b100 2
05
b100 4
0L
09
b100 )
b11 K
1J
0<
0;
b10 *
b1 I
b1010 8
0H
b100 +
b11 G
0@
b100 ,
b11 E
1&
#300000
0&
#350000
1/
b1 .
0$
11
b1 0
b0 2
0"
b101 4
1:
19
b1 )
b0 K
0J
1<
1;
b1 *
b0 I
0=
b101 +
b100 G
b0 8
0F
b101 ,
b100 E
1&
#400000
0&
#450000
1%
b10 .
1$
01
b0 0
13
b1 2
b0 4
1L
b10 )
b1 K
b11000 8
1J
0<
0;
b10 *
b1 I
1>
1=
b1 +
b0 G
0?
b110 ,
b101 E
1&
#500000
0&
#550000
0/
b11 .
0$
11
b1 0
1#
b10 2
15
b1 4
0:
b11 )
b10 K
0J
1<
1;
b1 *
b0 I
b10100 8
1H
b10 +
b1 G
1@
1?
b1 ,
b0 E
1&
#600000
0&
#650000
0%
b0 .
1$
01
b0 0
03
b11 2
1"
b10 4
0L
09
b100 )
b11 K
1J
0<
0;
b10 *
b1 I
0>
b11 +
b10 G
b1110 8
1F
b10 ,
b1 E
1&
#700000
0&
#750000
1/
b1 .
0$
11
b1 0
0#
b100 2
b11 4
1:
19
b1 )
b0 K
0J
1<
1;
b1 *
b0 I
b10 8
0H
b100 +
b11 G
b11 ,
b10 E
1&
#800000
0&
#850000
1%
b10 .
1$
01
b0 0
b0 2
05
b100 4
1L
b10 )
b1 K
b11010 8
1J
0<
0;
b10 *
b1 I
0=
b101 +
b100 G
0@
b100 ,
b11 E
1&
#900000
0&
#950000
0/
b11 .
0$
11
b1 0
13
b1 2
0"
b101 4
0:
b11 )
b10 K
0J
1<
1;
b1 *
b0 I
1>
1=
b1 +
b0 G
b10000 8
0F
b101 ,
b100 E
1&
#1000000
0&
#1050000
0%
b0 .
1$
01
b0 0
1#
b10 2
b0 4
0L
09
b100 )
b11 K
1J
0<
0;
b10 *
b1 I
b1100 8
1H
b10 +
b1 G
0?
b110 ,
b101 E
1&
#1100000
0&
#1150000
1/
b1 .
0$
11
b1 0
03
b11 2
15
b1 4
1:
19
b1 )
b0 K
b100 8
0J
1<
1;
b1 *
b0 I
0>
b11 +
b10 G
1@
1?
b1 ,
b0 E
1&
#1200000
0&
#1250000
1%
b10 .
1$
01
b0 0
0#
b100 2
1"
b10 4
1L
b10 )
b1 K
1J
0<
0;
b10 *
b1 I
0H
b100 +
b11 G
b11010 8
1F
b10 ,
b1 E
1&
#1300000
0&
#1350000
0/
b11 .
0$
11
b1 0
b0 2
b11 4
0:
b11 )
b10 K
b10010 8
0J
1<
1;
b1 *
b0 I
0=
b101 +
b100 G
b11 ,
b10 E
1&
#1400000
0&
#1450000
0%
b0 .
1$
01
b0 0
13
b1 2
05
b100 4
0L
09
b100 )
b11 K
b1010 8
1J
0<
0;
b10 *
b1 I
1>
1=
b1 +
b0 G
0@
b100 ,
b11 E
1&
#1500000
0&
#1550000
1/
b1 .
0$
11
b1 0
1#
b10 2
0"
b101 4
1:
19
b1 )
b0 K
0J
1<
1;
b1 *
b0 I
1H
b10 +
b1 G
b100 8
0F
b101 ,
b100 E
1&
#1600000
0&
#1650000
1%
b10 .
1$
01
b0 0
03
b11 2
b0 4
1L
b10 )
b1 K
b11100 8
1J
0<
0;
b10 *
b1 I
0>
b11 +
b10 G
0?
b110 ,
b101 E
1&
#1700000
0&
#1750000
0/
b11 .
0$
11
b1 0
0#
b100 2
15
b1 4
0:
b11 )
b10 K
0J
1<
1;
b1 *
b0 I
b10000 8
0H
b100 +
b11 G
1@
1?
b1 ,
b0 E
1&
#1800000
0&
#1850000
0%
b0 .
1$
01
b0 0
b0 2
1"
b10 4
0L
09
b100 )
b11 K
1J
0<
0;
b10 *
b1 I
0=
b101 +
b100 G
b1010 8
1F
b10 ,
b1 E
1&
#1900000
0&
#1950000
1/
b1 .
0$
11
b1 0
13
b1 2
b11 4
1:
19
b1 )
b0 K
b10 8
0J
1<
1;
b1 *
b0 I
1>
1=
b1 +
b0 G
b11 ,
b10 E
1&
#2000000
0&
#2050000
1%
b10 .
1$
01
b0 0
1#
b10 2
05
b100 4
1L
b10 )
b1 K
1J
0<
0;
b10 *
b1 I
b11110 8
1H
b10 +
b1 G
0@
b100 ,
b11 E
1&
#2100000
0&
#2150000
0/
b11 .
0$
11
b1 0
03
b11 2
0"
b101 4
0:
b11 )
b10 K
0J
1<
1;
b1 *
b0 I
0>
b11 +
b10 G
b10100 8
0F
b101 ,
b100 E
1&
#2200000
0&
#2250000
0%
b0 .
1$
01
b0 0
0#
b100 2
b0 4
0L
09
b100 )
b11 K
1J
0<
0;
b10 *
b1 I
b1000 8
0H
b100 +
b11 G
0?
b110 ,
b101 E
1&
#2300000
0&
#2350000
1/
b1 .
0$
11
b1 0
b0 2
15
b1 4
1:
19
b1 )
b0 K
b0 8
0J
1<
1;
b1 *
b0 I
0=
b101 +
b100 G
1@
1?
b1 ,
b0 E
1&
#2400000
0&
#2450000
1%
b10 .
1$
01
b0 0
13
b1 2
1"
b10 4
1L
b10 )
b1 K
1J
0<
0;
b10 *
b1 I
1>
1=
b1 +
b0 G
b11010 8
1F
b10 ,
b1 E
1&
#2500000
0&
#2550000
0/
b11 .
0$
11
b1 0
1#
b10 2
b11 4
0:
b11 )
b10 K
0J
1<
1;
b1 *
b0 I
b10110 8
1H
b10 +
b1 G
b11 ,
b10 E
1&
#2600000
0&
#2650000
0%
b0 .
1$
01
b0 0
03
b11 2
05
b100 4
0L
09
b100 )
b11 K
b1110 8
1J
0<
0;
b10 *
b1 I
0>
b11 +
b10 G
0@
b100 ,
b11 E
1&
#2700000
0&
#2750000
1/
b1 .
0$
11
b1 0
0#
b100 2
0"
b101 4
1:
19
b1 )
b0 K
0J
1<
1;
b1 *
b0 I
0H
b100 +
b11 G
b0 8
0F
b101 ,
b100 E
1&
#2800000
0&
#2850000
1%
b10 .
1$
01
b0 0
b0 2
b0 4
1L
b10 )
b1 K
b11000 8
1J
0<
0;
b10 *
b1 I
0=
b101 +
b100 G
0?
b110 ,
b101 E
1&
#2900000
0&
#2950000
0/
b11 .
0$
11
b1 0
13
b1 2
15
b1 4
0:
b11 )
b10 K
b10000 8
0J
1<
1;
b1 *
b0 I
1>
1=
b1 +
b0 G
1@
1?
b1 ,
b0 E
1&
#3000000
0&
#3050000
0%
b0 .
1$
01
b0 0
1#
b10 2
1"
b10 4
0L
09
b100 )
b11 K
1J
0<
0;
b10 *
b1 I
1H
b10 +
b1 G
b1110 8
1F
b10 ,
b1 E
1&
#3100000
0&
#3150000
1/
b1 .
0$
11
b1 0
03
b11 2
b11 4
1:
19
b1 )
b0 K
b110 8
0J
1<
1;
b1 *
b0 I
0>
b11 +
b10 G
b11 ,
b10 E
1&
#3200000
0&
#3250000
1%
b10 .
1$
01
b0 0
0#
b100 2
05
b100 4
1L
b10 )
b1 K
1J
0<
0;
b10 *
b1 I
b11010 8
0H
b100 +
b11 G
0@
b100 ,
b11 E
1&
#3300000
0&
#3350000
0/
b11 .
0$
11
b1 0
b0 2
0"
b101 4
0:
b11 )
b10 K
0J
1<
1;
b1 *
b0 I
0=
b101 +
b100 G
b10000 8
0F
b101 ,
b100 E
1&
#3400000
0&
#3450000
0%
b0 .
1$
01
b0 0
13
b1 2
b0 4
0L
09
b100 )
b11 K
b1000 8
1J
0<
0;
b10 *
b1 I
1>
1=
b1 +
b0 G
0?
b110 ,
b101 E
1&
#3500000
0&
#3550000
1/
b1 .
0$
11
b1 0
1#
b10 2
15
b1 4
1:
19
b1 )
b0 K
0J
1<
1;
b1 *
b0 I
b100 8
1H
b10 +
b1 G
1@
1?
b1 ,
b0 E
1&
#3600000
0&
#3650000
1%
b10 .
1$
01
b0 0
03
b11 2
1"
b10 4
1L
b10 )
b1 K
1J
0<
0;
b10 *
b1 I
0>
b11 +
b10 G
b11110 8
1F
b10 ,
b1 E
1&
#3700000
0&
#3750000
0/
b11 .
0$
11
b1 0
0#
b100 2
b11 4
0:
b11 )
b10 K
0J
1<
1;
b1 *
b0 I
b10010 8
0H
b100 +
b11 G
b11 ,
b10 E
1&
#3800000
0&
#3850000
0%
b0 .
1$
01
b0 0
b0 2
05
b100 4
0L
09
b100 )
b11 K
b1010 8
1J
0<
0;
b10 *
b1 I
0=
b101 +
b100 G
0@
b100 ,
b11 E
1&
#3900000
0&
#3950000
1/
b1 .
0$
11
b1 0
13
b1 2
0"
b101 4
1:
19
b1 )
b0 K
0J
1<
1;
b1 *
b0 I
1>
1=
b1 +
b0 G
b0 8
0F
b101 ,
b100 E
1&
#4000000
0&
#4050000
1%
b10 .
1$
01
b0 0
1#
b10 2
b0 4
1L
b10 )
b1 K
1J
0<
0;
b10 *
b1 I
b11100 8
1H
b10 +
b1 G
0?
b110 ,
b101 E
1&
#4100000
0&
#4150000
0/
b11 .
0$
11
b1 0
03
b11 2
15
b1 4
0:
b11 )
b10 K
b10100 8
0J
1<
1;
b1 *
b0 I
0>
b11 +
b10 G
1@
1?
b1 ,
b0 E
1&
#4200000
0&
#4250000
0%
b0 .
1$
01
b0 0
0#
b100 2
1"
b10 4
0L
09
b100 )
b11 K
1J
0<
0;
b10 *
b1 I
0H
b100 +
b11 G
b1010 8
1F
b10 ,
b1 E
1&
#4300000
0&
#4350000
1/
b1 .
0$
11
b1 0
b0 2
b11 4
1:
19
b1 )
b0 K
b10 8
0J
1<
1;
b1 *
b0 I
0=
b101 +
b100 G
b11 ,
b10 E
1&
#4400000
0&
#4450000
1%
b10 .
1$
01
b0 0
13
b1 2
05
b100 4
1L
b10 )
b1 K
b11010 8
1J
0<
0;
b10 *
b1 I
1>
1=
b1 +
b0 G
0@
b100 ,
b11 E
1&
#4500000
0&
#4550000
0/
b11 .
0$
11
b1 0
1#
b10 2
0"
b101 4
0:
b11 )
b10 K
0J
1<
1;
b1 *
b0 I
1H
b10 +
b1 G
b10100 8
0F
b101 ,
b100 E
1&
#4600000
0&
#4650000
0%
b0 .
1$
01
b0 0
03
b11 2
b0 4
0L
09
b100 )
b11 K
b1100 8
1J
0<
0;
b10 *
b1 I
0>
b11 +
b10 G
0?
b110 ,
b101 E
1&
#4700000
0&
#4750000
1/
b1 .
0$
11
b1 0
0#
b100 2
15
b1 4
1:
19
b1 )
b0 K
0J
1<
1;
b1 *
b0 I
b0 8
0H
b100 +
b11 G
1@
1?
b1 ,
b0 E
1&
#4800000
0&
#4850000
1%
b10 .
1$
01
b0 0
b0 2
1"
b10 4
1L
b10 )
b1 K
1J
0<
0;
b10 *
b1 I
0=
b101 +
b100 G
b11010 8
1F
b10 ,
b1 E
1&
#4900000
0&
#4950000
0/
b11 .
0$
11
b1 0
13
b1 2
b11 4
0:
b11 )
b10 K
b10010 8
0J
1<
1;
b1 *
b0 I
1>
1=
b1 +
b0 G
b11 ,
b10 E
1&
#5000000
0&
#5050000
0%
b0 .
1$
01
b0 0
1#
b10 2
05
b100 4
0L
09
b100 )
b11 K
1J
0<
0;
b10 *
b1 I
b1110 8
1H
b10 +
b1 G
0@
b100 ,
b11 E
1&
#5100000
0&
#5150000
1/
b1 .
0$
11
b1 0
03
b11 2
0"
b101 4
1:
19
b1 )
b0 K
0J
1<
1;
b1 *
b0 I
0>
b11 +
b10 G
b100 8
0F
b101 ,
b100 E
1&
#5200000
0&
#5250000
1%
b10 .
1$
01
b0 0
0#
b100 2
b0 4
1L
b10 )
b1 K
1J
0<
0;
b10 *
b1 I
b11000 8
0H
b100 +
b11 G
0?
b110 ,
b101 E
1&
#5300000
0&
#5350000
0/
b11 .
0$
11
b1 0
b0 2
15
b1 4
0:
b11 )
b10 K
b10000 8
0J
1<
1;
b1 *
b0 I
0=
b101 +
b100 G
1@
1?
b1 ,
b0 E
1&
#5400000
0&
#5450000
0%
b0 .
1$
01
b0 0
13
b1 2
1"
b10 4
0L
09
b100 )
b11 K
1J
0<
0;
b10 *
b1 I
1>
1=
b1 +
b0 G
b1010 8
1F
b10 ,
b1 E
1&
#5500000
0&
#5550000
1/
b1 .
0$
11
b1 0
1#
b10 2
b11 4
1:
19
b1 )
b0 K
0J
1<
1;
b1 *
b0 I
b110 8
1H
b10 +
b1 G
b11 ,
b10 E
1&
#5600000
0&
#5650000
1%
b10 .
1$
01
b0 0
03
b11 2
05
b100 4
1L
b10 )
b1 K
b11110 8
1J
0<
0;
b10 *
b1 I
0>
b11 +
b10 G
0@
b100 ,
b11 E
1&
#5700000
0&
#5750000
0/
b11 .
0$
11
b1 0
0#
b100 2
0"
b101 4
0:
b11 )
b10 K
0J
1<
1;
b1 *
b0 I
0H
b100 +
b11 G
b10000 8
0F
b101 ,
b100 E
1&
#5800000
0&
#5850000
0%
b0 .
1$
01
b0 0
b0 2
b0 4
0L
09
b100 )
b11 K
b1000 8
1J
0<
0;
b10 *
b1 I
0=
b101 +
b100 G
0?
b110 ,
b101 E
1&
#5900000
0&
#5950000
1/
b1 .
0$
11
b1 0
13
b1 2
15
b1 4
1:
19
b1 )
b0 K
b0 8
0J
1<
1;
b1 *
b0 I
1>
1=
b1 +
b0 G
1@
1?
b1 ,
b0 E
1&
#6000000
0&
#6050000
1%
b10 .
1$
01
b0 0
1#
b10 2
1"
b10 4
1L
b10 )
b1 K
1J
0<
0;
b10 *
b1 I
1H
b10 +
b1 G
b11110 8
1F
b10 ,
b1 E
1&
#6100000
0&
#6150000
0/
b11 .
0$
11
b1 0
03
b11 2
b11 4
0:
b11 )
b10 K
b10110 8
0J
1<
1;
b1 *
b0 I
0>
b11 +
b10 G
b11 ,
b10 E
1&
#6200000
0&
#6250000
0%
b0 .
1$
01
b0 0
0#
b100 2
05
b100 4
0L
09
b100 )
b11 K
1J
0<
0;
b10 *
b1 I
b1010 8
0H
b100 +
b11 G
0@
b100 ,
b11 E
1&
#6300000
0&
#6350000
1/
b1 .
0$
11
b1 0
b0 2
0"
b101 4
1:
19
b1 )
b0 K
0J
1<
1;
b1 *
b0 I
0=
b101 +
b100 G
b0 8
0F
b101 ,
b100 E
1&
#6400000
0&
#6450000
1%
b10 .
1$
01
b0 0
13
b1 2
b0 4
1L
b10 )
b1 K
b11000 8
1J
0<
0;
b10 *
b1 I
1>
1=
b1 +
b0 G
0?
b110 ,
b101 E
1&
#6500000
0&
#6550000
0/
b11 .
0$
11
b1 0
1#
b10 2
15
b1 4
0:
b11 )
b10 K
0J
1<
1;
b1 *
b0 I
b10100 8
1H
b10 +
b1 G
1@
1?
b1 ,
b0 E
1&
#6600000
0&
#6650000
0%
b0 .
1$
01
b0 0
03
b11 2
1"
b10 4
0L
09
b100 )
b11 K
1J
0<
0;
b10 *
b1 I
0>
b11 +
b10 G
b1110 8
1F
b10 ,
b1 E
1&
#6700000
0&
#6750000
1/
b1 .
0$
11
b1 0
0#
b100 2
b11 4
1:
19
b1 )
b0 K
0J
1<
1;
b1 *
b0 I
b10 8
0H
b100 +
b11 G
b11 ,
b10 E
1&
#6800000
0&
#6850000
1%
b10 .
1$
01
b0 0
b0 2
05
b100 4
1L
b10 )
b1 K
b11010 8
1J
0<
0;
b10 *
b1 I
0=
b101 +
b100 G
0@
b100 ,
b11 E
1&
#6900000
0&
#6950000
0/
b11 .
0$
11
b1 0
13
b1 2
0"
b101 4
0:
b11 )
b10 K
0J
1<
1;
b1 *
b0 I
1>
1=
b1 +
b0 G
b10000 8
0F
b101 ,
b100 E
1&
#7000000
0&
#7050000
0%
b0 .
1$
01
b0 0
1#
b10 2
b0 4
0L
09
b100 )
b11 K
1J
0<
0;
b10 *
b1 I
b1100 8
1H
b10 +
b1 G
0?
b110 ,
b101 E
1&
#7100000
0&
#7150000
1/
b1 .
0$
11
b1 0
03
b11 2
15
b1 4
1:
19
b1 )
b0 K
b100 8
0J
1<
1;
b1 *
b0 I
0>
b11 +
b10 G
1@
1?
b1 ,
b0 E
1&
#7200000
0&
#7250000
1%
b10 .
1$
01
b0 0
0#
b100 2
1"
b10 4
1L
b10 )
b1 K
1J
0<
0;
b10 *
b1 I
0H
b100 +
b11 G
b11010 8
1F
b10 ,
b1 E
1&
#7300000
0&
#7350000
0/
b11 .
0$
11
b1 0
b0 2
b11 4
0:
b11 )
b10 K
b10010 8
0J
1<
1;
b1 *
b0 I
0=
b101 +
b100 G
b11 ,
b10 E
1&
#7400000
0&
#7450000
0%
b0 .
1$
01
b0 0
13
b1 2
05
b100 4
0L
09
b100 )
b11 K
b1010 8
1J
0<
0;
b10 *
b1 I
1>
1=
b1 +
b0 G
0@
b100 ,
b11 E
1&
#7500000
0&
#7550000
1/
b1 .
0$
11
b1 0
1#
b10 2
0"
b101 4
1:
19
b1 )
b0 K
0J
1<
1;
b1 *
b0 I
1H
b10 +
b1 G
b100 8
0F
b101 ,
b100 E
1&
#7600000
0&
#7650000
1%
b10 .
1$
01
b0 0
03
b11 2
b0 4
1L
b10 )
b1 K
b11100 8
1J
0<
0;
b10 *
b1 I
0>
b11 +
b10 G
0?
b110 ,
b101 E
1&
#7700000
0&
#7750000
0/
b11 .
0$
11
b1 0
0#
b100 2
15
b1 4
0:
b11 )
b10 K
0J
1<
1;
b1 *
b0 I
b10000 8
0H
b100 +
b11 G
1@
1?
b1 ,
b0 E
1&
#7800000
0&
#7850000
0%
b0 .
1$
01
b0 0
b0 2
1"
b10 4
0L
09
b100 )
b11 K
1J
0<
0;
b10 *
b1 I
0=
b101 +
b100 G
b1010 8
1F
b10 ,
b1 E
1&
#7900000
0&
#7950000
1/
b1 .
0$
11
b1 0
13
b1 2
b11 4
1:
19
b1 )
b0 K
b10 8
0J
1<
1;
b1 *
b0 I
1>
1=
b1 +
b0 G
b11 ,
b10 E
1&
#8000000
0&
#8050000
1%
b10 .
1$
01
b0 0
1#
b10 2
05
b100 4
1L
b10 )
b1 K
1J
0<
0;
b10 *
b1 I
b11110 8
1H
b10 +
b1 G
0@
b100 ,
b11 E
1&
#8100000
0&
#8150000
0/
b11 .
0$
11
b1 0
03
b11 2
0"
b101 4
0:
b11 )
b10 K
0J
1<
1;
b1 *
b0 I
0>
b11 +
b10 G
b10100 8
0F
b101 ,
b100 E
1&
#8200000
0&
#8250000
0%
b0 .
1$
01
b0 0
0#
b100 2
b0 4
0L
09
b100 )
b11 K
1J
0<
0;
b10 *
b1 I
b1000 8
0H
b100 +
b11 G
0?
b110 ,
b101 E
1&
#8300000
0&
#8350000
1/
b1 .
0$
11
b1 0
b0 2
15
b1 4
1:
19
b1 )
b0 K
b0 8
0J
1<
1;
b1 *
b0 I
0=
b101 +
b100 G
1@
1?
b1 ,
b0 E
1&
#8400000
0&
#8450000
1%
b10 .
1$
01
b0 0
13
b1 2
1"
b10 4
1L
b10 )
b1 K
1J
0<
0;
b10 *
b1 I
1>
1=
b1 +
b0 G
b11010 8
1F
b10 ,
b1 E
1&
#8500000
0&
#8550000
0/
b11 .
0$
11
b1 0
1#
b10 2
b11 4
0:
b11 )
b10 K
0J
1<
1;
b1 *
b0 I
b10110 8
1H
b10 +
b1 G
b11 ,
b10 E
1&
#8600000
0&
#8650000
0%
b0 .
1$
01
b0 0
03
b11 2
05
b100 4
0L
09
b100 )
b11 K
b1110 8
1J
0<
0;
b10 *
b1 I
0>
b11 +
b10 G
0@
b100 ,
b11 E
1&
#8700000
0&
#8750000
1/
b1 .
0$
11
b1 0
0#
b100 2
0"
b101 4
1:
19
b1 )
b0 K
0J
1<
1;
b1 *
b0 I
0H
b100 +
b11 G
b0 8
0F
b101 ,
b100 E
1&
#8800000
0&
#8850000
1%
b10 .
1$
01
b0 0
b0 2
b0 4
1L
b10 )
b1 K
b11000 8
1J
0<
0;
b10 *
b1 I
0=
b101 +
b100 G
0?
b110 ,
b101 E
1&
#8900000
0&
#8950000
0/
b11 .
0$
11
b1 0
13
b1 2
15
b1 4
0:
b11 )
b10 K
b10000 8
0J
1<
1;
b1 *
b0 I
1>
1=
b1 +
b0 G
1@
1?
b1 ,
b0 E
1&
#9000000
0&
#9050000
0%
b0 .
1$
01
b0 0
1#
b10 2
1"
b10 4
0L
09
b100 )
b11 K
1J
0<
0;
b10 *
b1 I
1H
b10 +
b1 G
b1110 8
1F
b10 ,
b1 E
1&
#9100000
0&
#9150000
1/
b1 .
0$
11
b1 0
03
b11 2
b11 4
1:
19
b1 )
b0 K
b110 8
0J
1<
1;
b1 *
b0 I
0>
b11 +
b10 G
b11 ,
b10 E
1&
#9200000
0&
#9250000
1%
b10 .
1$
01
b0 0
0#
b100 2
05
b100 4
1L
b10 )
b1 K
1J
0<
0;
b10 *
b1 I
b11010 8
0H
b100 +
b11 G
0@
b100 ,
b11 E
1&
#9300000
0&
#9350000
0/
b11 .
0$
11
b1 0
b0 2
0"
b101 4
0:
b11 )
b10 K
0J
1<
1;
b1 *
b0 I
0=
b101 +
b100 G
b10000 8
0F
b101 ,
b100 E
1&
#9400000
0&
#9450000
0%
b0 .
1$
01
b0 0
13
b1 2
b0 4
0L
09
b100 )
b11 K
b1000 8
1J
0<
0;
b10 *
b1 I
1>
1=
b1 +
b0 G
0?
b110 ,
b101 E
1&
#9500000
0&
#9550000
1/
b1 .
0$
11
b1 0
1#
b10 2
15
b1 4
1:
19
b1 )
b0 K
0J
1<
1;
b1 *
b0 I
b100 8
1H
b10 +
b1 G
1@
1?
b1 ,
b0 E
1&
#9600000
0&
#9650000
1%
b10 .
1$
01
b0 0
03
b11 2
1"
b10 4
1L
b10 )
b1 K
1J
0<
0;
b10 *
b1 I
0>
b11 +
b10 G
b11110 8
1F
b10 ,
b1 E
1&
#9700000
0&
#9750000
0/
b11 .
0$
11
b1 0
0#
b100 2
b11 4
0:
b11 )
b10 K
0J
1<
1;
b1 *
b0 I
b10010 8
0H
b100 +
b11 G
b11 ,
b10 E
1&
#9800000
0&
#9850000
0%
b0 .
1$
01
b0 0
b0 2
05
b100 4
0L
09
b100 )
b11 K
b1010 8
1J
0<
0;
b10 *
b1 I
0=
b101 +
b100 G
0@
b100 ,
b11 E
1&
#9900000
0&
#9950000
1/
b1 .
0$
11
b1 0
13
b1 2
0"
b101 4
1:
19
b1 )
b0 K
0J
1<
1;
b1 *
b0 I
1>
1=
b1 +
b0 G
b0 8
0F
b101 ,
b100 E
1&
#10000000
0&
#10050000
1%
b10 .
1$
01
b0 0
1#
b10 2
b0 4
1L
b10 )
b1 K
1J
0<
0;
b10 *
b1 I
b11100 8
1H
b10 +
b1 G
0?
b110 ,
b101 E
1&
#10100000
0&
#10150000
0/
b11 .
0$
11
b1 0
03
b11 2
15
b1 4
0:
b11 )
b10 K
b10100 8
0J
1<
1;
b1 *
b0 I
0>
b11 +
b10 G
1@
1?
b1 ,
b0 E
1&
#10200000
0&
#10250000
0%
b0 .
1$
01
b0 0
0#
b100 2
1"
b10 4
0L
09
b100 )
b11 K
1J
0<
0;
b10 *
b1 I
0H
b100 +
b11 G
b1010 8
1F
b10 ,
b1 E
1&
#10300000
0&
#10350000
1/
b1 .
0$
11
b1 0
b0 2
b11 4
1:
19
b1 )
b0 K
b10 8
0J
1<
1;
b1 *
b0 I
0=
b101 +
b100 G
b11 ,
b10 E
1&
#10400000
0&
#10450000
1%
b10 .
1$
01
b0 0
13
b1 2
05
b100 4
1L
b10 )
b1 K
b11010 8
1J
0<
0;
b10 *
b1 I
1>
1=
b1 +
b0 G
0@
b100 ,
b11 E
1&
#10500000
0&
#10550000
0/
b11 .
0$
11
b1 0
1#
b10 2
0"
b101 4
0:
b11 )
b10 K
0J
1<
1;
b1 *
b0 I
1H
b10 +
b1 G
b10100 8
0F
b101 ,
b100 E
1&
#10600000
0&
#10650000
0%
b0 .
1$
01
b0 0
03
b11 2
b0 4
0L
09
b100 )
b11 K
b1100 8
1J
0<
0;
b10 *
b1 I
0>
b11 +
b10 G
0?
b110 ,
b101 E
1&
#10700000
0&
#10750000
1/
b1 .
0$
11
b1 0
0#
b100 2
15
b1 4
1:
19
b1 )
b0 K
0J
1<
1;
b1 *
b0 I
b0 8
0H
b100 +
b11 G
1@
1?
b1 ,
b0 E
1&
#10800000
0&
#10850000
1%
b10 .
1$
01
b0 0
b0 2
1"
b10 4
1L
b10 )
b1 K
1J
0<
0;
b10 *
b1 I
0=
b101 +
b100 G
b11010 8
1F
b10 ,
b1 E
1&
#10900000
0&
#10950000
0/
b11 .
0$
11
b1 0
13
b1 2
b11 4
0:
b11 )
b10 K
b10010 8
0J
1<
1;
b1 *
b0 I
1>
1=
b1 +
b0 G
b11 ,
b10 E
1&
#11000000
0&
#11050000
0%
b0 .
1$
01
b0 0
1#
b10 2
05
b100 4
0L
09
b100 )
b11 K
1J
0<
0;
b10 *
b1 I
b1110 8
1H
b10 +
b1 G
0@
b100 ,
b11 E
1&
#11100000
0&
#11150000
1/
b1 .
0$
11
b1 0
03
b11 2
0"
b101 4
1:
19
b1 )
b0 K
0J
1<
1;
b1 *
b0 I
0>
b11 +
b10 G
b100 8
0F
b101 ,
b100 E
1&
#11200000
0&
#11250000
1%
b10 .
1$
01
b0 0
0#
b100 2
b0 4
1L
b10 )
b1 K
1J
0<
0;
b10 *
b1 I
b11000 8
0H
b100 +
b11 G
0?
b110 ,
b101 E
1&
#11300000
0&
#11350000
0/
b11 .
0$
11
b1 0
b0 2
15
b1 4
0:
b11 )
b10 K
b10000 8
0J
1<
1;
b1 *
b0 I
0=
b101 +
b100 G
1@
1?
b1 ,
b0 E
1&
#11400000
0&
#11450000
0%
b0 .
1$
01
b0 0
13
b1 2
1"
b10 4
0L
09
b100 )
b11 K
1J
0<
0;
b10 *
b1 I
1>
1=
b1 +
b0 G
b1010 8
1F
b10 ,
b1 E
1&
#11500000
0&
#11550000
1/
b1 .
0$
11
b1 0
1#
b10 2
b11 4
1:
19
b1 )
b0 K
0J
1<
1;
b1 *
b0 I
b110 8
1H
b10 +
b1 G
b11 ,
b10 E
1&
#11600000
0&
#11650000
1%
b10 .
1$
01
b0 0
03
b11 2
05
b100 4
1L
b10 )
b1 K
b11110 8
1J
0<
0;
b10 *
b1 I
0>
b11 +
b10 G
0@
b100 ,
b11 E
1&
#11700000
0&
#11750000
0/
b11 .
0$
11
b1 0
0#
b100 2
0"
b101 4
0:
b11 )
b10 K
0J
1<
1;
b1 *
b0 I
0H
b100 +
b11 G
b10000 8
0F
b101 ,
b100 E
1&
#11800000
0&
#11850000
0%
b0 .
1$
01
b0 0
b0 2
b0 4
0L
09
b100 )
b11 K
b1000 8
1J
0<
0;
b10 *
b1 I
0=
b101 +
b100 G
0?
b110 ,
b101 E
1&
#11900000
0&
