src/end_to_end_tests/tests/simple_graph/generated/dump.vcd
$date
	Mon Jul 21 18:42:46 2025
$end
$version
	Icarus Verilog
$end
$timescale
	100fs
$end
$scope module testbench $end
$var wire 1 ! q_push_valid $end
$var wire 1 " q_push $end
$var wire 1 # q_pop_valid $end
$var wire 1 $ q_pop $end
$var wire 1 % output_3_aktv $end
$var wire 64 & output_3 [63:0] $end
$var wire 1 ' output_2_aktv $end
$var wire 64 ( output_2 [63:0] $end
$var wire 1 ) output_1_aktv $end
$var wire 64 * output_1 [63:0] $end
$var wire 1 + output_0_aktv $end
$var wire 64 , output_0 [63:0] $end
$var wire 1 - enable_out3 $end
$var wire 1 . enable_out2 $end
$var wire 1 / enable_out1 $end
$var wire 1 0 enable_out0 $end
$var wire 1 1 enable_in0 $end
$var reg 1 2 clk $end
$var reg 1 3 en $end
$var reg 64 4 input_0 [63:0] $end
$var reg 1 5 new_input_0 $end
$var reg 1 6 rst $end
$scope module monitor $end
$var wire 1 7 b $end
$var wire 1 8 b_6 $end
$var wire 70 9 \c$case_alt_4 [69:0] $end
$var wire 1 2 clk $end
$var wire 1 3 en $end
$var wire 64 : inputs_0 [63:0] $end
$var wire 1 5 inputs_1 $end
$var wire 1 ; iterateI_ho1_0_arg0 $end
$var wire 1 < iterateI_ho1_0_arg0_0 $end
$var wire 1 = iterateI_ho1_0_arg0_1 $end
$var wire 1 > iterateI_ho1_0_arg0_2 $end
$var wire 1 ? iterateI_ho1_0_res $end
$var wire 1 @ iterateI_ho1_0_res_0 $end
$var wire 1 A iterateI_ho1_0_res_1 $end
$var wire 1 B iterateI_ho1_0_res_2 $end
$var wire 1 C iterateI_ho1_0_res_3 $end
$var wire 40 D iterateI_ho1_0_res_4 [39:0] $end
$var wire 40 E iterateI_ho1_0_res_5 [39:0] $end
$var wire 1 F iterateI_ho1_0_res_6 $end
$var wire 1 G iterateI_ho1_0_res_7 $end
$var wire 1 H iterateI_ho1_0_res_8 $end
$var wire 1 I iterateI_ho1_0_res_9 $end
$var wire 1 J iterateI_ho1_1_res $end
$var wire 1 K iterateI_ho1_1_res_0 $end
$var wire 1 L iterateI_ho1_1_res_1 $end
$var wire 1 M iterateI_ho1_1_res_2 $end
$var wire 1 N iterateI_ho1_1_res_3 $end
$var wire 40 O iterateI_ho1_1_res_4 [39:0] $end
$var wire 1 P iterateI_ho1_1_res_5 $end
$var wire 1 Q iterateI_ho1_1_res_6 $end
$var wire 1 R iterateI_ho1_1_res_7 $end
$var wire 1 S iterateI_ho1_2_res $end
$var wire 1 T iterateI_ho1_2_res_0 $end
$var wire 1 U iterateI_ho1_2_res_1 $end
$var wire 1 V iterateI_ho1_2_res_2 $end
$var wire 1 W iterateI_ho1_2_res_3 $end
$var wire 1 X iterateI_ho1_2_res_4 $end
$var wire 1 Y iterateI_ho1_3_res $end
$var wire 1 Z iterateI_ho1_3_res_0 $end
$var wire 1 [ iterateI_ho1_3_res_1 $end
$var wire 1 \ iterateI_ho1_3_res_2 $end
$var wire 1 ] pIn0 $end
$var wire 1 6 rst $end
$var wire 1 ^ x $end
$var wire 1 _ x_0 $end
$var wire 1 ` x_1 $end
$var wire 1 a x_10 $end
$var wire 1 b x_11 $end
$var wire 1 c x_12 $end
$var wire 1 d x_13 $end
$var wire 64 e x_14 [63:0] $end
$var wire 64 f x_15 [63:0] $end
$var wire 1 g x_2 $end
$var wire 1 h x_3 $end
$var wire 64 i x_4 [63:0] $end
$var wire 1 j x_5 $end
$var wire 64 k x_6 [63:0] $end
$var wire 1 l x_7 $end
$var wire 1 m x_8 $end
$var wire 64 n x_9 [63:0] $end
$var wire 64 o y [63:0] $end
$var wire 8 p winTag_0 [7:0] $end
$var wire 8 q winTag [7:0] $end
$var wire 64 r winData_0 [63:0] $end
$var wire 64 s winData [63:0] $end
$var wire 8 t tag_3 [7:0] $end
$var wire 8 u tag_2 [7:0] $end
$var wire 8 v tag_1 [7:0] $end
$var wire 8 w tag_0 [7:0] $end
$var wire 8 x tagToMatch_1 [7:0] $end
$var wire 8 y tagToMatch_0 [7:0] $end
$var wire 8 z tagToMatch [7:0] $end
$var wire 8 { tag [7:0] $end
$var wire 72 | t_1 [71:0] $end
$var wire 72 } t_0 [71:0] $end
$var wire 72 ~ t [71:0] $end
$var wire 72 !" result_8 [71:0] $end
$var wire 1 "" result_7 $end
$var wire 1 #" result_6 $end
$var wire 1 $" result_5 $end
$var wire 72 %" result_41 [71:0] $end
$var wire 1 &" result_40 $end
$var wire 1 '" result_4 $end
$var wire 64 (" result_39 [63:0] $end
$var wire 64 )" result_38 [63:0] $end
$var wire 1 *" result_37 $end
$var wire 8 +" result_36 [7:0] $end
$var wire 8 ," result_35 [7:0] $end
$var wire 1 -" result_34 $end
$var wire 1 ." result_33 $end
$var wire 1 /" result_32 $end
$var wire 1 0" result_31 $end
$var wire 8 1" result_30 [7:0] $end
$var wire 266 2" result_3 [265:0] $end
$var wire 8 3" result_29 [7:0] $end
$var wire 8 4" result_28 [7:0] $end
$var wire 8 5" result_27 [7:0] $end
$var wire 8 6" result_26 [7:0] $end
$var wire 8 7" result_25 [7:0] $end
$var wire 8 8" result_24 [7:0] $end
$var wire 8 9" result_23 [7:0] $end
$var wire 40 :" result_22 [39:0] $end
$var wire 40 ;" result_21 [39:0] $end
$var wire 1 <" result_20 $end
$var wire 71 =" result_2 [70:0] $end
$var wire 1 - result_1_4_4 $end
$var wire 1 . result_1_4_3 $end
$var wire 1 / result_1_4_2 $end
$var wire 5 >" result_1_4_13 [4:0] $end
$var wire 1 0 result_1_4_1 $end
$var wire 1 1 result_1_4_0 $end
$var wire 1 # result_1_3 $end
$var wire 1 ! result_1_2 $end
$var wire 1 $ result_1_1 $end
$var wire 1 " result_1_0 $end
$var wire 72 ?" result_18 [71:0] $end
$var wire 8 @" result_17 [7:0] $end
$var wire 8 A" result_16 [7:0] $end
$var wire 72 B" result_14 [71:0] $end
$var wire 72 C" result_12 [71:0] $end
$var wire 72 D" result_10 [71:0] $end
$var wire 9 E" result_1 [8:0] $end
$var wire 1 % result_0_3_1 $end
$var wire 64 F" result_0_3_0 [63:0] $end
$var wire 65 G" result_0_3 [64:0] $end
$var wire 1 ' result_0_2_1 $end
$var wire 64 H" result_0_2_0 [63:0] $end
$var wire 65 I" result_0_2 [64:0] $end
$var wire 1 ) result_0_1_1 $end
$var wire 64 J" result_0_1_0 [63:0] $end
$var wire 65 K" result_0_1 [64:0] $end
$var wire 1 + result_0_0_1 $end
$var wire 64 L" result_0_0_0 [63:0] $end
$var wire 65 M" result_0_0 [64:0] $end
$var wire 260 N" result_0 [259:0] $end
$var wire 269 O" result [268:0] $end
$var wire 1 P" qPush $end
$var wire 1 Q" qPopValid $end
$var wire 1 R" qPop $end
$var wire 70 S" qData [69:0] $end
$var wire 5 T" pacings [4:0] $end
$var wire 1 U" pOut3 $end
$var wire 1 V" pOut2 $end
$var wire 1 W" pOut1 $end
$var wire 1 X" pOut0 $end
$var wire 1 Y" pIn0_0 $end
$var wire 40 Z" iterateI_ho1_0_arg0_4 [39:0] $end
$var wire 40 [" iterateI_ho1_0_arg0_3 [39:0] $end
$var wire 65 \" inputs [64:0] $end
$var wire 1 ]" hasInput0 $end
$var wire 8 ^" f1_3 [7:0] $end
$var wire 8 _" f1_2 [7:0] $end
$var wire 8 `" f1_1 [7:0] $end
$var wire 8 a" f1_0 [7:0] $end
$var wire 8 b" f1 [7:0] $end
$var wire 64 c" dta_1 [63:0] $end
$var wire 64 d" dta_0 [63:0] $end
$var wire 64 e" dta [63:0] $end
$var wire 64 f" \c$tte_rhs_0 [63:0] $end
$var wire 64 g" \c$tte_rhs [63:0] $end
$var wire 64 h" \c$out3_case_alt [63:0] $end
$var wire 64 i" \c$out2_case_alt [63:0] $end
$var wire 64 j" \c$out1_case_alt [63:0] $end
$var wire 64 k" \c$out0_case_alt_0 [63:0] $end
$var wire 64 l" \c$out0_case_alt [63:0] $end
$var wire 1 m" \c$cursor_case_scrut $end
$var wire 64 n" \c$cursor_case_alt_4 [63:0] $end
$var wire 64 o" \c$cursor_case_alt_2 [63:0] $end
$var wire 64 p" \c$cursor_case_alt_1 [63:0] $end
$var wire 64 q" \c$cursor_case_alt_0 [63:0] $end
$var wire 64 r" \c$cursor_case_alt [63:0] $end
$var wire 1 s" \c$case_alt_8 $end
$var wire 1 t" \c$case_alt_7 $end
$var wire 1 u" \c$case_alt_6 $end
$var wire 1 v" \c$case_alt_5 $end
$var wire 1 w" \c$case_alt_12 $end
$var wire 1 x" \c$case_alt_11 $end
$var wire 1 y" \c$case_alt_10 $end
$var wire 70 z" \c$case_alt_1 [69:0] $end
$var wire 70 {" \c$case_alt_0 [69:0] $end
$var wire 70 |" \c$case_alt [69:0] $end
$var wire 280 }" \c$buffer_case_alt_sel_alt_t_1 [279:0] $end
$var wire 280 ~" \c$buffer_case_alt_sel_alt_f_2 [279:0] $end
$var wire 210 !# \c$buffer_case_alt_1 [209:0] $end
$var wire 210 "# \c$buffer_case_alt_0 [209:0] $end
$var wire 210 ## \c$buffer_case_alt [209:0] $end
$var wire 4 $# \c$app_arg_9 [3:0] $end
$var wire 3 %# \c$app_arg_8 [2:0] $end
$var wire 80 &# \c$app_arg_7 [79:0] $end
$var wire 120 '# \c$app_arg_6 [119:0] $end
$var wire 4 (# \c$app_arg_5 [3:0] $end
$var wire 8 )# \c$app_arg_4 [7:0] $end
$var wire 8 *# \c$app_arg_3 [7:0] $end
$var wire 5 +# \c$app_arg_2 [4:0] $end
$var wire 2 ,# \c$app_arg_11 [1:0] $end
$var wire 3 -# \c$app_arg_10 [2:0] $end
$var wire 5 .# \c$app_arg_1 [4:0] $end
$var wire 5 /# \c$app_arg_0 [4:0] $end
$var wire 5 0# \c$app_arg [4:0] $end
$var wire 1 1# b_5 $end
$var wire 1 2# b_4 $end
$var wire 1 3# b_3 $end
$var wire 1 4# b_2 $end
$var wire 1 5# b_1 $end
$var wire 1 6# b_0 $end
$var reg 210 7# buffer [209:0] $end
$var reg 70 8# \c$app_arg_12 [69:0] $end
$var reg 1 9# \c$app_arg_13 $end
$var reg 1 :# \c$app_arg_14 $end
$var reg 1 ? \c$bb_res_res $end
$var reg 1 J \c$bb_res_res_0 $end
$var reg 1 S \c$bb_res_res_1 $end
$var reg 1 [ \c$bb_res_res_10 $end
$var reg 1 B \c$bb_res_res_11 $end
$var reg 1 M \c$bb_res_res_12 $end
$var reg 1 V \c$bb_res_res_13 $end
$var reg 1 \ \c$bb_res_res_14 $end
$var reg 1 C \c$bb_res_res_15 $end
$var reg 1 N \c$bb_res_res_16 $end
$var reg 1 W \c$bb_res_res_17 $end
$var reg 40 ;# \c$bb_res_res_18 [39:0] $end
$var reg 40 <# \c$bb_res_res_19 [39:0] $end
$var reg 1 Y \c$bb_res_res_2 $end
$var reg 40 =# \c$bb_res_res_20 [39:0] $end
$var reg 1 F \c$bb_res_res_21 $end
$var reg 1 P \c$bb_res_res_22 $end
$var reg 1 G \c$bb_res_res_23 $end
$var reg 1 Q \c$bb_res_res_24 $end
$var reg 1 X \c$bb_res_res_25 $end
$var reg 1 H \c$bb_res_res_26 $end
$var reg 1 R \c$bb_res_res_27 $end
$var reg 1 I \c$bb_res_res_28 $end
$var reg 1 @ \c$bb_res_res_3 $end
$var reg 1 K \c$bb_res_res_4 $end
$var reg 1 T \c$bb_res_res_5 $end
$var reg 1 Z \c$bb_res_res_6 $end
$var reg 1 A \c$bb_res_res_7 $end
$var reg 1 L \c$bb_res_res_8 $end
$var reg 1 U \c$bb_res_res_9 $end
$var reg 70 ># \c$case_alt_2 [69:0] $end
$var reg 70 ?# \c$case_alt_3 [69:0] $end
$var reg 1 @# \c$case_alt_9 $end
$var reg 64 A# \c$cursor_case_alt_3 [63:0] $end
$var reg 64 B# \c$ds_app_arg [63:0] $end
$var reg 64 C# cursor [63:0] $end
$var reg 72 D# result_11 [71:0] $end
$var reg 72 E# result_13 [71:0] $end
$var reg 72 F# result_15 [71:0] $end
$var reg 72 G# result_19 [71:0] $end
$var reg 72 H# result_9 [71:0] $end
$var reg 8 I# t_2 [7:0] $end
$var reg 8 J# t_3 [7:0] $end
$var reg 8 K# t_4 [7:0] $end
$var reg 8 L# t_5 [7:0] $end
$var reg 8 M# t_6 [7:0] $end
$var reg 64 N# toWait [63:0] $end
$scope begin mk_array[0] $end
$var parameter 2 O# i $end
$upscope $end
$scope begin mk_array[1] $end
$var parameter 2 P# i $end
$upscope $end
$scope begin mk_array[2] $end
$var parameter 3 Q# i $end
$upscope $end
$scope begin buffer_register $end
$upscope $end
$scope begin c$app_arg_12_register $end
$upscope $end
$scope begin c$app_arg_13_register $end
$upscope $end
$scope begin c$app_arg_14_register $end
$upscope $end
$scope begin c$bb_res_res_0_delay $end
$upscope $end
$scope begin c$bb_res_res_10_delay $end
$upscope $end
$scope begin c$bb_res_res_11_delay $end
$upscope $end
$scope begin c$bb_res_res_12_delay $end
$upscope $end
$scope begin c$bb_res_res_13_delay $end
$upscope $end
$scope begin c$bb_res_res_14_delay $end
$upscope $end
$scope begin c$bb_res_res_15_delay $end
$upscope $end
$scope begin c$bb_res_res_16_delay $end
$upscope $end
$scope begin c$bb_res_res_17_delay $end
$upscope $end
$scope begin c$bb_res_res_18_delay $end
$upscope $end
$scope begin c$bb_res_res_19_delay $end
$upscope $end
$scope begin c$bb_res_res_1_delay $end
$upscope $end
$scope begin c$bb_res_res_20_delay $end
$upscope $end
$scope begin c$bb_res_res_21_delay $end
$upscope $end
$scope begin c$bb_res_res_22_delay $end
$upscope $end
$scope begin c$bb_res_res_23_delay $end
$upscope $end
$scope begin c$bb_res_res_24_delay $end
$upscope $end
$scope begin c$bb_res_res_25_delay $end
$upscope $end
$scope begin c$bb_res_res_26_delay $end
$upscope $end
$scope begin c$bb_res_res_27_delay $end
$upscope $end
$scope begin c$bb_res_res_28_delay $end
$upscope $end
$scope begin c$bb_res_res_2_delay $end
$upscope $end
$scope begin c$bb_res_res_3_delay $end
$upscope $end
$scope begin c$bb_res_res_4_delay $end
$upscope $end
$scope begin c$bb_res_res_5_delay $end
$upscope $end
$scope begin c$bb_res_res_6_delay $end
$upscope $end
$scope begin c$bb_res_res_7_delay $end
$upscope $end
$scope begin c$bb_res_res_8_delay $end
$upscope $end
$scope begin c$bb_res_res_9_delay $end
$upscope $end
$scope begin c$bb_res_res_delay $end
$upscope $end
$scope begin c$ds_app_arg_delay $end
$upscope $end
$scope begin cursor_register $end
$upscope $end
$scope begin result_11_register $end
$upscope $end
$scope begin result_13_register $end
$upscope $end
$scope begin result_15_register $end
$upscope $end
$scope begin result_19_register $end
$upscope $end
$scope begin result_9_register $end
$upscope $end
$scope begin t_2_register $end
$upscope $end
$scope begin t_3_register $end
$upscope $end
$scope begin t_4_register $end
$upscope $end
$scope begin t_5_register $end
$upscope $end
$scope begin t_6_register $end
$upscope $end
$scope begin toWait_register $end
$upscope $end
$upscope $end
$upscope $end
$enddefinitions $end
$comment Show the parameter values. $end
$dumpall
b10 Q#
b1 P#
b0 O#
$end
#20000000
$dumpvars
b0 N#
b1 M#
b1 L#
b1 K#
b1 J#
b1 I#
b110000000000000000000000000000000000000000000000000000000000000000 H#
b110000000000000000000000000000000000000000000000000000000000000000 G#
b110000000000000000000000000000000000000000000000000000000000000000 F#
b110000000000000000000000000000000000000000000000000000000000000000 E#
b110000000000000000000000000000000000000000000000000000000000000000 D#
b0 C#
b0 B#
b0 A#
0@#
b0 ?#
bx000000 >#
b100000001000000010000000100000001 =#
b100000001000000010000000100000001 <#
b100000001000000010000000100000001 ;#
0:#
09#
b0 8#
b0 7#
06#
05#
04#
03#
02#
01#
b0 0#
b0 /#
b0 .#
b0 -#
b0 ,#
b0 +#
b0 *#
b0 )#
b0 (#
b10000000100000001000000010000000100000001000000010000000100000001000000010000000100000001000000010000000100000001 '#
b1000000010000000100000001000000010000000100000001000000010000000100000001 &#
b0 %#
b0 $#
b0 ##
bx00000000000000000000000000000000000000000000000000000000000000000000000000000000000000000000000000000000000000000000000000000000000000000000000000 "#
bx00000000000000000000000000000000000000000000000000000000000000000000000000000000000000000000000000000000000000000000000000000000000000000000000000 !#
bx000000000000000000000000000000000000000000000000000000000000000000000000000000000000000000000000000000000000000000000000000000000000000000000000000000000000000000000000000000000000000000000000000000000000000000000000 ~"
bx000000000000000000000000000000000000000000000000000000000000000000000000000000000000000000000000000000000000000000000000000000000000000000000000000000000000000000000000000000000000000000000000000000000000000000000000 }"
b0 |"
bx000000 {"
b0 z"
0y"
1x"
1w"
0v"
1u"
0t"
xs"
b0 r"
b0 q"
b1 p"
b0 o"
b1111111111111111111111111111111111111111111111111111111111111111 n"
0m"
b0 l"
b0 k"
b0 j"
b0 i"
b0 h"
b1 g"
b0 f"
b0 e"
b0 d"
b0 c"
b10 b"
b10 a"
b10 `"
b10 _"
b10 ^"
0]"
bx0 \"
b100000001000000010000000100000001 ["
b100000001000000010000000100000001 Z"
0Y"
0X"
0W"
0V"
0U"
b0 T"
bx000000 S"
1R"
0Q"
0P"
b10000000 O"
b0 N"
b0 M"
b0 L"
b0 K"
b0 J"
b0 I"
b0 H"
b0 G"
b0 F"
b10000000 E"
b110000000000000000000000000000000000000000000000000000000000000000 D"
b110000000000000000000000000000000000000000000000000000000000000000 C"
b110000000000000000000000000000000000000000000000000000000000000000 B"
b10 A"
b10 @"
b110000000000000000000000000000000000000000000000000000000000000000 ?"
b0 >"
b0xxxxxxxxxxxxxxxxxxxxxxxxxxxxxxxxxxxxxxxxxxxxxxxxxxxxxxxxxxxxxxxx000000 ="
0<"
b100000001000000010000000100000001 ;"
b100000001000000010000000100000001 :"
b1 9"
b10 8"
b1 7"
b10 6"
b1 5"
b10 4"
b1 3"
b10000000000000000000000000000000000000000000000000000000000000000000000000000000000000000000000000000000000000000000000000000000000000000000000000000000000000000000000000000000000000000000000000000000000000000000000000000000000000000000000000000000000000000000000000 2"
b10 1"
00"
0/"
0."
0-"
b1 ,"
b10 +"
1*"
b0 )"
b0 ("
0'"
0&"
b0 %"
0$"
0#"
0""
b110000000000000000000000000000000000000000000000000000000000000000 !"
b10000000000000000000000000000000000000000000000000000000000000000 ~
b10000000000000000000000000000000000000000000000000000000000000001 }
b10000000000000000000000000000000000000000000000000000000000000001 |
b11 {
b1 z
b1 y
b1 x
b11 w
b1 v
b1 u
b11 t
b0 s
b0 r
b11 q
b11 p
b0 o
b0 n
0m
0l
b0 k
0j
b0 i
0h
0g
b0 f
b0 e
0d
0c
0b
0a
0`
0_
0^
0]
0\
0[
0Z
0Y
0X
0W
0V
0U
0T
0S
0R
0Q
0P
b100000001000000010000000100000001 O
0N
0M
0L
0K
0J
0I
0H
0G
0F
b100000001000000010000000100000001 E
b100000001000000010000000100000001 D
0C
0B
0A
0@
0?
0>
0=
0<
0;
bx :
bx 9
08
07
06
05
bx 4
13
12
01
00
0/
0.
0-
b0 ,
0+
b0 *
0)
b0 (
0'
b0 &
0%
1$
0#
0"
0!
$end
#30000000
02
#40000000
12
#50000000
02
#60000000
12
#70000000
02
#80000000
12
#90000000
02
#100000000
12
#110000000
02
#120000000
12
#130000000
02
#140000000
12
#150000000
02
#160000000
12
#170000000
02
#180000000
12
#190000000
02
#200000000
12
#210000000
02
#220000000
12
#230000000
02
#240000000
12
#250000000
02
#260000000
12
#270000000
02
#280000000
12
#290000000
02
#300000000
12
#310000000
02
#320000000
12
#330000000
02
#340000000
12
#350000000
02
#360000000
12
#370000000
02
#380000000
12
#390000000
02
#400000000
12
#410000000
02
#420000000
12
#430000000
02
#440000000
12
#450000000
02
#460000000
12
#470000000
02
#480000000
12
#490000000
02
#500000000
12
#510000000
02
#520000000
12
#530000000
02
#540000000
12
#550000000
02
#560000000
12
#570000000
02
#580000000
12
#590000000
02
#600000000
12
#610000000
02
#620000000
12
#630000000
02
#640000000
12
#650000000
02
#660000000
12
#670000000
02
#680000000
12
#690000000
02
#700000000
12
#710000000
02
#720000000
12
#730000000
02
#740000000
12
#750000000
02
#760000000
12
#770000000
02
#780000000
12
#790000000
02
#800000000
12
#810000000
02
#820000000
12
#830000000
02
#840000000
12
#850000000
02
#860000000
12
#870000000
02
#880000000
12
#890000000
02
#900000000
12
#910000000
02
#920000000
12
#930000000
02
#940000000
12
#950000000
02
#960000000
12
#970000000
02
#980000000
12
#990000000
02
#1000000000
1"
b111111100000000000000000000000000000000000000000000000000000000000000000000000000000000000000000000000000000000000000000000000000000000000000000000 !#
b111111100000000000000000000000000000000000000000000000000000000000000000000000000000000000000000000000000000000000000000000000000000000000000000000 "#
b1111111 {"
b110000000 E"
b111111100000000000000000000000000000000000000000000000000000000000000000000000000000000000000000000000000000000000000000000000000000000000000000000 ##
1y"
1v"
b1111111 |"
b1111111 >#
b110000000 O"
1P"
b1111111000000000000000000000000000000000000000000000000000000000000000000000000000000000000000000000000000000000000000000000000000000000000000000000000000000000000000000000000000000000000000000000000000000000000000000 ~"
b1111111000000000000000000000000000000000000000000000000000000000000000000000000000000000000000000000000000000000000000000000000000000000000000000000000000000000000000000000000000000000000000000000000000000000000000000 }"
b1111111 S"
1]
1]"
b1 4
b1 :
b10000000000000000000000000000000000000000000000000000000000000001111111 ="
b11 \"
15
12
#1010000000
02
#1020000000
0$
b1 q"
0s"
0t"
0u"
0R"
b0 2"
b1 )"
1!
1#
1&"
b10 ,"
b10 3"
b10 5"
b10 7"
b10 9"
18
b10 ,#
1Y"
b100 -#
b10000 +#
1>
1d
1X"
b1000 $#
b10000 .#
1=
1c
1W"
b100 %#
b10000 /#
1<
1b
1V"
b1000 (#
b10000 0#
1;
1a
1U"
1Q"
b11111 T"
b111111100000000000000000000000000000000000000000000000000000000000000000000000000000000000000000000000000000000000000000000000000000000000000000000 7#
1:#
19#
b110000000000000000000000000000000000000000000000000000000000000001111111 %"
b1111111 8#
0"
b11111110000000000000000000000000000000000000000000000000000000000000000000000 !#
b11111110000000000000000000000000000000000000000000000000000000000000000000000 "#
b0 {"
b1100000 E"
b111111100000000000000000000000000000000000000000000000000000000000000000000000000000000000000000000000000000000000000000000000000000000000000000000 ##
0y"
0v"
b0 |"
b0 >#
b1100000 O"
0P"
b111111100000000000000000000000000000000000000000000000000000000000000000000000000000000000000000000000000000000000000000000000000000000000000000000 ~"
b111111100000000000000000000000000000000000000000000000000000000000000000000000000000000000000000000000000000000000000000000000000000000000000000000 }"
b0 S"
0]
0]"
b0 4
b0 :
b0 ="
b0 \"
05
12
#1030000000
02
#1040000000
11
0!
0#
b10000 >"
b0 )"
b10000 E"
0Y"
0>
0d
0X"
0=
0c
0W"
0<
0b
0V"
0;
0a
0U"
0&"
b10 ,"
b10 3"
b10 5"
b10 7"
b10 9"
b100000000000000000000000000000000000000000000000000000000000000001 ?"
b10000 O"
0Q"
b0 T"
08
b1 +"
b1 1"
b1 4"
b1 6"
b1 8"
b10000 2"
17
1-"
0:#
09#
b0 %"
b0 8#
0*"
11#
b1 e
b1 N#
12#
b11 ^"
b10 M#
13#
b11 _"
b10 L#
14#
b11 `"
b10 K#
15#
b11 a"
b10 J#
b1000000010000000100000001000000010 ["
b100000001000000010000000100000001000000001000000010000000100000001000000010000000100000001000000010000000100000001 '#
b1000000010000000100000001000000010 Z"
b10000000100000001000000010000000100000000100000001000000010000000100000001 &#
16#
b11 b"
b10 I#
b1 ,#
1I
b10 -#
1H
b100 $#
1G
b10 %#
1F
b100 (#
1C
b1 B#
b1000 +#
1B
b1000 .#
1A
b1000 /#
1@
b1000 0#
1?
12
#1050000000
02
#1060000000
01
10
1.
1$
b1010 >"
b0 q"
xs"
1u"
b10001010 E"
b1 i
b1 k"
b1 @"
b1 A"
1R"
b100000000000000000000000000000000000000000000000000000000000000001 !"
b100000000000000000000000000000000000000000000000000000000000000000 C"
b10001010 O"
b10 x
b1 )#
b10 u
b1 *#
b10 v
b100000000000000000000000000000000000000000000000000000000000000001 ~
b1 c"
b10 t
07
0-"
1h
1g
1."
1l
b10000000000000000000000000000000000000000000000000000000000000000000000000000000000000000000000000000000000000000000000000000000000000000000000000000000000000000000000000000000000000000000000000000000000000000000000000000000000000000000000000000000000000000000001010 2"
1_
10"
b1000000010000000100000001000000010 :"
b100000000000000000000000000000000000000000000000000000000000000001 ?"
1*"
01#
b0 e
b0 N#
b100000000000000000000000000000000000000000000000000000000000000001 G#
b0 ,#
0I
1R
b1 -#
0H
1Q
b10 $#
0G
1P
b1 %#
0F
b10000000100000001000000010000000100000001000000010000000100000001000000010 &#
b1000000010000000100000001000000010 E
b1000000010000000100000001000000010 =#
b100000001000000010000000100000001000000010000000100000001000000010000000100000000100000001000000010000000100000001 '#
b1000000010000000100000001000000010 D
b1000000010000000100000001000000010 ;#
1N
b10 (#
0C
b0 B#
1M
b100 +#
0B
1L
b100 .#
0A
1K
b100 /#
0@
1J
b100 0#
0?
12
#1070000000
02
#1080000000
b1 ,
b1 L"
00
1/
0.
1-
b10 M"
b101 >"
b10000000000000000000000000000000000000000000000000000000000000000000000000000000000000000000000000000000000000000000000000000000000000000000000000000000000000000000000000000000000000000000000000000 N"
b1 n
b1 j"
b10000101 E"
b100000000000000000000000000000000000000000000000000000000000000010 B"
b10 y
b100000000000000000000000000000000000000000000000000000000000000010 |
b100000000000000000000000000000000000000000000000000000000000000001 }
b10 z
b100000000000000000000000000000000000000000000000000000000000000001 D"
b10000000000000000000000000000000000000000000000000000000000000000000000000000000000000000000000000000000000000000000000000000000000000000000000000000000000000000000000000000000000000000000000000000010000101 O"
b10 w
b10 {
b1 d"
0h
0g
0."
1m
1`
1/"
0l
0_
00"
b1000000010000000100000001000000010 ;"
1j
b10000000000000000000000000000000000000000000000000000000000000001000000000000000000000000000000000000000000000000000000000000000000000000000000000000000000000000000000000000000000000000000000000000000000000000000000000000000000000000000000000000000000000000000000101 2"
1^
1<"
b100000000000000000000000000000000000000000000000000000000000000000 E#
b100000000000000000000000000000000000000000000000000000000000000001 H#
b0 -#
0R
1X
b1 $#
0Q
b0 %#
0P
b100000001000000010000000100000001000000010000000100000001000000010000000100000001000000010000000100000001000000010 '#
b1000000010000000100000001000000010 O
b1000000010000000100000001000000010 <#
1W
b1 (#
0N
1V
b10 +#
0M
1U
b10 .#
0L
1T
b10 /#
0K
1S
b10 0#
0J
12
#1090000000
02
#1100000000
0/
0-
1+
b10 *
b10 J"
1)
1'
b1 &
b1 F"
1%
b0 >"
b11 M"
b101 K"
b1 I"
b11 G"
b10000000 E"
b11000000000000000000000000000000000000000000000000000000000000001010000000000000000000000000000000000000000000000000000000000000000100000000000000000000000000000000000000000000000000000000000000011 N"
b11000000000000000000000000000000000000000000000000000000000000001010000000000000000000000000000000000000000000000000000000000000000100000000000000000000000000000000000000000000000000000000000000011010000000 O"
b10 r
b10 p
b1 s
b10 q
0m
0`
0/"
0j
0^
0<"
1""
1#"
1$"
b10000000000000000000000000000000000000000000000000000000000000001100000000000000000000000000000000000000000000000000000000000000101000000000000000000000000000000000000000000000000000000000000000010000000000000000000000000000000000000000000000000000000000000001100000 2"
1'"
b100000000000000000000000000000000000000000000000000000000000000010 F#
b100000000000000000000000000000000000000000000000000000000000000001 D#
b0 $#
0X
b0 (#
0W
1\
b1 +#
0V
1[
b1 .#
0U
1Z
b1 /#
0T
1Y
b1 0#
0S
12
#1110000000
02
#1120000000
0+
0)
0'
0%
b10 M"
b100 K"
b0 I"
b10 G"
b10000000000000000000000000000000000000000000000000000000000000001000000000000000000000000000000000000000000000000000000000000000000000000000000000000000000000000000000000000000000000000000000000010 N"
b10000000000000000000000000000000000000000000000000000000000000001000000000000000000000000000000000000000000000000000000000000000000000000000000000000000000000000000000000000000000000000000000000010010000000 O"
0""
0#"
0$"
b10000000000000000000000000000000000000000000000000000000000000001000000000000000000000000000000000000000000000000000000000000000100000000000000000000000000000000000000000000000000000000000000000000000000000000000000000000000000000000000000000000000000000000001000000 2"
0'"
b0 +#
0\
b0 .#
0[
b0 /#
0Z
b0 0#
0Y
12
