src/end_to_end_tests/tests/simple_graph/generated/dump.vcd
$date
	Thu May 22 19:05:47 2025
$end
$version
	Icarus Verilog
$end
$timescale
	100fs
$end
$scope module testbench $end
$var wire 1 ! q_push_valid $end
$var wire 1 " q_push $end
$var wire 1 # q_pop_valid $end
$var wire 1 $ q_pop $end
$var wire 1 % pacing_out3_0 $end
$var wire 1 & pacing_out2_0 $end
$var wire 1 ' pacing_out1_0 $end
$var wire 1 ( pacing_out0_0 $end
$var wire 1 ) pacing_in0 $end
$var wire 1 * output_3_aktv $end
$var wire 64 + output_3 [63:0] $end
$var wire 1 , output_2_aktv $end
$var wire 64 - output_2 [63:0] $end
$var wire 1 . output_1_aktv $end
$var wire 64 / output_1 [63:0] $end
$var wire 1 0 output_0_aktv $end
$var wire 64 1 output_0 [63:0] $end
$var reg 1 2 clk $end
$var reg 1 3 en $end
$var reg 64 4 input_0 [63:0] $end
$var reg 1 5 new_input_0 $end
$var reg 1 6 rst $end
$scope module monitor $end
$var wire 1 7 b $end
$var wire 1 8 b_6 $end
$var wire 70 9 \c$case_alt_4 [69:0] $end
$var wire 1 2 clk $end
$var wire 1 3 en $end
$var wire 64 : inputs_0 [63:0] $end
$var wire 1 5 inputs_1 $end
$var wire 1 ; iterateI_ho1_0_arg0 $end
$var wire 1 < iterateI_ho1_0_arg0_0 $end
$var wire 1 = iterateI_ho1_0_arg0_1 $end
$var wire 1 > iterateI_ho1_0_arg0_2 $end
$var wire 1 ? iterateI_ho1_0_res $end
$var wire 1 @ iterateI_ho1_0_res_0 $end
$var wire 1 A iterateI_ho1_0_res_1 $end
$var wire 1 B iterateI_ho1_0_res_2 $end
$var wire 1 C iterateI_ho1_0_res_3 $end
$var wire 1 D iterateI_ho1_0_res_4 $end
$var wire 1 E iterateI_ho1_0_res_5 $end
$var wire 1 F iterateI_ho1_0_res_6 $end
$var wire 1 G iterateI_ho1_0_res_7 $end
$var wire 40 H iterateI_ho1_0_res_8 [39:0] $end
$var wire 40 I iterateI_ho1_0_res_9 [39:0] $end
$var wire 1 J iterateI_ho1_1_res $end
$var wire 1 K iterateI_ho1_1_res_0 $end
$var wire 1 L iterateI_ho1_1_res_1 $end
$var wire 1 M iterateI_ho1_1_res_2 $end
$var wire 1 N iterateI_ho1_1_res_3 $end
$var wire 1 O iterateI_ho1_1_res_4 $end
$var wire 1 P iterateI_ho1_1_res_5 $end
$var wire 1 Q iterateI_ho1_1_res_6 $end
$var wire 40 R iterateI_ho1_1_res_7 [39:0] $end
$var wire 1 S iterateI_ho1_2_res $end
$var wire 1 T iterateI_ho1_2_res_0 $end
$var wire 1 U iterateI_ho1_2_res_1 $end
$var wire 1 V iterateI_ho1_2_res_2 $end
$var wire 1 W iterateI_ho1_2_res_3 $end
$var wire 1 X iterateI_ho1_2_res_4 $end
$var wire 1 Y iterateI_ho1_3_res $end
$var wire 1 Z iterateI_ho1_3_res_0 $end
$var wire 1 [ iterateI_ho1_3_res_1 $end
$var wire 1 \ iterateI_ho1_3_res_2 $end
$var wire 1 ] pIn0 $end
$var wire 1 6 rst $end
$var wire 1 ^ x $end
$var wire 64 _ x_0 [63:0] $end
$var wire 1 ` x_1 $end
$var wire 64 a x_10 [63:0] $end
$var wire 64 b x_11 [63:0] $end
$var wire 64 c x_2 [63:0] $end
$var wire 1 d x_3 $end
$var wire 1 e x_4 $end
$var wire 64 f x_5 [63:0] $end
$var wire 1 g x_6 $end
$var wire 1 h x_7 $end
$var wire 1 i x_8 $end
$var wire 1 j x_9 $end
$var wire 64 k y [63:0] $end
$var wire 8 l winTag_0 [7:0] $end
$var wire 8 m winTag [7:0] $end
$var wire 64 n winData_0 [63:0] $end
$var wire 64 o winData [63:0] $end
$var wire 8 p tag_3 [7:0] $end
$var wire 8 q tag_2 [7:0] $end
$var wire 8 r tag_1 [7:0] $end
$var wire 8 s tag_0 [7:0] $end
$var wire 8 t tagToMatch_1 [7:0] $end
$var wire 8 u tagToMatch_0 [7:0] $end
$var wire 8 v tagToMatch [7:0] $end
$var wire 8 w tag [7:0] $end
$var wire 72 x t_1 [71:0] $end
$var wire 72 y t_0 [71:0] $end
$var wire 72 z t [71:0] $end
$var wire 72 { result_8 [71:0] $end
$var wire 1 | result_7 $end
$var wire 1 } result_6 $end
$var wire 1 ~ result_5 $end
$var wire 72 !" result_41 [71:0] $end
$var wire 1 "" result_40 $end
$var wire 1 #" result_4 $end
$var wire 64 $" result_39 [63:0] $end
$var wire 64 %" result_38 [63:0] $end
$var wire 1 &" result_37 $end
$var wire 8 '" result_36 [7:0] $end
$var wire 8 (" result_35 [7:0] $end
$var wire 8 )" result_34 [7:0] $end
$var wire 8 *" result_33 [7:0] $end
$var wire 8 +" result_32 [7:0] $end
$var wire 8 ," result_31 [7:0] $end
$var wire 8 -" result_30 [7:0] $end
$var wire 266 ." result_3 [265:0] $end
$var wire 8 /" result_29 [7:0] $end
$var wire 8 0" result_28 [7:0] $end
$var wire 8 1" result_27 [7:0] $end
$var wire 40 2" result_26 [39:0] $end
$var wire 40 3" result_25 [39:0] $end
$var wire 1 4" result_24 $end
$var wire 1 5" result_23 $end
$var wire 1 6" result_22 $end
$var wire 72 7" result_20 [71:0] $end
$var wire 71 8" result_2 [70:0] $end
$var wire 1 % result_1_4_4 $end
$var wire 1 & result_1_4_3 $end
$var wire 1 ' result_1_4_2 $end
$var wire 5 9" result_1_4_13 [4:0] $end
$var wire 1 ( result_1_4_1 $end
$var wire 1 ) result_1_4_0 $end
$var wire 1 # result_1_3 $end
$var wire 1 ! result_1_2 $end
$var wire 1 $ result_1_1 $end
$var wire 1 " result_1_0 $end
$var wire 8 :" result_19 [7:0] $end
$var wire 1 ;" result_18 $end
$var wire 1 <" result_17 $end
$var wire 8 =" result_16 [7:0] $end
$var wire 72 >" result_14 [71:0] $end
$var wire 72 ?" result_12 [71:0] $end
$var wire 72 @" result_10 [71:0] $end
$var wire 9 A" result_1 [8:0] $end
$var wire 1 * result_0_3_1 $end
$var wire 64 B" result_0_3_0 [63:0] $end
$var wire 65 C" result_0_3 [64:0] $end
$var wire 1 , result_0_2_1 $end
$var wire 64 D" result_0_2_0 [63:0] $end
$var wire 65 E" result_0_2 [64:0] $end
$var wire 1 . result_0_1_1 $end
$var wire 64 F" result_0_1_0 [63:0] $end
$var wire 65 G" result_0_1 [64:0] $end
$var wire 1 0 result_0_0_1 $end
$var wire 64 H" result_0_0_0 [63:0] $end
$var wire 65 I" result_0_0 [64:0] $end
$var wire 260 J" result_0 [259:0] $end
$var wire 269 K" result [268:0] $end
$var wire 1 L" qPush $end
$var wire 1 M" qPopValid $end
$var wire 1 N" qPop $end
$var wire 70 O" qData [69:0] $end
$var wire 5 P" pacings [4:0] $end
$var wire 1 Q" pOut3 $end
$var wire 1 R" pOut2 $end
$var wire 1 S" pOut1 $end
$var wire 1 T" pOut0 $end
$var wire 1 U" pIn0_0 $end
$var wire 40 V" iterateI_ho1_0_arg0_4 [39:0] $end
$var wire 40 W" iterateI_ho1_0_arg0_3 [39:0] $end
$var wire 65 X" inputs [64:0] $end
$var wire 1 Y" hasInput0 $end
$var wire 8 Z" f1_3 [7:0] $end
$var wire 8 [" f1_2 [7:0] $end
$var wire 8 \" f1_1 [7:0] $end
$var wire 8 ]" f1_0 [7:0] $end
$var wire 8 ^" f1 [7:0] $end
$var wire 64 _" dta_1 [63:0] $end
$var wire 64 `" dta_0 [63:0] $end
$var wire 64 a" dta [63:0] $end
$var wire 64 b" \c$tte_rhs_0 [63:0] $end
$var wire 64 c" \c$tte_rhs [63:0] $end
$var wire 64 d" \c$out3_case_alt [63:0] $end
$var wire 64 e" \c$out2_case_alt [63:0] $end
$var wire 64 f" \c$out1_case_alt [63:0] $end
$var wire 64 g" \c$out0_case_alt_0 [63:0] $end
$var wire 64 h" \c$out0_case_alt [63:0] $end
$var wire 1 i" \c$cursor_case_scrut $end
$var wire 64 j" \c$cursor_case_alt_4 [63:0] $end
$var wire 64 k" \c$cursor_case_alt_2 [63:0] $end
$var wire 64 l" \c$cursor_case_alt_1 [63:0] $end
$var wire 64 m" \c$cursor_case_alt_0 [63:0] $end
$var wire 64 n" \c$cursor_case_alt [63:0] $end
$var wire 1 o" \c$case_alt_8 $end
$var wire 1 p" \c$case_alt_7 $end
$var wire 1 q" \c$case_alt_6 $end
$var wire 1 r" \c$case_alt_5 $end
$var wire 1 s" \c$case_alt_12 $end
$var wire 1 t" \c$case_alt_11 $end
$var wire 1 u" \c$case_alt_10 $end
$var wire 70 v" \c$case_alt_1 [69:0] $end
$var wire 70 w" \c$case_alt_0 [69:0] $end
$var wire 70 x" \c$case_alt [69:0] $end
$var wire 280 y" \c$buffer_case_alt_sel_alt_t_1 [279:0] $end
$var wire 280 z" \c$buffer_case_alt_sel_alt_f_2 [279:0] $end
$var wire 210 {" \c$buffer_case_alt_1 [209:0] $end
$var wire 210 |" \c$buffer_case_alt_0 [209:0] $end
$var wire 210 }" \c$buffer_case_alt [209:0] $end
$var wire 4 ~" \c$app_arg_9 [3:0] $end
$var wire 3 !# \c$app_arg_8 [2:0] $end
$var wire 2 "# \c$app_arg_7 [1:0] $end
$var wire 8 ## \c$app_arg_6 [7:0] $end
$var wire 4 $# \c$app_arg_5 [3:0] $end
$var wire 3 %# \c$app_arg_4 [2:0] $end
$var wire 8 &# \c$app_arg_3 [7:0] $end
$var wire 5 '# \c$app_arg_2 [4:0] $end
$var wire 80 (# \c$app_arg_11 [79:0] $end
$var wire 120 )# \c$app_arg_10 [119:0] $end
$var wire 5 *# \c$app_arg_1 [4:0] $end
$var wire 5 +# \c$app_arg_0 [4:0] $end
$var wire 5 ,# \c$app_arg [4:0] $end
$var wire 1 -# b_5 $end
$var wire 1 .# b_4 $end
$var wire 1 /# b_3 $end
$var wire 1 0# b_2 $end
$var wire 1 1# b_1 $end
$var wire 1 2# b_0 $end
$var reg 210 3# buffer [209:0] $end
$var reg 70 4# \c$app_arg_12 [69:0] $end
$var reg 1 5# \c$app_arg_13 $end
$var reg 1 6# \c$app_arg_14 $end
$var reg 1 ? \c$bb_res_res $end
$var reg 1 J \c$bb_res_res_0 $end
$var reg 1 S \c$bb_res_res_1 $end
$var reg 1 [ \c$bb_res_res_10 $end
$var reg 1 B \c$bb_res_res_11 $end
$var reg 1 M \c$bb_res_res_12 $end
$var reg 1 V \c$bb_res_res_13 $end
$var reg 1 \ \c$bb_res_res_14 $end
$var reg 1 C \c$bb_res_res_15 $end
$var reg 1 N \c$bb_res_res_16 $end
$var reg 1 D \c$bb_res_res_17 $end
$var reg 1 O \c$bb_res_res_18 $end
$var reg 1 W \c$bb_res_res_19 $end
$var reg 1 Y \c$bb_res_res_2 $end
$var reg 1 E \c$bb_res_res_20 $end
$var reg 1 F \c$bb_res_res_21 $end
$var reg 1 P \c$bb_res_res_22 $end
$var reg 1 G \c$bb_res_res_23 $end
$var reg 1 Q \c$bb_res_res_24 $end
$var reg 1 X \c$bb_res_res_25 $end
$var reg 40 7# \c$bb_res_res_26 [39:0] $end
$var reg 40 8# \c$bb_res_res_27 [39:0] $end
$var reg 40 9# \c$bb_res_res_28 [39:0] $end
$var reg 1 @ \c$bb_res_res_3 $end
$var reg 1 K \c$bb_res_res_4 $end
$var reg 1 T \c$bb_res_res_5 $end
$var reg 1 Z \c$bb_res_res_6 $end
$var reg 1 A \c$bb_res_res_7 $end
$var reg 1 L \c$bb_res_res_8 $end
$var reg 1 U \c$bb_res_res_9 $end
$var reg 70 :# \c$case_alt_2 [69:0] $end
$var reg 70 ;# \c$case_alt_3 [69:0] $end
$var reg 1 <# \c$case_alt_9 $end
$var reg 64 =# \c$cursor_case_alt_3 [63:0] $end
$var reg 64 ># \c$ds_app_arg [63:0] $end
$var reg 64 ?# cursor [63:0] $end
$var reg 72 @# result_11 [71:0] $end
$var reg 72 A# result_13 [71:0] $end
$var reg 72 B# result_15 [71:0] $end
$var reg 72 C# result_21 [71:0] $end
$var reg 72 D# result_9 [71:0] $end
$var reg 8 E# t_2 [7:0] $end
$var reg 8 F# t_3 [7:0] $end
$var reg 8 G# t_4 [7:0] $end
$var reg 8 H# t_5 [7:0] $end
$var reg 8 I# t_6 [7:0] $end
$var reg 64 J# toWait [63:0] $end
$scope begin mk_array[0] $end
$var parameter 2 K# i $end
$upscope $end
$scope begin mk_array[1] $end
$var parameter 2 L# i $end
$upscope $end
$scope begin mk_array[2] $end
$var parameter 3 M# i $end
$upscope $end
$scope begin buffer_register $end
$upscope $end
$scope begin c$app_arg_12_register $end
$upscope $end
$scope begin c$app_arg_13_register $end
$upscope $end
$scope begin c$app_arg_14_register $end
$upscope $end
$scope begin c$bb_res_res_0_delay $end
$upscope $end
$scope begin c$bb_res_res_10_delay $end
$upscope $end
$scope begin c$bb_res_res_11_delay $end
$upscope $end
$scope begin c$bb_res_res_12_delay $end
$upscope $end
$scope begin c$bb_res_res_13_delay $end
$upscope $end
$scope begin c$bb_res_res_14_delay $end
$upscope $end
$scope begin c$bb_res_res_15_delay $end
$upscope $end
$scope begin c$bb_res_res_16_delay $end
$upscope $end
$scope begin c$bb_res_res_17_delay $end
$upscope $end
$scope begin c$bb_res_res_18_delay $end
$upscope $end
$scope begin c$bb_res_res_19_delay $end
$upscope $end
$scope begin c$bb_res_res_1_delay $end
$upscope $end
$scope begin c$bb_res_res_20_delay $end
$upscope $end
$scope begin c$bb_res_res_21_delay $end
$upscope $end
$scope begin c$bb_res_res_22_delay $end
$upscope $end
$scope begin c$bb_res_res_23_delay $end
$upscope $end
$scope begin c$bb_res_res_24_delay $end
$upscope $end
$scope begin c$bb_res_res_25_delay $end
$upscope $end
$scope begin c$bb_res_res_26_delay $end
$upscope $end
$scope begin c$bb_res_res_27_delay $end
$upscope $end
$scope begin c$bb_res_res_28_delay $end
$upscope $end
$scope begin c$bb_res_res_2_delay $end
$upscope $end
$scope begin c$bb_res_res_3_delay $end
$upscope $end
$scope begin c$bb_res_res_4_delay $end
$upscope $end
$scope begin c$bb_res_res_5_delay $end
$upscope $end
$scope begin c$bb_res_res_6_delay $end
$upscope $end
$scope begin c$bb_res_res_7_delay $end
$upscope $end
$scope begin c$bb_res_res_8_delay $end
$upscope $end
$scope begin c$bb_res_res_9_delay $end
$upscope $end
$scope begin c$bb_res_res_delay $end
$upscope $end
$scope begin c$ds_app_arg_delay $end
$upscope $end
$scope begin cursor_register $end
$upscope $end
$scope begin result_11_register $end
$upscope $end
$scope begin result_13_register $end
$upscope $end
$scope begin result_15_register $end
$upscope $end
$scope begin result_21_register $end
$upscope $end
$scope begin result_9_register $end
$upscope $end
$scope begin t_2_register $end
$upscope $end
$scope begin t_3_register $end
$upscope $end
$scope begin t_4_register $end
$upscope $end
$scope begin t_5_register $end
$upscope $end
$scope begin t_6_register $end
$upscope $end
$scope begin toWait_register $end
$upscope $end
$upscope $end
$upscope $end
$enddefinitions $end
$comment Show the parameter values. $end
$dumpall
b10 M#
b1 L#
b0 K#
$end
#20000000
$dumpvars
b0 J#
b1 I#
b1 H#
b1 G#
b1 F#
b1 E#
b110000000000000000000000000000000000000000000000000000000000000000 D#
b110000000000000000000000000000000000000000000000000000000000000000 C#
b110000000000000000000000000000000000000000000000000000000000000000 B#
b110000000000000000000000000000000000000000000000000000000000000000 A#
b110000000000000000000000000000000000000000000000000000000000000000 @#
b0 ?#
b0 >#
b0 =#
0<#
b0 ;#
bx000000 :#
b100000001000000010000000100000001 9#
b100000001000000010000000100000001 8#
b100000001000000010000000100000001 7#
06#
05#
b0 4#
b0 3#
02#
01#
00#
0/#
0.#
0-#
b0 ,#
b0 +#
b0 *#
b10000000100000001000000010000000100000001000000010000000100000001000000010000000100000001000000010000000100000001 )#
b1000000010000000100000001000000010000000100000001000000010000000100000001 (#
b0 '#
b0 &#
b0 %#
b0 $#
b0 ##
b0 "#
b0 !#
b0 ~"
b0 }"
bx00000000000000000000000000000000000000000000000000000000000000000000000000000000000000000000000000000000000000000000000000000000000000000000000000 |"
bx00000000000000000000000000000000000000000000000000000000000000000000000000000000000000000000000000000000000000000000000000000000000000000000000000 {"
bx000000000000000000000000000000000000000000000000000000000000000000000000000000000000000000000000000000000000000000000000000000000000000000000000000000000000000000000000000000000000000000000000000000000000000000000000 z"
bx000000000000000000000000000000000000000000000000000000000000000000000000000000000000000000000000000000000000000000000000000000000000000000000000000000000000000000000000000000000000000000000000000000000000000000000000 y"
b0 x"
bx000000 w"
b0 v"
0u"
1t"
1s"
0r"
1q"
0p"
xo"
b0 n"
b0 m"
b1 l"
b0 k"
b1111111111111111111111111111111111111111111111111111111111111111 j"
0i"
b0 h"
b0 g"
b0 f"
b0 e"
b0 d"
b1 c"
b0 b"
b0 a"
b0 `"
b0 _"
b10 ^"
b10 ]"
b10 \"
b10 ["
b10 Z"
0Y"
bx0 X"
b100000001000000010000000100000001 W"
b100000001000000010000000100000001 V"
0U"
0T"
0S"
0R"
0Q"
b0 P"
bx000000 O"
1N"
0M"
0L"
b10000000 K"
b0 J"
b0 I"
b0 H"
b0 G"
b0 F"
b0 E"
b0 D"
b0 C"
b0 B"
b10000000 A"
b110000000000000000000000000000000000000000000000000000000000000000 @"
b110000000000000000000000000000000000000000000000000000000000000000 ?"
b110000000000000000000000000000000000000000000000000000000000000000 >"
b10 ="
0<"
0;"
b10 :"
b0 9"
b0xxxxxxxxxxxxxxxxxxxxxxxxxxxxxxxxxxxxxxxxxxxxxxxxxxxxxxxxxxxxxxxx000000 8"
b110000000000000000000000000000000000000000000000000000000000000000 7"
06"
05"
04"
b100000001000000010000000100000001 3"
b100000001000000010000000100000001 2"
b1 1"
b10 0"
b1 /"
b10000000000000000000000000000000000000000000000000000000000000000000000000000000000000000000000000000000000000000000000000000000000000000000000000000000000000000000000000000000000000000000000000000000000000000000000000000000000000000000000000000000000000000000000000 ."
b10 -"
b1 ,"
b10 +"
b1 *"
b10 )"
b1 ("
b10 '"
1&"
b0 %"
b0 $"
0#"
0""
b0 !"
0~
0}
0|
b110000000000000000000000000000000000000000000000000000000000000000 {
b10000000000000000000000000000000000000000000000000000000000000000 z
b10000000000000000000000000000000000000000000000000000000000000001 y
b10000000000000000000000000000000000000000000000000000000000000001 x
b11 w
b1 v
b1 u
b1 t
b11 s
b1 r
b1 q
b11 p
b0 o
b0 n
b11 m
b11 l
b0 k
0j
0i
0h
0g
b0 f
0e
0d
b0 c
b0 b
b0 a
0`
b0 _
0^
0]
0\
0[
0Z
0Y
0X
0W
0V
0U
0T
0S
b100000001000000010000000100000001 R
0Q
0P
0O
0N
0M
0L
0K
0J
b100000001000000010000000100000001 I
b100000001000000010000000100000001 H
0G
0F
0E
0D
0C
0B
0A
0@
0?
0>
0=
0<
0;
bx :
bx 9
08
07
06
05
bx 4
13
12
b0 1
00
b0 /
0.
b0 -
0,
b0 +
0*
0)
0(
0'
0&
0%
1$
0#
0"
0!
$end
#30000000
02
#40000000
12
#50000000
02
#60000000
12
#70000000
02
#80000000
12
#90000000
02
#100000000
12
#110000000
02
#120000000
12
#130000000
02
#140000000
12
#150000000
02
#160000000
12
#170000000
02
#180000000
12
#190000000
02
#200000000
12
#210000000
02
#220000000
12
#230000000
02
#240000000
12
#250000000
02
#260000000
12
#270000000
02
#280000000
12
#290000000
02
#300000000
12
#310000000
02
#320000000
12
#330000000
02
#340000000
12
#350000000
02
#360000000
12
#370000000
02
#380000000
12
#390000000
02
#400000000
12
#410000000
02
#420000000
12
#430000000
02
#440000000
12
#450000000
02
#460000000
12
#470000000
02
#480000000
12
#490000000
02
#500000000
12
#510000000
02
#520000000
12
#530000000
02
#540000000
12
#550000000
02
#560000000
12
#570000000
02
#580000000
12
#590000000
02
#600000000
12
#610000000
02
#620000000
12
#630000000
02
#640000000
12
#650000000
02
#660000000
12
#670000000
02
#680000000
12
#690000000
02
#700000000
12
#710000000
02
#720000000
12
#730000000
02
#740000000
12
#750000000
02
#760000000
12
#770000000
02
#780000000
12
#790000000
02
#800000000
12
#810000000
02
#820000000
12
#830000000
02
#840000000
12
#850000000
02
#860000000
12
#870000000
02
#880000000
12
#890000000
02
#900000000
12
#910000000
02
#920000000
12
#930000000
02
#940000000
12
#950000000
02
#960000000
12
#970000000
02
#980000000
12
#990000000
02
#1000000000
1"
b111111100000000000000000000000000000000000000000000000000000000000000000000000000000000000000000000000000000000000000000000000000000000000000000000 {"
b111111100000000000000000000000000000000000000000000000000000000000000000000000000000000000000000000000000000000000000000000000000000000000000000000 |"
b1111111 w"
b110000000 A"
b111111100000000000000000000000000000000000000000000000000000000000000000000000000000000000000000000000000000000000000000000000000000000000000000000 }"
1u"
1r"
b1111111 x"
b1111111 :#
b110000000 K"
1L"
b1111111000000000000000000000000000000000000000000000000000000000000000000000000000000000000000000000000000000000000000000000000000000000000000000000000000000000000000000000000000000000000000000000000000000000000000000 z"
b1111111000000000000000000000000000000000000000000000000000000000000000000000000000000000000000000000000000000000000000000000000000000000000000000000000000000000000000000000000000000000000000000000000000000000000000000 y"
b1111111 O"
1]
1Y"
b1 4
b1 :
b10000000000000000000000000000000000000000000000000000000000000001111111 8"
b11 X"
15
12
#1010000000
02
#1020000000
0$
b1 m"
0o"
0p"
0q"
0N"
1)
1(
1'
1&
1%
b1 %"
1!
1#
b11111 9"
1""
b10 ("
b10 *"
b10 ,"
b10 /"
b10 1"
18
b10 "#
1U"
b100 !#
b10000 '#
1>
1j
1T"
b1000 ~"
b10000 *#
1=
1i
1S"
b100 %#
b10000 +#
1<
1h
1R"
b1000 $#
b10000 ,#
1;
1g
1Q"
1M"
b11111 ."
b11111 P"
b111111100000000000000000000000000000000000000000000000000000000000000000000000000000000000000000000000000000000000000000000000000000000000000000000 3#
16#
15#
b110000000000000000000000000000000000000000000000000000000000000001111111 !"
b1111111 4#
0"
b11111110000000000000000000000000000000000000000000000000000000000000000000000 {"
b11111110000000000000000000000000000000000000000000000000000000000000000000000 |"
b0 w"
b1111111 A"
b111111100000000000000000000000000000000000000000000000000000000000000000000000000000000000000000000000000000000000000000000000000000000000000000000 }"
0u"
0r"
b0 x"
b0 :#
b1111111 K"
0L"
b111111100000000000000000000000000000000000000000000000000000000000000000000000000000000000000000000000000000000000000000000000000000000000000000000 z"
b111111100000000000000000000000000000000000000000000000000000000000000000000000000000000000000000000000000000000000000000000000000000000000000000000 y"
b0 O"
0]
0Y"
b0 4
b0 :
b0 8"
b0 X"
05
12
#1030000000
02
#1040000000
0)
0(
0'
0&
0%
0!
0#
b0 9"
b0 %"
b0 A"
0U"
0>
0j
0T"
0=
0i
0S"
0<
0h
0R"
0;
0g
0Q"
0""
b10 ("
b10 *"
b10 ,"
b10 /"
b10 1"
b100000000000000000000000000000000000000000000000000000000000000001 7"
b0 K"
0M"
b0 ."
b0 P"
08
b1 '"
b1 )"
b1 +"
b1 -"
b1 0"
17
16"
06#
05#
b0 !"
b0 4#
0&"
1-#
b1 a
b1 J#
1.#
b11 Z"
b10 I#
1/#
b11 ["
b10 H#
10#
b11 \"
b10 G#
11#
b11 ]"
b10 F#
b1000000010000000100000001000000010 W"
b100000001000000010000000100000001000000001000000010000000100000001000000010000000100000001000000010000000100000001 )#
b1000000010000000100000001000000010 V"
b10000000100000001000000010000000100000000100000001000000010000000100000001 (#
12#
b11 ^"
b10 E#
b100 ~"
1G
b10 !#
1F
b1 "#
1E
b1 >#
b100 $#
1D
b10 %#
1C
b1000 '#
1B
b1000 *#
1A
b1000 +#
1@
b1000 ,#
1?
12
#1050000000
02
#1060000000
1$
b10000000 A"
b0 m"
xo"
1q"
b1 _
b1 g"
b1 :"
b1 ="
b10000000 K"
1N"
b10 t
b1 ##
b10 q
b1 &#
b10 r
b100000000000000000000000000000000000000000000000000000000000000001 z
b100000000000000000000000000000000000000000000000000000000000000001 {
b100000000000000000000000000000000000000000000000000000000000000000 ?"
b10000000000000000000000000000000000000000000000000000000000000000000000000000000000000000000000000000000000000000000000000000000000000000000000000000000000000000000000000000000000000000000000000000000000000000000000000000000000000000000000000000000000000000000000000 ."
b1 _"
b10 p
b1000000010000000100000001000000010 2"
1^
15"
07
06"
b100000000000000000000000000000000000000000000000000000000000000001 7"
1d
1<"
1&"
0-#
b0 a
b0 J#
b100000000000000000000000000000000000000000000000000000000000000001 C#
b10000000100000001000000010000000100000001000000010000000100000001000000010 (#
b1000000010000000100000001000000010 I
b1000000010000000100000001000000010 9#
b100000001000000010000000100000001000000010000000100000001000000010000000100000000100000001000000010000000100000001 )#
b1000000010000000100000001000000010 H
b1000000010000000100000001000000010 7#
1Q
b10 ~"
0G
1P
b1 !#
0F
b0 "#
0E
b0 >#
1O
b10 $#
0D
1N
b1 %#
0C
1M
b100 '#
0B
1L
b100 *#
0A
1K
b100 +#
0@
1J
b100 ,#
0?
12
#1070000000
02
#1080000000
b1 1
b1 H"
b10 I"
b10000000000000000000000000000000000000000000000000000000000000000000000000000000000000000000000000000000000000000000000000000000000000000000000000000000000000000000000000000000000000000000000000000 J"
b1 f
b1 f"
b10000000000000000000000000000000000000000000000000000000000000000000000000000000000000000000000000000000000000000000000000000000000000000000000000000000000000000000000000000000000000000000000000000010000000 K"
b10 u
b100000000000000000000000000000000000000000000000000000000000000010 x
b100000000000000000000000000000000000000000000000000000000000000001 y
b10 v
b100000000000000000000000000000000000000000000000000000000000000010 >"
b100000000000000000000000000000000000000000000000000000000000000001 @"
b10 s
b10 w
b10000000000000000000000000000000000000000000000000000000000000001000000000000000000000000000000000000000000000000000000000000000000000000000000000000000000000000000000000000000000000000000000000000000000000000000000000000000000000000000000000000000000000000000000000 ."
b1 `"
b1000000010000000100000001000000010 3"
1e
14"
0^
05"
1`
1;"
0d
0<"
b100000000000000000000000000000000000000000000000000000000000000000 A#
b100000000000000000000000000000000000000000000000000000000000000001 D#
b100000001000000010000000100000001000000010000000100000001000000010000000100000001000000010000000100000001000000010 )#
b1000000010000000100000001000000010 R
b1000000010000000100000001000000010 8#
1X
b1 ~"
0Q
b0 !#
0P
1W
b1 $#
0O
b0 %#
0N
1V
b10 '#
0M
1U
b10 *#
0L
1T
b10 +#
0K
1S
b10 ,#
0J
12
#1090000000
02
#1100000000
10
b10 /
b10 F"
1.
1,
b1 +
b1 B"
1*
b11 I"
b101 G"
b1 E"
b11 C"
b11000000000000000000000000000000000000000000000000000000000000001010000000000000000000000000000000000000000000000000000000000000000100000000000000000000000000000000000000000000000000000000000000011 J"
b11000000000000000000000000000000000000000000000000000000000000001010000000000000000000000000000000000000000000000000000000000000000100000000000000000000000000000000000000000000000000000000000000011010000000 K"
b10 n
b10 l
b1 o
b10 m
0e
04"
0`
0;"
1|
1}
1~
b10000000000000000000000000000000000000000000000000000000000000001100000000000000000000000000000000000000000000000000000000000000101000000000000000000000000000000000000000000000000000000000000000010000000000000000000000000000000000000000000000000000000000000001100000 ."
1#"
b100000000000000000000000000000000000000000000000000000000000000010 B#
b100000000000000000000000000000000000000000000000000000000000000001 @#
b0 ~"
0X
b0 $#
0W
1\
b1 '#
0V
1[
b1 *#
0U
1Z
b1 +#
0T
1Y
b1 ,#
0S
12
#1110000000
02
#1120000000
00
0.
0,
0*
b10 I"
b100 G"
b0 E"
b10 C"
b10000000000000000000000000000000000000000000000000000000000000001000000000000000000000000000000000000000000000000000000000000000000000000000000000000000000000000000000000000000000000000000000000010 J"
b10000000000000000000000000000000000000000000000000000000000000001000000000000000000000000000000000000000000000000000000000000000000000000000000000000000000000000000000000000000000000000000000000010010000000 K"
0|
0}
0~
b10000000000000000000000000000000000000000000000000000000000000001000000000000000000000000000000000000000000000000000000000000000100000000000000000000000000000000000000000000000000000000000000000000000000000000000000000000000000000000000000000000000000000000001000000 ."
0#"
b0 '#
0\
b0 *#
0[
b0 +#
0Z
b0 ,#
0Y
12
