src/end_to_end_tests/tests/hold_access/generated/dump.vcd
$date
	Thu May 15 20:08:06 2025
$end
$version
	Icarus Verilog
$end
$timescale
	100fs
$end
$scope module testbench $end
$var wire 1 ! q_push_valid $end
$var wire 1 " q_push $end
$var wire 1 # q_pop_valid $end
$var wire 1 $ q_pop $end
$var wire 1 % pacing_1 $end
$var wire 1 & pacing_0 $end
$var wire 1 ' output_1_aktv $end
$var wire 64 ( output_1 [63:0] $end
$var wire 1 ) output_0_aktv $end
$var wire 64 * output_0 [63:0] $end
$var reg 1 + clk $end
$var reg 1 , en $end
$var reg 64 - input_0 [63:0] $end
$var reg 1 . new_input_0 $end
$var reg 1 / rst $end
$scope module monitor $end
$var wire 67 0 \c$case_alt_4 [66:0] $end
$var wire 72 1 \c$case_scrut [71:0] $end
$var wire 72 2 \c$case_scrut_1 [71:0] $end
$var wire 72 3 \c$case_scrut_3 [71:0] $end
$var wire 1 + clk $end
$var wire 1 , en $end
$var wire 64 4 inputs_0 [63:0] $end
$var wire 1 . inputs_1 $end
$var wire 24 5 iterateI_ho1_0_res [23:0] $end
$var wire 1 6 iterateI_ho1_0_res_0 $end
$var wire 1 7 iterateI_ho1_0_res_1 $end
$var wire 1 8 iterateI_ho1_0_res_2 $end
$var wire 1 9 iterateI_ho1_0_res_3 $end
$var wire 24 : iterateI_ho1_0_res_4 [23:0] $end
$var wire 1 ; iterateI_ho1_0_res_5 $end
$var wire 1 < iterateI_ho1_1_res $end
$var wire 1 = iterateI_ho1_1_res_0 $end
$var wire 24 > iterateI_ho1_1_res_1 [23:0] $end
$var wire 1 ? iterateI_ho1_1_res_2 $end
$var wire 1 @ iterateI_ho1_2_res $end
$var wire 1 A iterateI_ho1_2_res_0 $end
$var wire 1 / rst $end
$var wire 64 B x [63:0] $end
$var wire 64 C x_2 [63:0] $end
$var wire 64 D y [63:0] $end
$var wire 64 E x_1 [63:0] $end
$var wire 64 F x_0 [63:0] $end
$var wire 6 G ws_1 [5:0] $end
$var wire 6 H ws_0 [5:0] $end
$var wire 6 I ws [5:0] $end
$var wire 1 J timer0Over $end
$var wire 8 K tagToMatch [7:0] $end
$var wire 8 L tag [7:0] $end
$var wire 216 M t_projection_0 [215:0] $end
$var wire 72 N t_3 [71:0] $end
$var wire 144 O t_2 [143:0] $end
$var wire 8 P result_9 [7:0] $end
$var wire 8 Q result_8 [7:0] $end
$var wire 8 R result_7 [7:0] $end
$var wire 8 S result_6 [7:0] $end
$var wire 8 T result_5 [7:0] $end
$var wire 68 U result_4 [67:0] $end
$var wire 69 V result_28 [68:0] $end
$var wire 133 W result_27 [132:0] $end
$var wire 1 X result_26 $end
$var wire 72 Y result_25 [71:0] $end
$var wire 24 Z result_24 [23:0] $end
$var wire 1 [ result_23 $end
$var wire 72 \ result_21 [71:0] $end
$var wire 72 ] result_20 [71:0] $end
$var wire 64 ^ result_2 [63:0] $end
$var wire 2 _ result_1_4_6 [1:0] $end
$var wire 1 % result_1_4_1 $end
$var wire 1 & result_1_4_0 $end
$var wire 1 # result_1_3 $end
$var wire 1 ! result_1_2 $end
$var wire 1 $ result_1_1 $end
$var wire 1 " result_1_0 $end
$var wire 1 ` result_18 $end
$var wire 1 a result_17 $end
$var wire 144 b result_15 [143:0] $end
$var wire 8 c result_14 [7:0] $end
$var wire 72 d result_13 [71:0] $end
$var wire 1 e result_12 $end
$var wire 24 f result_11 [23:0] $end
$var wire 8 g result_10 [7:0] $end
$var wire 6 h result_1 [5:0] $end
$var wire 1 ' result_0_1_1 $end
$var wire 64 i result_0_1_0 [63:0] $end
$var wire 65 j result_0_1 [64:0] $end
$var wire 1 ) result_0_0_1 $end
$var wire 64 k result_0_0_0 [63:0] $end
$var wire 65 l result_0_0 [64:0] $end
$var wire 130 m result_0 [129:0] $end
$var wire 136 n result [135:0] $end
$var wire 1 o qPush $end
$var wire 1 p qPopValid $end
$var wire 1 q qPop $end
$var wire 67 r qData [66:0] $end
$var wire 2 s pacings [1:0] $end
$var wire 1 t p1 $end
$var wire 1 u p0 $end
$var wire 24 v iterateI_ho1_0_arg0_0 [23:0] $end
$var wire 24 w iterateI_ho1_0_arg0 [23:0] $end
$var wire 65 x inputs_2 [64:0] $end
$var wire 65 y inputs [64:0] $end
$var wire 1 z input0HasData $end
$var wire 1 { i_1 $end
$var wire 1 | i_0 $end
$var wire 1 } i $end
$var wire 1 ~ hasInput0 $end
$var wire 8 !" f1_1 [7:0] $end
$var wire 8 "" f1_0 [7:0] $end
$var wire 8 #" f1 [7:0] $end
$var wire 64 $" dta [63:0] $end
$var wire 4 %" \c$ws_app_arg_4 [3:0] $end
$var wire 148 &" \c$ws_app_arg_3 [147:0] $end
$var wire 4 '" \c$ws_app_arg_2 [3:0] $end
$var wire 148 (" \c$ws_app_arg_1 [147:0] $end
$var wire 4 )" \c$ws_app_arg_0 [3:0] $end
$var wire 148 *" \c$ws_app_arg [147:0] $end
$var wire 4 +" \c$vec2_1 [3:0] $end
$var wire 4 ," \c$vec2_0 [3:0] $end
$var wire 4 -" \c$vec2 [3:0] $end
$var wire 64 ." \c$tte_rhs_0 [63:0] $end
$var wire 64 /" \c$tte_rhs [63:0] $end
$var wire 72 0" \c$result_app_arg [71:0] $end
$var wire 72 1" \c$ds1_case_alt [71:0] $end
$var wire 1 2" \c$cursor_case_scrut $end
$var wire 64 3" \c$cursor_case_alt_4 [63:0] $end
$var wire 64 4" \c$cursor_case_alt_2 [63:0] $end
$var wire 64 5" \c$cursor_case_alt_1 [63:0] $end
$var wire 64 6" \c$cursor_case_alt_0 [63:0] $end
$var wire 64 7" \c$cursor_case_alt [63:0] $end
$var wire 2 8" \c$case_scrut_4 [1:0] $end
$var wire 2 9" \c$case_scrut_2 [1:0] $end
$var wire 2 :" \c$case_scrut_0 [1:0] $end
$var wire 1 ;" \c$case_alt_8 $end
$var wire 1 <" \c$case_alt_7 $end
$var wire 1 =" \c$case_alt_6 $end
$var wire 1 >" \c$case_alt_5 $end
$var wire 1 ?" \c$case_alt_12 $end
$var wire 1 @" \c$case_alt_11 $end
$var wire 1 A" \c$case_alt_10 $end
$var wire 67 B" \c$case_alt_1 [66:0] $end
$var wire 67 C" \c$case_alt_0 [66:0] $end
$var wire 67 D" \c$case_alt [66:0] $end
$var wire 201 E" \c$buffer_case_alt_sel_alt_t_1 [200:0] $end
$var wire 201 F" \c$buffer_case_alt_sel_alt_f_2 [200:0] $end
$var wire 134 G" \c$buffer_case_alt_1 [133:0] $end
$var wire 134 H" \c$buffer_case_alt_0 [133:0] $end
$var wire 134 I" \c$buffer_case_alt [133:0] $end
$var wire 4 J" \c$app_arg_6 [3:0] $end
$var wire 72 K" \c$app_arg_5 [71:0] $end
$var wire 4 L" \c$app_arg_4 [3:0] $end
$var wire 2 M" \c$app_arg_3 [1:0] $end
$var wire 3 N" \c$app_arg_2 [2:0] $end
$var wire 8 O" \c$app_arg_1 [7:0] $end
$var wire 2 P" \c$app_arg_0 [1:0] $end
$var wire 48 Q" \c$app_arg [47:0] $end
$var wire 1 R" b_1 $end
$var wire 1 S" b_0 $end
$var wire 1 T" b $end
$var reg 134 U" buffer [133:0] $end
$var reg 67 V" \c$app_arg_7 [66:0] $end
$var reg 1 W" \c$app_arg_8 $end
$var reg 1 X" \c$app_arg_9 $end
$var reg 24 Y" \c$bb_res_res [23:0] $end
$var reg 1 6 \c$bb_res_res_0 $end
$var reg 1 7 \c$bb_res_res_1 $end
$var reg 1 ? \c$bb_res_res_10 $end
$var reg 1 A \c$bb_res_res_11 $end
$var reg 1 < \c$bb_res_res_2 $end
$var reg 1 8 \c$bb_res_res_3 $end
$var reg 1 9 \c$bb_res_res_4 $end
$var reg 1 = \c$bb_res_res_5 $end
$var reg 1 @ \c$bb_res_res_6 $end
$var reg 24 Z" \c$bb_res_res_7 [23:0] $end
$var reg 24 [" \c$bb_res_res_8 [23:0] $end
$var reg 1 ; \c$bb_res_res_9 $end
$var reg 67 \" \c$case_alt_2 [66:0] $end
$var reg 67 ]" \c$case_alt_3 [66:0] $end
$var reg 1 ^" \c$case_alt_9 $end
$var reg 64 _" \c$cursor_case_alt_3 [63:0] $end
$var reg 64 `" \c$ds_app_arg [63:0] $end
$var reg 64 a" cursor [63:0] $end
$var reg 144 b" result_16 [143:0] $end
$var reg 72 c" result_19 [71:0] $end
$var reg 72 d" result_22 [71:0] $end
$var reg 64 e" result_3 [63:0] $end
$var reg 8 f" t [7:0] $end
$var reg 8 g" t_0 [7:0] $end
$var reg 8 h" t_1 [7:0] $end
$scope begin imap[0] $end
$var wire 74 i" map_in [73:0] $end
$var wire 1 j" map_index $end
$var wire 2 k" map_out [1:0] $end
$var wire 72 l" x_4 [71:0] $end
$var wire 8 m" t_4 [7:0] $end
$var wire 2 n" \c$case_alt_13 [1:0] $end
$var parameter 2 o" i_3 $end
$upscope $end
$scope begin imap[1] $end
$var wire 74 p" map_in [73:0] $end
$var wire 1 q" map_index $end
$var wire 2 r" map_out [1:0] $end
$var wire 72 s" x_4 [71:0] $end
$var wire 8 t" t_4 [7:0] $end
$var wire 2 u" \c$case_alt_13 [1:0] $end
$var parameter 2 v" i_3 $end
$upscope $end
$scope begin imap_0[0] $end
$var wire 74 w" map_in_0 [73:0] $end
$var wire 1 x" map_index_0 $end
$var wire 2 y" map_out_0 [1:0] $end
$var wire 72 z" x_5 [71:0] $end
$var wire 8 {" t_5 [7:0] $end
$var wire 2 |" \c$case_alt_14 [1:0] $end
$var parameter 2 }" i_7 $end
$upscope $end
$scope begin imap_0[1] $end
$var wire 74 ~" map_in_0 [73:0] $end
$var wire 1 !# map_index_0 $end
$var wire 2 "# map_out_0 [1:0] $end
$var wire 72 ## x_5 [71:0] $end
$var wire 8 $# t_5 [7:0] $end
$var wire 2 %# \c$case_alt_14 [1:0] $end
$var parameter 2 &# i_7 $end
$upscope $end
$scope begin imap_1[0] $end
$var wire 74 '# map_in_1 [73:0] $end
$var wire 1 (# map_index_1 $end
$var wire 2 )# map_out_1 [1:0] $end
$var wire 72 *# x_6 [71:0] $end
$var wire 8 +# t_6 [7:0] $end
$var wire 2 ,# \c$case_alt_15 [1:0] $end
$var parameter 2 -# i_10 $end
$upscope $end
$scope begin imap_1[1] $end
$var wire 74 .# map_in_1 [73:0] $end
$var wire 1 /# map_index_1 $end
$var wire 2 0# map_out_1 [1:0] $end
$var wire 72 1# x_6 [71:0] $end
$var wire 8 2# t_6 [7:0] $end
$var wire 2 3# \c$case_alt_15 [1:0] $end
$var parameter 2 4# i_10 $end
$upscope $end
$scope begin mk_array[0] $end
$var parameter 2 5# i_4 $end
$upscope $end
$scope begin mk_array[1] $end
$var parameter 2 6# i_4 $end
$upscope $end
$scope begin mk_array_0[0] $end
$var parameter 2 7# i_8 $end
$upscope $end
$scope begin mk_array_0[1] $end
$var parameter 2 8# i_8 $end
$upscope $end
$scope begin mk_array_1[0] $end
$var parameter 2 9# i_11 $end
$upscope $end
$scope begin mk_array_1[1] $end
$var parameter 2 :# i_11 $end
$upscope $end
$scope begin mk_array_2[0] $end
$var parameter 2 ;# i_12 $end
$upscope $end
$scope begin mk_array_2[1] $end
$var parameter 2 <# i_12 $end
$upscope $end
$scope begin zipWith[0] $end
$var wire 72 =# zipWith_in1 [71:0] $end
$var wire 2 ># zipWith_in2 [1:0] $end
$var wire 74 ?# \c$n [73:0] $end
$var parameter 2 @# i_2 $end
$upscope $end
$scope begin zipWith[1] $end
$var wire 72 A# zipWith_in1 [71:0] $end
$var wire 2 B# zipWith_in2 [1:0] $end
$var wire 74 C# \c$n [73:0] $end
$var parameter 2 D# i_2 $end
$upscope $end
$scope begin zipWith_0[0] $end
$var wire 72 E# zipWith_in1_0 [71:0] $end
$var wire 2 F# zipWith_in2_0 [1:0] $end
$var wire 74 G# \c$n_0 [73:0] $end
$var parameter 2 H# i_6 $end
$upscope $end
$scope begin zipWith_0[1] $end
$var wire 72 I# zipWith_in1_0 [71:0] $end
$var wire 2 J# zipWith_in2_0 [1:0] $end
$var wire 74 K# \c$n_0 [73:0] $end
$var parameter 2 L# i_6 $end
$upscope $end
$scope begin zipWith_1[0] $end
$var wire 72 M# zipWith_in1_1 [71:0] $end
$var wire 2 N# zipWith_in2_1 [1:0] $end
$var wire 74 O# \c$n_1 [73:0] $end
$var parameter 2 P# i_9 $end
$upscope $end
$scope begin zipWith_1[1] $end
$var wire 72 Q# zipWith_in1_1 [71:0] $end
$var wire 2 R# zipWith_in2_1 [1:0] $end
$var wire 74 S# \c$n_1 [73:0] $end
$var parameter 2 T# i_9 $end
$upscope $end
$scope begin buffer_register $end
$upscope $end
$scope begin c$app_arg_7_register $end
$upscope $end
$scope begin c$app_arg_8_register $end
$upscope $end
$scope begin c$app_arg_9_register $end
$upscope $end
$scope begin c$bb_res_res_0_delay $end
$upscope $end
$scope begin c$bb_res_res_10_delay $end
$upscope $end
$scope begin c$bb_res_res_11_delay $end
$upscope $end
$scope begin c$bb_res_res_1_delay $end
$upscope $end
$scope begin c$bb_res_res_2_delay $end
$upscope $end
$scope begin c$bb_res_res_3_delay $end
$upscope $end
$scope begin c$bb_res_res_4_delay $end
$upscope $end
$scope begin c$bb_res_res_5_delay $end
$upscope $end
$scope begin c$bb_res_res_6_delay $end
$upscope $end
$scope begin c$bb_res_res_7_delay $end
$upscope $end
$scope begin c$bb_res_res_8_delay $end
$upscope $end
$scope begin c$bb_res_res_9_delay $end
$upscope $end
$scope begin c$bb_res_res_delay $end
$upscope $end
$scope begin c$ds_app_arg_delay $end
$upscope $end
$scope begin cursor_register $end
$upscope $end
$scope begin result_16_register $end
$upscope $end
$scope begin result_19_register $end
$upscope $end
$scope begin result_22_register $end
$upscope $end
$scope begin result_3_register $end
$upscope $end
$scope begin t_0_register $end
$upscope $end
$scope begin t_1_register $end
$upscope $end
$scope begin t_register $end
$upscope $end
$upscope $end
$upscope $end
$enddefinitions $end
$comment Show the parameter values. $end
$dumpall
b1 T#
b0 P#
b1 L#
b0 H#
b1 D#
b0 @#
b1 <#
b0 ;#
b1 :#
b0 9#
b1 8#
b0 7#
b1 6#
b0 5#
b1 4#
b0 -#
b1 &#
b0 }"
b1 v"
b0 o"
$end
#20000000
$dumpvars
b10000000000000000000000000000000000000000000000000000000000000000000x S#
b0x R#
b1000000000000000000000000000000000000000000000000000000000000000000 Q#
b10000000000000000000000000000000000000000000000000000000000000000000x O#
b0x N#
b1000000000000000000000000000000000000000000000000000000000000000000 M#
b10000000000000000000000000000000000000000000000000000000000000000000x K#
b0x J#
b1000000000000000000000000000000000000000000000000000000000000000000 I#
b10000000000000000000000000000000000000000000000000000000000000000000x G#
b0x F#
b1000000000000000000000000000000000000000000000000000000000000000000 E#
b10000000000000000000000000000000000000000000000000000000000000000000x C#
b0x B#
b1000000000000000000000000000000000000000000000000000000000000000000 A#
b10000000000000000000000000000000000000000000000000000000000000000000x ?#
b0x >#
b1000000000000000000000000000000000000000000000000000000000000000000 =#
b0x 3#
b100 2#
b1000000000000000000000000000000000000000000000000000000000000000000 1#
b0x 0#
0/#
b10000000000000000000000000000000000000000000000000000000000000000000x .#
b0x ,#
b100 +#
b1000000000000000000000000000000000000000000000000000000000000000000 *#
b0x )#
1(#
b10000000000000000000000000000000000000000000000000000000000000000000x '#
b0x %#
b100 $#
b1000000000000000000000000000000000000000000000000000000000000000000 ##
b0x "#
0!#
b10000000000000000000000000000000000000000000000000000000000000000000x ~"
b0x |"
b100 {"
b1000000000000000000000000000000000000000000000000000000000000000000 z"
b0x y"
1x"
b10000000000000000000000000000000000000000000000000000000000000000000x w"
b0x u"
b100 t"
b1000000000000000000000000000000000000000000000000000000000000000000 s"
b0x r"
0q"
b10000000000000000000000000000000000000000000000000000000000000000000x p"
b0x n"
b100 m"
b1000000000000000000000000000000000000000000000000000000000000000000 l"
b0x k"
1j"
b10000000000000000000000000000000000000000000000000000000000000000000x i"
b1 h"
b1 g"
b1 f"
b11111010000 e"
b1000000000000000000000000000000000000000000000000000000000000000000 d"
b1000000000000000000000000000000000000000000000000000000000000000000 c"
b1000000000000000000000000000000000000000000000000000000000000000000000001000000000000000000000000000000000000000000000000000000000000000000 b"
b0 a"
b0 `"
b0 _"
0^"
b0 ]"
bx000 \"
b10000000100000001 ["
b10000000100000001 Z"
b10000000100000001 Y"
0X"
0W"
b0 V"
b0 U"
0T"
0S"
0R"
b10000000100000001000000010000000100000001 Q"
b0 P"
b0 O"
b0 N"
b0 M"
b0 L"
b10000000100000001000000010000000100000001000000010000000100000001 K"
b0 J"
b0 I"
bx0000000000000000000000000000000000000000000000000000000000000000000000 H"
bx0000000000000000000000000000000000000000000000000000000000000000000000 G"
bx00000000000000000000000000000000000000000000000000000000000000000000000000000000000000000000000000000000000000000000000000000000000000000 F"
bx00000000000000000000000000000000000000000000000000000000000000000000000000000000000000000000000000000000000000000000000000000000000000000 E"
b0 D"
bx000 C"
b0 B"
0A"
1@"
1?"
0>"
1="
0<"
x;"
b0x :"
b0x 9"
b0x 8"
b0 7"
b0 6"
b1 5"
b0 4"
b1111111111111111111111111111111111111111111111111111111111111111 3"
02"
b10000000000000000000000000000000000000000000000000000000000000000 1"
b1000000000000000000000000000000000000000000000000000000000000000000 0"
b1 /"
b0 ."
b0x0x -"
b0x0x ,"
b0x0x +"
b10000000000000000000000000000000000000000000000000000000000000000000x0000010000000000000000000000000000000000000000000000000000000000000000000x *"
b0x0x )"
b10000000000000000000000000000000000000000000000000000000000000000000x0000010000000000000000000000000000000000000000000000000000000000000000000x ("
b0x0x '"
b10000000000000000000000000000000000000000000000000000000000000000000x0000010000000000000000000000000000000000000000000000000000000000000000000x &"
b0x0x %"
b0 $"
b10 #"
b10 ""
b10 !"
0~
x}
x|
x{
0z
bx0 y
b0 x
b10000000100000001 w
b10000000100000001 v
0u
0t
b0 s
bx000 r
1q
0p
0o
b10000 n
b0 m
b0 l
b0 k
b0 j
b0 i
b10000 h
b10 g
b10000000100000001 f
0e
b10000000000000000000000000000000000000000000000000000000000000000 d
b11 c
b1000000000000000000000000000000000000000000000000000000000000000000000001000000000000000000000000000000000000000000000000000000000000000000 b
0a
0`
b0 _
b111110100000 ^
b10000000000000000000000000000000000000000000000000000000000000000 ]
b1000000000000000000000000000000000000000000000000000000000000000000 \
0[
b10000000100000001 Z
b10000000000000000000000000000000000000000000000000000000000000000 Y
0X
b1000000000000000000000000000000000000000000000000000000000000000000000000000000000000000000000000000000000000000000000000000000000000 W
b0 V
b0xxxxxxxxxxxxxxxxxxxxxxxxxxxxxxxxxxxxxxxxxxxxxxxxxxxxxxxxxxxxxxxx000 U
b1 T
b10 S
b1 R
b10 Q
b1 P
b1000000000000000000000000000000000000000000000000000000000000000000000000010000000000000000000000000000000000000000000000000000000000000001 O
b10000000000000000000000000000000000000000000000000000000000000000 N
b1000000000000000000000000000000000000000000000000000000000000000000000001000000000000000000000000000000000000000000000000000000000000000000000000010000000000000000000000000000000000000000000000000000000000000001 M
b100 L
b1 K
0J
b0x0x0x I
b0x0x0x H
b0x0x0x G
b0 F
b0 E
b0 D
b0 C
b11111010000 B
0A
0@
0?
b10000000100000001 >
0=
0<
0;
b10000000100000001 :
09
08
07
06
b10000000100000001 5
bx 4
bx 3
bx 2
bx 1
bx 0
0/
0.
bx -
1,
1+
b0 *
0)
b0 (
0'
0&
0%
1$
0#
0"
0!
$end
#30000000
0+
#40000000
b1011101110000 ^
b111110100000 B
b111110100000 e"
1+
#50000000
0+
#60000000
b1111101000000 ^
b1011101110000 B
b1011101110000 e"
1+
#70000000
0+
#80000000
b10011100010000 ^
b1111101000000 B
b1111101000000 e"
1+
#90000000
0+
#100000000
b10111011100000 ^
b10011100010000 B
b10011100010000 e"
1+
#110000000
0+
#120000000
b11011010110000 ^
b10111011100000 B
b10111011100000 e"
1+
#130000000
0+
#140000000
b11111010000000 ^
b11011010110000 B
b11011010110000 e"
1+
#150000000
0+
#160000000
b100011001010000 ^
b11111010000000 B
b11111010000000 e"
1+
#170000000
0+
#180000000
b100111000100000 ^
b100011001010000 B
b100011001010000 e"
1+
#190000000
0+
#200000000
b101010111110000 ^
b100111000100000 B
b100111000100000 e"
1+
#210000000
0+
#220000000
b101110111000000 ^
b101010111110000 B
b101010111110000 e"
1+
#230000000
0+
#240000000
b110010110010000 ^
b101110111000000 B
b101110111000000 e"
1+
#250000000
0+
#260000000
b110110101100000 ^
b110010110010000 B
b110010110010000 e"
1+
#270000000
0+
#280000000
b111010100110000 ^
b110110101100000 B
b110110101100000 e"
1+
#290000000
0+
#300000000
b111110100000000 ^
b111010100110000 B
b111010100110000 e"
1+
#310000000
0+
#320000000
b1000010011010000 ^
b111110100000000 B
b111110100000000 e"
1+
#330000000
0+
#340000000
b1000110010100000 ^
b1000010011010000 B
b1000010011010000 e"
1+
#350000000
0+
#360000000
b1001010001110000 ^
b1000110010100000 B
b1000110010100000 e"
1+
#370000000
0+
#380000000
b1001110001000000 ^
b1001010001110000 B
b1001010001110000 e"
1+
#390000000
0+
#400000000
b1010010000010000 ^
b1001110001000000 B
b1001110001000000 e"
1+
#410000000
0+
#420000000
b1010101111100000 ^
b1010010000010000 B
b1010010000010000 e"
1+
#430000000
0+
#440000000
b1011001110110000 ^
b1010101111100000 B
b1010101111100000 e"
1+
#450000000
0+
#460000000
b1011101110000000 ^
b1011001110110000 B
b1011001110110000 e"
1+
#470000000
0+
#480000000
b1100001101010000 ^
b1011101110000000 B
b1011101110000000 e"
1+
#490000000
0+
#500000000
b1100101100100000 ^
b1100001101010000 B
b1100001101010000 e"
1+
#510000000
0+
#520000000
b1101001011110000 ^
b1100101100100000 B
b1100101100100000 e"
1+
#530000000
0+
#540000000
b1101101011000000 ^
b1101001011110000 B
b1101001011110000 e"
1+
#550000000
0+
#560000000
b1110001010010000 ^
b1101101011000000 B
b1101101011000000 e"
1+
#570000000
0+
#580000000
b1110101001100000 ^
b1110001010010000 B
b1110001010010000 e"
1+
#590000000
0+
#600000000
b1111001000110000 ^
b1110101001100000 B
b1110101001100000 e"
1+
#610000000
0+
#620000000
b1111101000000000 ^
b1111001000110000 B
b1111001000110000 e"
1+
#630000000
0+
#640000000
b10000000111010000 ^
b1111101000000000 B
b1111101000000000 e"
1+
#650000000
0+
#660000000
b10000100110100000 ^
b10000000111010000 B
b10000000111010000 e"
1+
#670000000
0+
#680000000
b10001000101110000 ^
b10000100110100000 B
b10000100110100000 e"
1+
#690000000
0+
#700000000
b10001100101000000 ^
b10001000101110000 B
b10001000101110000 e"
1+
#710000000
0+
#720000000
b10010000100010000 ^
b10001100101000000 B
b10001100101000000 e"
1+
#730000000
0+
#740000000
b10010100011100000 ^
b10010000100010000 B
b10010000100010000 e"
1+
#750000000
0+
#760000000
b10011000010110000 ^
b10010100011100000 B
b10010100011100000 e"
1+
#770000000
0+
#780000000
b10011100010000000 ^
b10011000010110000 B
b10011000010110000 e"
1+
#790000000
0+
#800000000
b10100000001010000 ^
b10011100010000000 B
b10011100010000000 e"
1+
#810000000
0+
#820000000
b10100100000100000 ^
b10100000001010000 B
b10100000001010000 e"
1+
#830000000
0+
#840000000
b10100111111110000 ^
b10100100000100000 B
b10100100000100000 e"
1+
#850000000
0+
#860000000
b10101011111000000 ^
b10100111111110000 B
b10100111111110000 e"
1+
#870000000
0+
#880000000
b10101111110010000 ^
b10101011111000000 B
b10101011111000000 e"
1+
#890000000
0+
#900000000
b10110011101100000 ^
b10101111110010000 B
b10101111110010000 e"
1+
#910000000
0+
#920000000
b10110111100110000 ^
b10110011101100000 B
b10110011101100000 e"
1+
#930000000
0+
#940000000
b10111011100000000 ^
b10110111100110000 B
b10110111100110000 e"
1+
#950000000
0+
#960000000
b10111111011010000 ^
b10111011100000000 B
b10111011100000000 e"
1+
#970000000
0+
#980000000
b11000011010100000 ^
b10111111011010000 B
b10111111011010000 e"
1+
#990000000
0+
#1000000000
b11000111001110000 ^
b11000011010100000 B
b11000011010100000 e"
1+
#1010000000
0+
#1020000000
b11001011001000000 ^
b11000111001110000 B
b11000111001110000 e"
1+
#1030000000
0+
#1040000000
b11001111000010000 ^
b11001011001000000 B
b11001011001000000 e"
1+
#1050000000
0+
#1060000000
b11010010111100000 ^
b11001111000010000 B
b11001111000010000 e"
1+
#1070000000
0+
#1080000000
b11010110110110000 ^
b11010010111100000 B
b11010010111100000 e"
1+
#1090000000
0+
#1100000000
b11011010110000000 ^
b11010110110110000 B
b11010110110110000 e"
1+
#1110000000
0+
#1120000000
b11011110101010000 ^
b11011010110000000 B
b11011010110000000 e"
1+
#1130000000
0+
#1140000000
b11100010100100000 ^
b11011110101010000 B
b11011110101010000 e"
1+
#1150000000
0+
#1160000000
b11100110011110000 ^
b11100010100100000 B
b11100010100100000 e"
1+
#1170000000
0+
#1180000000
b11101010011000000 ^
b11100110011110000 B
b11100110011110000 e"
1+
#1190000000
0+
#1200000000
b11101110010010000 ^
b11101010011000000 B
b11101010011000000 e"
1+
#1210000000
0+
#1220000000
b11110010001100000 ^
b11101110010010000 B
b11101110010010000 e"
1+
#1230000000
0+
#1240000000
b11110110000110000 ^
b11110010001100000 B
b11110010001100000 e"
1+
#1250000000
0+
#1260000000
b11111010000000000 ^
b11110110000110000 B
b11110110000110000 e"
1+
#1270000000
0+
#1280000000
b11111101111010000 ^
b11111010000000000 B
b11111010000000000 e"
1+
#1290000000
0+
#1300000000
b100000001110100000 ^
b11111101111010000 B
b11111101111010000 e"
1+
#1310000000
0+
#1320000000
b100000101101110000 ^
b100000001110100000 B
b100000001110100000 e"
1+
#1330000000
0+
#1340000000
b100001001101000000 ^
b100000101101110000 B
b100000101101110000 e"
1+
#1350000000
0+
#1360000000
b100001101100010000 ^
b100001001101000000 B
b100001001101000000 e"
1+
#1370000000
0+
#1380000000
b100010001011100000 ^
b100001101100010000 B
b100001101100010000 e"
1+
#1390000000
0+
#1400000000
b100010101010110000 ^
b100010001011100000 B
b100010001011100000 e"
1+
#1410000000
0+
#1420000000
b100011001010000000 ^
b100010101010110000 B
b100010101010110000 e"
1+
#1430000000
0+
#1440000000
b100011101001010000 ^
b100011001010000000 B
b100011001010000000 e"
1+
#1450000000
0+
#1460000000
b100100001000100000 ^
b100011101001010000 B
b100011101001010000 e"
1+
#1470000000
0+
#1480000000
b100100100111110000 ^
b100100001000100000 B
b100100001000100000 e"
1+
#1490000000
0+
#1500000000
b100101000111000000 ^
b100100100111110000 B
b100100100111110000 e"
1+
#1510000000
0+
#1520000000
b100101100110010000 ^
b100101000111000000 B
b100101000111000000 e"
1+
#1530000000
0+
#1540000000
b100110000101100000 ^
b100101100110010000 B
b100101100110010000 e"
1+
#1550000000
0+
#1560000000
b100110100100110000 ^
b100110000101100000 B
b100110000101100000 e"
1+
#1570000000
0+
#1580000000
b100111000100000000 ^
b100110100100110000 B
b100110100100110000 e"
1+
#1590000000
0+
#1600000000
b100111100011010000 ^
b100111000100000000 B
b100111000100000000 e"
1+
#1610000000
0+
#1620000000
b101000000010100000 ^
b100111100011010000 B
b100111100011010000 e"
1+
#1630000000
0+
#1640000000
b101000100001110000 ^
b101000000010100000 B
b101000000010100000 e"
1+
#1650000000
0+
#1660000000
b101001000001000000 ^
b101000100001110000 B
b101000100001110000 e"
1+
#1670000000
0+
#1680000000
b101001100000010000 ^
b101001000001000000 B
b101001000001000000 e"
1+
#1690000000
0+
#1700000000
b101001111111100000 ^
b101001100000010000 B
b101001100000010000 e"
1+
#1710000000
0+
#1720000000
b101010011110110000 ^
b101001111111100000 B
b101001111111100000 e"
1+
#1730000000
0+
#1740000000
b101010111110000000 ^
b101010011110110000 B
b101010011110110000 e"
1+
#1750000000
0+
#1760000000
b101011011101010000 ^
b101010111110000000 B
b101010111110000000 e"
1+
#1770000000
0+
#1780000000
b101011111100100000 ^
b101011011101010000 B
b101011011101010000 e"
1+
#1790000000
0+
#1800000000
b101100011011110000 ^
b101011111100100000 B
b101011111100100000 e"
1+
#1810000000
0+
#1820000000
b101100111011000000 ^
b101100011011110000 B
b101100011011110000 e"
1+
#1830000000
0+
#1840000000
b101101011010010000 ^
b101100111011000000 B
b101100111011000000 e"
1+
#1850000000
0+
#1860000000
b101101111001100000 ^
b101101011010010000 B
b101101011010010000 e"
1+
#1870000000
0+
#1880000000
b101110011000110000 ^
b101101111001100000 B
b101101111001100000 e"
1+
#1890000000
0+
#1900000000
b101110111000000000 ^
b101110011000110000 B
b101110011000110000 e"
1+
#1910000000
0+
#1920000000
b101111010111010000 ^
b101110111000000000 B
b101110111000000000 e"
1+
#1930000000
0+
#1940000000
b101111110110100000 ^
b101111010111010000 B
b101111010111010000 e"
1+
#1950000000
0+
#1960000000
b110000010101110000 ^
b101111110110100000 B
b101111110110100000 e"
1+
#1970000000
0+
#1980000000
b110000110101000000 ^
b110000010101110000 B
b110000010101110000 e"
1+
#1990000000
0+
#2000000000
b110001010100010000 ^
b110000110101000000 B
b110000110101000000 e"
1+
#2010000000
0+
#2020000000
b110001110011100000 ^
b110001010100010000 B
b110001010100010000 e"
1+
#2030000000
0+
#2040000000
b110010010010110000 ^
b110001110011100000 B
b110001110011100000 e"
1+
#2050000000
0+
#2060000000
b110010110010000000 ^
b110010010010110000 B
b110010010010110000 e"
1+
#2070000000
0+
#2080000000
b110011010001010000 ^
b110010110010000000 B
b110010110010000000 e"
1+
#2090000000
0+
#2100000000
b110011110000100000 ^
b110011010001010000 B
b110011010001010000 e"
1+
#2110000000
0+
#2120000000
b110100001111110000 ^
b110011110000100000 B
b110011110000100000 e"
1+
#2130000000
0+
#2140000000
b110100101111000000 ^
b110100001111110000 B
b110100001111110000 e"
1+
#2150000000
0+
#2160000000
b110101001110010000 ^
b110100101111000000 B
b110100101111000000 e"
1+
#2170000000
0+
